Mystic River Basin Trails: LONG TRACK	Road, Recreation			World/United States, World/United States/Massachusetts	7.82 Km	3/11/02 1:28 PM	27m 30s	27m 30s	19 m	4.74 m/s	6.99 m/s	3 %	42 W	116 W	66 kcal	21.13 m	10.83 m		
Mystic River Basin Trails: SHORT TRACK	Road, Recreation			World/United States, World/United States/Massachusetts	4.14 Km	3/7/02 1:42 PM	15m 40s	15m 40s	40 m	4.40 m/s	5.78 m/s	3 %	36 W	151 W	23 kcal	10.46 m	33.85 m		
Mystic River Basin Trails: TUFTS CONNECT	Road, Recreation			World/United States, World/United States/Massachusetts	1.10 Km	3/7/02 1:38 PM	3m 50s	3m 50s	49 m	4.78 m/s	5.37 m/s	0 %	36 W	69 W	8 kcal	0.00 m	0.75 m		
