<?xml version="1.0" encoding="UTF-8" standalone="no"?>
<svg




xmlns="http://www.w3.org/2000/svg"
id="Layer_1"
style="enable-background:new -0.258 -0.548 123.547 123.539"
xml:space="preserve"
viewBox="-0.258 -0.548 123.547 123.539"
version="1.1"
y="0px"
x="0px">
<g
id="g22">
<path
d="m 108.69,122.95 c 8.148,0 14.766,-6.617 14.766,-14.781 v -94.08 c 0,-8.156 -6.617,-14.773 -14.766,-14.773 H 14.609 c -8.156,0 -14.766,6.617 -14.766,14.773 v 94.078 c 0,8.164 6.609,14.781 14.766,14.781 h 94.081 z"
id="path2"
/>
<path
style="fill:#fff"
d="M 14.609,1.816 C 7.851,1.816 2.343,7.324 2.343,14.089 v 94.078 c 0,6.773 5.508,12.281 12.266,12.281 h 94.078 c 6.758,0 12.281,-5.508 12.281,-12.281 v -94.08 c 0,-6.766 -5.523,-12.273 -12.281,-12.273 H 14.606 Z"
id="path8"
/>
<g
id="g870"
transform="translate(83.921,-102.111)"><polygon
id="polygon840"
points="21.641,68.352 28.875,52.893 21.317,52.882 12.987,68.352 "
transform="matrix(1.713,0,0,1.931,-96.689,73.119)" />
<path
id="path842"
d="m -42.324,175.059 -9.870,29.877 15.497,-0.046 2.482,-9.773 c 0,0 5.325,-15.344 4.041,-17.436 -2.117,-3.449 -9.141,-2.335 -8.400,-2.543 0.740,-0.208 -3.750,-0.077 -3.750,-0.077 z"
style="stroke-width:1.819" /><polygon
id="polygon844"
points="47.293,53.64 40.693,53.64 40.175,57.311 39.167,68.352 48.268,68.375 47.956,59.11 "
transform="matrix(1.713,0,0,1.931,-96.689,73.119)" />
<path
id="path846"
d="m -7.708,193.027 1.668,12.329 15.233,0.061 -8.003,-29.736 -2.780,-0.019 c 0,0 -7.559,-0.896 -7.312,1.066 0.280,2.227 3.084,1.466 0.675,2.093 -2.409,0.627 0.519,14.204 0.519,14.204 z"
style="stroke-width:1.819" /><polygon
id="polygon848"
points="66.814,53.195 59.919,53.167 66.567,68.376 75.089,68.259 "
transform="matrix(1.713,0,0,1.931,-96.689,73.119)" />
<path
id="path850"
d="m -20.127,126.994 c 0,0 -4.394,0.158 -9.637,9.613 -1.584,2.856 -2.779,8.149 -5.189,9.613 -2.410,1.464 -5.924,1.282 -6.673,2.298 -1.817,2.462 0.227,4.529 0.227,4.529 0,0 1.171,0.600 2.657,0.790 3.697,0.473 5.918,-0.977 5.918,-0.977 0,0 5.654,-2.808 7.509,-6.849 0.993,-2.165 2.224,0.208 2.038,2.089 -0.185,1.881 0.700,7.052 -0.370,8.149 -4.077,4.177 -12.603,14.208 -12.603,14.208 l -4.463,18.042 0.803,2.039 2.143,1.585 3.305,0.021 2.338,-1.185 4.209,-17.270 7.953,-8.305 1.286,-0.658 4.478,12.626 9.639,12.956 c 0,0 1.108,0.419 2.594,-1.044 1.485,-1.464 2.964,-2.088 1.853,-4.386 -1.110,-2.298 -8.342,-14.422 -8.342,-14.422 l -1.110,-30.300 2.224,3.341 v 10.239 c 0,0 -0.111,3.204 2.964,3.134 2.654,-0.059 3.354,-1.379 3.354,-1.379 V 141.257 c 0,0 -6.432,-14.633 -11.695,-14.890 -2.969,-0.144 -7.415,0.627 -7.415,0.627 z"
style="stroke:#fff;stroke-width:1.819" /><ellipse
id="ellipse852"
ry="7.312"
rx="6.951"
cx="-20.775"
cy="119.262"
style="stroke-width:1.819" /></g></g>
</svg>
