<?xml version="1.0" encoding="UTF-8" standalone="no"?>
<svg

xmlns="http://www.w3.org/2000/svg"
viewBox="-0.258 -0.548 123.547 123.539"
version="1.1"
y="0px"
x="0px"
>
<g>
<path
d="m 108.69,122.95 c 8.148,0 14.766,-6.617 14.766,-14.781 v -94.08 c 0,-8.156 -6.617,-14.773 -14.766,-14.773 H 14.609 c -8.156,0 -14.766,6.617 -14.766,14.773 v 94.078 c 0,8.164 6.609,14.781 14.766,14.781 h 94.081 z"
/>
<path
style="fill:#fff"
d="M 14.609,1.816 C 7.851,1.816 2.343,7.324 2.343,14.089 v 94.078 c 0,6.773 5.508,12.281 12.266,12.281 h 94.078 c 6.758,0 12.281,-5.508 12.281,-12.281 v -94.08 c 0,-6.766 -5.523,-12.273 -12.281,-12.273 H 14.606 Z"
/>
<g
transform="translate(83.921,-102.111)"
><g
transform="matrix(0.755,0,0,0.755,-73.569,112.773)">
<path
d="m 133.909,87.275 c 0,2.860 -2.319,5.179 -5.179,5.179 v 0 c -2.683,0.226 -5.173,1.490 -6.940,3.522 -2.811,2.990 -6.397,5.142 -10.359,6.215 -6.334,1.881 -13.191,0.439 -18.233,-3.833 l -4.040,-3.625 c -3.083,-3.147 -8.133,-3.198 -11.280,-0.114 -0.038,0.038 -0.076,0.076 -0.114,0.114 -1.450,1.243 -2.797,2.589 -4.351,3.833 -7.539,5.992 -18.298,5.686 -25.484,-0.725 l -3.522,-3.418 -1.035,-0.621 3.107,12.638 5.076,20.719 c 0.858,2.728 -0.656,5.636 -3.384,6.496 -0.546,0.171 -1.118,0.251 -1.691,0.237 H 5.035 c -2.860,0 -5.179,-2.319 -5.179,-5.179 V 4.398 c 0,-2.860 2.319,-5.179 5.179,-5.179 H 16.431 c 2.430,-0.011 4.541,1.668 5.076,4.040 l 9.427,38.019 v 1.450 c 6.805,-3.252 14.877,-2.284 20.719,2.486 1.657,1.346 3.211,2.900 4.869,4.247 2.949,2.637 7.410,2.637 10.359,0 1.657,-1.346 3.211,-2.900 4.869,-4.247 7.330,-6.182 18.050,-6.182 25.381,0 1.553,1.346 3.004,2.797 4.558,4.040 2.949,2.637 7.410,2.637 10.359,0 l 4.869,-4.247 c 3.276,-2.768 7.416,-4.306 11.706,-4.351 v 0 c 2.860,0 5.179,2.319 5.179,5.179 0,2.860 -2.319,5.179 -5.179,5.179 v 0 c -2.683,0.226 -5.173,1.490 -6.940,3.522 -2.811,2.990 -6.397,5.142 -10.359,6.215 -6.334,1.881 -13.192,0.439 -18.233,-3.833 L 89.674,53.399 C 86.591,50.252 81.540,50.201 78.393,53.284 c -0.038,0.038 -0.076,0.076 -0.114,0.114 -1.450,1.243 -2.797,2.589 -4.351,3.833 -7.539,5.992 -18.298,5.686 -25.484,-0.725 l -4.040,-3.522 c -2.949,-2.637 -7.410,-2.637 -10.359,0 l -0.621,0.518 7.148,28.592 c 4.067,0.300 7.940,1.857 11.084,4.454 1.657,1.346 3.211,2.900 4.869,4.247 2.949,2.637 7.410,2.637 10.359,0 1.657,-1.346 3.211,-2.900 4.869,-4.247 7.330,-6.182 18.050,-6.182 25.381,0 1.553,1.346 3.004,2.797 4.558,4.040 2.949,2.637 7.410,2.637 10.359,0 l 4.869,-4.247 c 3.291,-2.730 7.429,-4.231 11.706,-4.247 v 0 c 2.860,-0.057 5.225,2.214 5.282,5.075 0.001,0.035 0.001,0.069 0.001,0.104 z"
style="stroke-width:10.359" /></g></g></g>
</svg>
