<?xml version="1.0" encoding="UTF-8" standalone="no"?>
<svg




xmlns="http://www.w3.org/2000/svg"
id="Layer_1"
style="enable-background:new -0.258 -0.548 123.547 123.539"
xml:space="preserve"
viewBox="-0.258 -0.548 123.547 123.539"
version="1.1"
y="0px"
x="0px">
<g
id="g22">
<path
d="m 108.69,122.95 c 8.148,0 14.766,-6.617 14.766,-14.781 v -94.08 c 0,-8.156 -6.617,-14.773 -14.766,-14.773 H 14.609 c -8.156,0 -14.766,6.617 -14.766,14.773 v 94.078 c 0,8.164 6.609,14.781 14.766,14.781 h 94.081 z"
id="path2"/>
<path
style="fill:#fff"
d="M 14.609,1.816 C 7.851,1.816 2.343,7.324 2.343,14.089 v 94.078 c 0,6.773 5.508,12.281 12.266,12.281 h 94.078 c 6.758,0 12.281,-5.508 12.281,-12.281 v -94.08 c 0,-6.766 -5.523,-12.273 -12.281,-12.273 H 14.606 Z"
id="path8"/>
<path
d="m 113.448,64.615 v 41.908 c 0,1.403 -1.138,2.541 -2.541,2.541 H 12.639 c -1.403,0 -2.541,-1.138 -2.541,-2.541 V 76.870 c 0,-0.963 0.544,-1.844 1.406,-2.274 L 36.071,62.341 c 0.787,-0.392 1.723,-0.350 2.471,0.112 0.748,0.463 1.204,1.280 1.204,2.161 v 8.147 l 15.043,-7.504 V 40.437 c 0,-1.403 1.138,-2.541 2.541,-2.541 h 4.612 c 1.403,0 2.541,1.138 2.541,2.541 V 72.677 L 81.270,64.304 82.309,19.276 c 0.032,-1.380 1.159,-2.482 2.540,-2.482 h 11.078 c 1.380,0 2.508,1.102 2.540,2.482 l 1.111,48.148 10.191,-5.083 c 0.787,-0.392 1.722,-0.350 2.471,0.112 0.748,0.463 1.204,1.280 1.204,2.160 z M 27.927,88.497 h -6.874 v 9.660 h 6.874 z m 18.615,0 h -6.874 v 9.660 h 6.874 z m 18.616,0 h -6.874 v 9.660 h 6.874 z m 18.616,0 H 76.901 v 9.660 h 6.874 z"
id="path2-0"
style="fill:#000 stroke-width:0.508" /></g>
</svg>
