<?xml version="1.0" encoding="UTF-8" standalone="no"?>
<svg
xmlns:dc="http://purl.org/dc/elements/1.1/"
xmlns:cc="http://creativecommons.org/ns#"
xmlns:rdf="http://www.w3.org/1999/02/22-rdf-syntax-ns#"
xmlns:svg="http://www.w3.org/2000/svg"
xmlns="http://www.w3.org/2000/svg"
id="svg2"
viewBox="0 0 1361.3 938.00001"
version="1.0"
width="52"
height="36">
<defs
id="defs15" />
<g
id="g2236"
transform="translate(-4.541,298.11501)">
<path
id="path2189"
style="fill:#d40000;fill-rule:evenodd;stroke:#0000ef;stroke-width:3.23786092"
d="m 750.79384,426.47041 -445.84,-151.1057 c -101.66,-147.7742 382.82,-329.643865 421.98,-327.698548 l 365.36996,74.283152 c 207.2,56.682111 454.4,163.756086 35.5,268.442106 -126.79,31.69585 -308.83996,168.52036 -377.00996,136.07899 z" />
<path
id="path2197"
style="fill:#aa0000;fill-rule:evenodd;stroke:#0000ef;stroke-width:3.23786092"
d="m 225.91384,254.32733 -189.85,-61.86574 c 10.164,-145.421182 231.52,-291.692706 272.37,-211.771634 l 211.54,-19.045469 z" />
<path
id="path2187"
style="fill:#fce94f;fill-rule:evenodd;stroke:#0000ef;stroke-width:3.23786092"
d="m 548.54384,0.03828886 -305.88,-3.94887756 c 31.91,-63.5839083 236.9,-132.4562813 469.22,-59.4195313 -74.61,32.860713 -108.89,42.249488 -163.34,63.36840886 z" />
<path
id="path2193"
style="fill:#999999;fill-rule:evenodd;stroke:#0000ef;stroke-width:3.23786092"
d="m 635.42384,-99.537478 c 11.41,-10.475592 144.91,41.123068 103.05,52.864862 l -323.85,134.145332 c -83.76,34.701194 -96.25,139.305664 -83.78,195.382044 l -107.67,-25.84825 c -10.84,-12.72028 -23.95,-140.87822 17.49,-182.00945 63.84,-63.356761 384.63,-178.10717 394.76,-174.53104 z" />
<path
id="path1308"
style="fill:#2e3436;fill-opacity:0.94118;fill-rule:evenodd;stroke-width:1.07928705"
d="m 417.17384,-92.207012 c -19.03,5.572693 -1.73,-97.384668 -10.48,-94.852258 l -49.86,14.42214 -2.21,111.368813 -14.14,1.735641 2.02,-110.886554 -54.56,14.72267 -2.01,106.437953 c -0.74,39.057772 9.76,-0.08154 -11.36,4.251742 -9.26,1.898722 5.25,-108.527725 -3.27,-105.531705 l -44.47,15.64524 -4.38,103.818196 c -2.45,57.998402 23.25,5.078791 -9.42,12.988194 -11.86,2.865556 5.76,-116.20532 -3.92,-112.47776 l -37.38,14.38719 -2.64,117.2665031 c -1.42,62.5413589 22.88,-3.7042561 -11.46,7.1056486 -11.56,3.6343643 6.79,-121.1687917 -2.57,-117.6043117 -23.63,9.01135 -46.08,24.375869 -46.12,26.9141 l -3.04,171.583946 c 0.62,-42.517406 -8.822,22.155654 -14.3,-11.054525 -4.831,-29.284592 4.97,-155.753493 2.697,-154.413904 -26.291,15.492645 -44.152,34.165358 -45.587,56.390896 l -5.357,198.678607 705.92,233.24001 4.67,-145.19986 c -9.71,-41.43409 6.45,-78.81446 36.35,-115.64735 84.4,-51.731448 416.20996,-145.8055838 512.30996,-170.22106 39.4,-8.724804 61.8,4.379875 65.1,42.435868 l -7.2,300.999952 -22.2,9.08591 2.7,-108.41357 -562.50996,229.75708 -2.56,106.80606 -27.66,-2.88885 -4.07,-109.26392 -696.89,-229.68719 -6.036,128.1929 c -0.516,16.13332 -10.252,21.51497 -34.8360005,9.59845 L 11.04504,-33.722863 c 7.2608,-31.008585 35.322,-55.46367 72.155,-74.751417 90.227,-47.24442 413.92,-113.12193 432.63,-118.59445 47.52,33.7134 22.26,74.43575 34.26,104.76755 l -18.33,0.62786 c 0.34,-60.3456 3.77,-105.6575 -50.7,-84.11574 l 0.3,102.94338 -13.05,4.316969 -1.95,-103.743629 -42.84,11.85129 -0.85,96.61352 -5.49,1.608675 z m 431.58,251.901082 -2.27,226.34403 -70.32,33.08204 4.75,-154.57698 c 7.29,-53.79325 16.41,-88.47116 67.84,-104.84909 z m 438.64996,-144.617433 -58.7,18.230066 -0.9,210.723257 59.6,-26.72189 z m -362.55996,114.272813 -61,19.34833 -6.58,235.55809 63.64,-25.65023 m 296.19996,-323.947699 -3.4,213.355849 -55.8,23.09918 6.5,-218.784095 z m 134.1,7.921052 -5.1,144.652377 -40.9,23.15742 0.2,-202.5109902 c 15.5,4.9856022 38,-1.7123449 45.8,34.7011932 z m -354.80996,287.685597 3.32,-231.003484 -60.94,23.355454 -0.32,229.94346 z m 89.10996,-32.98885 61.1,-25.03285 1.6,-213.728605 -59.5,14.921862 m -15.6,2.271478 -59.4,20.221978 -7.8,230.048297 65,-28.70216" />
<path
id="path2191"
style="fill:#666666;fill-rule:evenodd;stroke:#0000ef;stroke-width:3.23786092"
d="m 236.50384,100.04156 c -54.89,0.57078 -110.46,26.05793 -161.34,-15.422753 l 12.044,-39.779984 c 134.17,-28.853595 209.08,64.102277 149.3,55.202737 z" />
<path
id="path1357"
style="fill:#666666;fill-rule:evenodd;stroke:#0000ef;stroke-width:3.23786092"
d="m 470.01384,-3.5960754 c -54.9,0.5707813 -46.93,0.1863772 -97.81,-41.2826546 l -28.29,-47.62299 c 134.16,-28.85243 185.87,97.8168262 126.1,88.9056446 z" />
<path
id="path1359"
style="fill:#999999;fill-rule:evenodd;stroke:#0000ef;stroke-width:3.23786092"
d="m 471.80384,-2.6175928 c -27.88,-58.1032402 -49.03,-98.6299072 -119.21,-85.4774612 76.87,-45.554196 -2.38,0.434492 138.92,-55.110706 49.68,-34.32145 116.04,21.98907 161.6,65.192573 -62.28,41.742775 -139.84,71.5399058 -181.31,75.3955942 z" />
<path
id="path2185"
style="fill:#999999;fill-rule:evenodd;stroke:#0000ef;stroke-width:3.23786092"
d="m 256.37384,99.971671 c -27.89,-58.091595 -107.95,-66.443644 -178.12,-53.292369 76.86,-45.5460441 63.67,-56.6471649 204.96,-112.19936 49.68,-34.316787 108.38,-1.912701 153.94,41.294303 0,43.99678 -137.37,77.276844 -180.78,124.197426 z" />
</g>
</svg>
