<?xml version="1.0" encoding="UTF-8" standalone="no"?>
<svg
xmlns:rdf="http://www.w3.org/1999/02/22-rdf-syntax-ns#"
xmlns="http://www.w3.org/2000/svg"
xmlns:cc="http://creativecommons.org/ns#"
xmlns:xlink="http://www.w3.org/1999/xlink"
xmlns:dc="http://purl.org/dc/elements/1.1/"
xmlns:svg="http://www.w3.org/2000/svg"
id="svg5586"
viewBox="0 0 300 300"
version="1.1"
width="36"
height="36"
>
<title
id="title8788"
>Hearth</title
>
<defs
id="defs5588"
>
<linearGradient
id="linearGradient5443"
y2="734.99"
gradientUnits="userSpaceOnUse"
x2="903.16"
gradientTransform="matrix(1.9193 0 0 1.9193 -1277.9 -963.56)"
y1="649.01"
x1="903.16"
>
<stop
id="stop6233-8"
style="stop-color:#ffffff"
offset="0"
/>
<stop
id="stop6235-1"
style="stop-color:#ffffff;stop-opacity:0"
offset="1"
/>
</linearGradient
>
<radialGradient
id="radialGradient5507"
gradientUnits="userSpaceOnUse"
cy="-8.7256"
cx="61.24"
gradientTransform="matrix(1.2791 24.165 -24.165 1.2791 169.44 -1141.5)"
r="9.7553"
>
<stop
id="stop4627-4"
style="stop-color:#51cfee"
offset="0"
/>
<stop
id="stop4629-7"
style="stop-color:#49a3d2"
offset=".26238"
/>
<stop
id="stop4631-4"
style="stop-color:#3470b4"
offset=".70495"
/>
<stop
id="stop4633-4"
style="stop-color:#273567"
offset="1"
/>
</radialGradient
>
<linearGradient
id="linearGradient5509"
y2="2.6887"
gradientUnits="userSpaceOnUse"
x2="20"
gradientTransform="matrix(6.7213 -.35577 .35576 6.7211 291.34 273.44)"
y1="43"
x1="20"
>
<stop
id="stop4637-0"
style="stop-color:#254b6d"
offset="0"
/>
<stop
id="stop4639-7"
style="stop-color:#415b73"
offset=".5"
/>
<stop
id="stop4641-8"
style="stop-color:#6195b5"
offset="1"
/>
</linearGradient
>
<filter
id="filter6214-5"
color-interpolation-filters="sRGB"
>
<feGaussianBlur
id="feGaussianBlur6216-2"
stdDeviation="3.9440652"
/>
</filter
>
</defs
>
<g
id="layer1"
transform="translate(-314.49 -266.44)"
>
<path
id="path6184"
style="opacity:.6;filter:url(#filter6214-5);fill:#000000"
d="m986.67 721.07c2.3027 43.504-31.099 80.639-74.599 82.941-43.503 2.3027-80.637-31.098-82.94-74.602-2.3027-43.502 31.097-80.633 74.601-82.936 43.499-2.3025 80.635 31.095 82.937 74.597z"
transform="matrix(1.6978 0 0 1.6978 -1077 -814.92)"
/>
<path
id="path4649"
style="stroke:url(#linearGradient5509);stroke-width:12.755;fill:url(#radialGradient5507)"
d="m597.46 416.31c3.9098 73.864-52.802 136.91-126.66 140.82-73.862 3.9097-136.91-52.8-140.82-126.66-3.9096-73.86 52.799-136.9 126.66-140.81 73.855-3.9093 136.91 52.794 140.82 126.65z"
/>
<path
id="path6415"
style="opacity:.4;fill:#000000"
d="m460.4 294.67-15.674 2.6636-17.094 5.7188c1.45-0.60304 2.9166-1.2552 4.4212-1.8387l-2.2213-3.5503-6.6982 1.5008-3.2101 3.3793-5.1453 0.96008-4.6102 2.5364-2.1924 1.2623-0.62751 0.95017-3.3431 0.86467-1.7977 4.4507-2.994-5.3433-0.78015 2.3337 0.77726 6.1483-4.0869 3.8842-2.1274 6.7606 5.1818-0.27427 1.7977-4.4507 0.5912-1.636c2.1918-1.7554 4.2553-3.6905 6.4926-5.387l5.5039 1.5426c3.6488 2.2405 7.3243 4.5181 10.976 6.7547l4.9277-5.0748-5.9908-2.2045-2.9938-5.3433-9.9735-0.61828-0.28575-1.1311 4.329 0.68781 2.3451-2.6458 5.3465-1.4292c1.2462-0.69917 2.4809-1.2206 3.7453-1.8029l-3.21 3.3792 12.614 7.8142 0.26622 5.0292-4.4771 5.051 6.9858 12.468 4.1475-2.7412 4.9594-8.7444c7.4756-2.7872 14.18-5.9248 21.18-9.603l-0.28134 3.2242 3.7378 2.3238 6.0783-4.6773-3.3476-3.4906-4.1475 2.7412-1.3759-0.38564c0.30289-0.16045 0.57285-0.34205 0.87694-0.50489l5.437-16.793-14.033-4.759zm-60.424 27.956 5.3752 3.3833 4.2806-0.22656-0.22988-4.3434-5.3027-2.0117-4.1232 3.1984zm119.47-9.3041-9.1161 2.7749-5.6518 4.1962 0.18151 3.429-8.9226 6.4325 2.2743 8.82 5.2014-4.1724 3.5852 3.7073 3.951 2.0833 2.1272-6.7606-1.5574-3.8146 1.2065-2.8148 5.1409-5.3154 2.4782-0.13122-2.1878 5.6176 0.26622 5.0292c2.196-0.7335 4.4329-1.0923 6.6984-1.5008l-6.0662 4.9059-0.30544 2.767-6.8827 6.5538-7.5315-1.4353-0.2299-4.3434-3.2583 2.4648 1.7827 3.8027-5.407 0.28621-2.6628 5.1842-3.3869 4.3056-6.4608 1.7174 4.0356 3.6835 1.1068 3.8385-4.7311 0.25042-6.1267 3.7629 0.53228 10.058 2.9288-0.15498 2.8609 2.8287 5.9257-3.2938 1.9262-6.2914 4.3606-2.9817 0.78016-2.3337 7.1126-2.2104 4.2972 4.3574 4.4017 2.0594-2.2121 5.1604 3.7696-1.3457 1.7614-5.1365-5.2589-5.4526 2.0277-0.10731 5.1742 3.8524 1.1916 5.4387 4.5467 4.8026 0.73925-7.3748 2.1924-1.2622c2.5318 2.3992 4.5857 5.3883 6.7559 8.1243l7.459 0.0636 4.4258 2.5166-1.8703 3.0791-4.0748 4.1128-6.3084 0.3339-8.4809-2.3019-4.2563 0.68382-2.9606 3.8246-9.4957-8.667-6.4052-1.4949-9.1765 1.6319-7.9896 2.7153c-4.3448 5.5672-8.7969 11.199-12.884 16.958l-4.504 13.076 2.6233 2.612-4.1548 6.8679 5.5735 11.396c4.3748 4.5156 8.7723 8.998 13.141 13.517l5.8046-5.5798 2.6476 3.0692 6.3036-4.6892 2.386 2.3953 6.5335-0.34583 4.0599 4.1407-1.8415 7.8916 4.7842 5.0193 0.25859 9.1559 3.7303 6.4505-2.1758 5.8462c-0.0238 4.1116-0.0254 8.0401 0.19084 12.14 2.2817 5.4486 4.5677 10.883 6.7408 16.378l1.8237 8.8438 0.24211 4.572 3.6047-0.1908 5.0002-3.7033 6.3082-0.3339 8.8937-11.245-1.3201-3.598 6.0058-6.0489-5.0095-5.0074 5.3903-4.8701 5.2255-3.7152 2.333-2.8744-1.9036-6.0887c-0.27503-5.1963-0.54771-10.348-0.82294-15.545l3.7724-9.8277 5.0924-6.2298 5.0832-14.94-0.20562-3.8862c-2.8952 0.52686-5.6715 1.0108-8.5128 1.3676l5.5431-6.2536 7.8201-5.9157 4.0144-5.2558-0.2905-5.4864c-1.0691-1.8064-2.1554-3.7539-3.2314-5.56l-3.5879 4.7747-3.1103-3.2739-4.4621-3.2024-0.37506-7.0866 5.2589 5.4526 5.5961-0.9839c2.6648 2.2061 5.2148 4.1581 7.5845 6.705l3.3869-4.3057c-0.23447-4.4299-6.3092-26.039-17.917-43.983-11.607-17.938-31.164-33.883-31.164-33.883l-1.2187 2.5862-4.666 5.7487-6.6591-6.2955 6.3082-0.33391 2.7594-3.3554-11.836-1.6659-6.2039-1.964zm-135.24 10.139-1.9383 6.0628s-3.9093 0.86953-4.908 1.1768c-12.286 12.77-36.964 40.364-40.424 89.939 0.30069 1.1292 4.692 7.5458 4.692 7.5458l10.228 5.4188 10.058 2.2185 4.5587 5.0312 6.7997 4.6834 3.7938-0.88849 2.776 1.2285 0.0493 0.91438-3.0602 10.478-2.6989 4.4984 1.0102 2.0097-1.8174 8.3488 9.1587 15.104 8.9604 7.0906 4.1203 5.2836 0.1545 11.454 3.0424 6.2577-2.0502 12.487s-0.36606-0.0829 0.0611 1.143c0.4299 1.2259 15.569 8.8239 16.468 8.0687 0.89444-0.76822 1.7298-1.467 1.7298-1.467l-1.0464-2.6955 3.6363-3.8603 1.146-3.9577 5.974-2.3794 4.102-12.138-1.5211-3.1288 2.8879-5.1962 7.1247-1.9818 3.1449-8.8776-1.47-10.696 5.2088-8.2991 0.46556-8.2773c-7.9337-3.4795-15.727-7.0735-23.609-10.671l-4.2293-7.341-7.0687-1.2305-4.3745-10.084-9.1765 1.6319-8.4252-5.5143-8.1619 7.997 0.0611 1.143c-2.604-0.61525-5.6475-0.565-8.0062-1.8686l-2.0928-5.391-0.31461-5.9436-5.8212 0.99583c0.27097-3.8109 0.69764-7.703 0.97202-11.513l-3.3794 0.1789-3.1495 4.5223-3.0694 1.7672-4.8764-2.4928-0.76522-5.9198 0.56231-6.4485 6.6938-5.8561 5.6323-0.29815 0.95708-3.26 7.0688 1.2305 5.5326 6.3551 0.32038-11.02 8.6125-8.0208 2.7305-8.1679 6.6136-3.101 3.3144-5.6772 8.4763-2.0534 3.9419-6.6274c-4.237 0.22427-8.6049 0.45548-12.842 0.67975l7.905-4.3155 5.6323-0.29813 7.0763-2.8962 1.7269 7.015 2.8879-5.1961-3.7378-2.3238 0.74385-3.0195-3.074-2.5882-3.2025-0.74745 0.71954-3.4767-2.7323-4.6694-5.5112 2.5841 0.67117-4.3911-6.7391-3.5404-4.6978 9.4183 0.62005 3.1765-5.0608 2.5603-2.779 7.2535-1.9279-6.5459-8.9801-3.1925-1.8432-4.9457 11.577-7.49 4.9156-5.3035 0.13585-5.9674-3.0135-1.4452-3.8543-0.25445v-0.00002zm97.232 5.8569 0.19355 3.6576 2.1486 2.1787 0.2905 5.4864-0.73925 7.3748 5.7972-1.4531 4.0506-4.5699-4.0236-3.4549c-1.4197-3.2902-2.8386-6.25-4.5635-9.3865l-3.1541 0.16691zm-4.5693 7.5775-3.5442 1.3338 1.2522 6.5817 4.598-2.765-2.306-5.1504zm69.193 56.628 5.7459 6.1145 7.2838 13.827 4.2973 4.3573-1.7736 4.908 3.8346 4.1526c-1.6483 0.19836-3.2441 0.40097-4.9443 0.49098-3.4373-6.4221-6.2333-12.934-8.9502-19.699l-4.2972-4.3573-2.6886-8.1103 1.4924-1.6836v-0.00003z"
/>
<path
id="path6229"
style="opacity:.6;fill:url(#linearGradient5443)"
d="m601.74 417.46s-81.53-96.489-143.17-34.847c-61.642 61.642-132.07 35.98-132.07 35.98 0-61.708 54.49-132.85 132.54-132.85 109.05 0 142.7 94.208 142.7 131.72z"
/>
</g
>
</svg
>
