<?xml version="1.0" encoding="UTF-8" standalone="no"?>
<svg
xmlns:svg="http://www.w3.org/2000/svg"
xmlns="http://www.w3.org/2000/svg"
id="svg2"
xml:space="preserve"
viewBox="13.5 -18.5 302 274.5"
version="1.1"
width="36"
height="36"
y="0px"
x="0px"
enable-background="new 13.5 -18.5 302 274.5">
<linearGradient
id="SVGID_1_"
y2="181.61"
gradientUnits="userSpaceOnUse"
x2="371.21"
y1="255.12"
x1="76.367">
<stop
style="stop-color:#5A0000"
offset=".4601"
id="stop2" />
<stop
style="stop-color:#842709"
offset=".546"
id="stop4" />
<stop
style="stop-color:#AC4D12"
offset=".6445"
id="stop6" />
<stop
style="stop-color:#CC6B19"
offset=".7413"
id="stop8" />
<stop
style="stop-color:#E3801E"
offset=".8344"
id="stop10" />
<stop
style="stop-color:#F08D21"
offset=".9224"
id="stop12" />
<stop
style="stop-color:#F59122"
offset="1"
id="stop14" />
</linearGradient>


<linearGradient
id="SVGID_2_"
y2="83.872"
gradientUnits="userSpaceOnUse"
x2="355.08"
y1="130.4"
x1="233.87">
<stop
style="stop-color:#FFD100"
offset="0"
id="stop19" />
<stop
style="stop-color:#FCB511"
offset=".0758"
id="stop21" />
<stop
style="stop-color:#F89524"
offset=".1782"
id="stop23" />
<stop
style="stop-color:#F57E32"
offset=".2775"
id="stop25" />
<stop
style="stop-color:#F4713A"
offset=".3713"
id="stop27" />
<stop
style="stop-color:#F36C3D"
offset=".454"
id="stop29" />
<stop
style="stop-color:#883A19"
offset="1"
id="stop31" />
</linearGradient>

<linearGradient
id="SVGID_3_"
y2="91.446"
gradientUnits="userSpaceOnUse"
x2="341.23"
y1="122.15"
x1="261.23">
<stop
style="stop-color:#FFD100"
offset="0"
id="stop36" />
<stop
style="stop-color:#FCB511"
offset=".0758"
id="stop38" />
<stop
style="stop-color:#F89524"
offset=".1782"
id="stop40" />
<stop
style="stop-color:#F57E32"
offset=".2775"
id="stop42" />
<stop
style="stop-color:#F4713A"
offset=".3713"
id="stop44" />
<stop
style="stop-color:#F36C3D"
offset=".454"
id="stop46" />
<stop
style="stop-color:#883A19"
offset="1"
id="stop48" />
</linearGradient>

<linearGradient
id="SVGID_4_"
y2="224.16"
gradientUnits="userSpaceOnUse"
x2="341.73"
gradientTransform="matrix(1 0 0 -1 0 409.12)"
y1="254.87"
x1="261.73">
<stop
style="stop-color:#FFD100"
offset="0"
id="stop53" />
<stop
style="stop-color:#FCB511"
offset=".0758"
id="stop55" />
<stop
style="stop-color:#F89524"
offset=".1782"
id="stop57" />
<stop
style="stop-color:#F57E32"
offset=".2775"
id="stop59" />
<stop
style="stop-color:#F4713A"
offset=".3713"
id="stop61" />
<stop
style="stop-color:#F36C3D"
offset=".454"
id="stop63" />
<stop
style="stop-color:#883A19"
offset="1"
id="stop65" />
</linearGradient>

<linearGradient
id="SVGID_5_"
y2="203.32"
gradientUnits="userSpaceOnUse"
x2="332.61"
gradientTransform="matrix(1,0,0,-1,0,412.90019)"
y1="223.59"
x1="279.81">
<stop
style="stop-color:#FFD100"
offset="0"
id="stop70" />
<stop
style="stop-color:#FCB511"
offset=".0758"
id="stop72" />
<stop
style="stop-color:#F89524"
offset=".1782"
id="stop74" />
<stop
style="stop-color:#F57E32"
offset=".2775"
id="stop76" />
<stop
style="stop-color:#F4713A"
offset=".3713"
id="stop78" />
<stop
style="stop-color:#F36C3D"
offset=".454"
id="stop80" />
<stop
style="stop-color:#883A19"
offset="1"
id="stop82" />
</linearGradient>
<g
id="g1349"><path
style="display:inline;fill:url(#SVGID_2_)"
id="path34"
d="m 315.5,254.398 c -31.474,-23.242 -54.717,-28.746 -62.361,-25.994 25.994,-9.786 26.3,-29.358 15.597,-29.97 -27.522,0.306 -40.062,-3.975 -44.648,-11.314 17.737,5.198 55.352,-7.34 55.352,-7.34 15.597,-6.728 13.149,-23.548 3.67,-30.581 -19.571,-5.198 -33.945,-4.586 -40.979,5.199 3.364,-23.548 17.737,-26.912 40.979,-26.606 26.3,1.529 17.737,-8.868 -3.058,-8.868 -4.903,0 -25.688,-10.398 -40.367,2.446 -5.811,5.811 -21.878,1.84 -22.936,1.529 -5.199,-1.529 42.337,-23.683 30.581,-32.416 -10.704,-7.951 -35.282,-4.856 -35.282,-1.452 0,-9.423 6.744,-11.234 9.636,-12.818 4.199,-1.459 12.192,-13.652 12.192,-13.652 7.562,-3.438 19.201,-16.521 18.812,-17.75 -4.68,-14.822 -34.72,-16.656 -40.68,-2.989 -4,9.167 -20.629,8.938 -17.167,6.667 10.5,-5 11.167,-5.167 11.667,-9.167 -2.83,-14.333 10.5,-17.5 14.67,-18.333 8.83,-2.167 12.46,-4.114 10.83,-5.833 -6.167,-6.5 -23.501,-3.167 -25.834,0.5 -2.333,3.667 -7.284,12.049 -6.666,8.833 1.666,-8.667 7.02,-13.55 10.666,-15.333 7.5,-3.667 18.051,1.257 27.5,-7.667 6,-5.667 21.667,-8.5 21.667,-8.5 0,0 8.5,-4.333 0.833,-6.5 -6,-0.333 -9.362,-8.585 -19.833,1.667 -8,7.833 -29.195,16.214 -33.5,13.667 -8.17,-4.834 -8.84,-12.501 -8.84,-13.001 9.5,1.333 15.078,1.449 18.166,0.333 13.83,-4.999 24.21294,-7.485121 24.21294,-7.485121 l 75.13767,0.157192 C 315.11461,71.565651 315.5,163.2957 315.5,254.398 Z"/>
<path
style="display:inline;fill:url(#SVGID_3_)"
id="path51"
d="m 315.1,36.876 v 167.12 c -20.772,-15.34 -36.112,-18.973 -41.158,-17.156 17.155,-6.459 17.358,-19.377 10.294,-19.779 -18.165,0.201 -26.441,-2.623 -29.469,-7.469 11.707,3.432 36.533,-4.844 36.533,-4.844 10.293,-4.439 8.678,-15.541 2.422,-20.184 -12.918,-3.43 -22.404,-3.027 -27.047,3.432 2.221,-15.542 11.707,-17.762 27.047,-17.56 17.357,1.009 11.706,-5.853 -2.019,-5.853 -3.236,0 -16.954,-6.863 -26.642,1.615 -3.836,3.835 -14.439,1.214 -15.139,1.009 -3.432,-1.009 27.943,-15.631 20.184,-21.394 -7.064,-5.248 -23.285,-3.205 -23.285,-0.958 0,-6.219 4.451,-7.415 6.359,-8.46 2.771,-0.963 8.047,-9.01 8.047,-9.01 4.99,-2.269 12.672,-10.904 12.416,-11.715 -3.094,-9.776 -22.918,-10.986 -26.854,-1.966 -2.641,6.05 -13.615,5.899 -11.33,4.4 6.93,-3.3 7.369,-3.41 7.699,-6.05 -1.87,-9.46 6.93,-11.55 9.68,-12.1 5.831,-1.43 8.227,-2.715 7.15,-3.85 -4.07,-4.29 -15.51,-2.09 -17.05,0.33 -1.54,2.42 -4.808,7.952 -4.399,5.83 1.1,-5.72 4.633,-8.943 7.039,-10.12 4.95,-2.42 11.914,0.83 18.15,-5.06 3.96,-3.74 14.3,-5.61 14.3,-5.61 0,0 5.61,-2.859 0.55,-4.29 -3.96,-0.22 -6.18,-5.666 -13.09,1.101 -5.279,5.169 -19.269,10.701 -22.109,9.02 -5.391,-3.19 -5.83,-8.25 -5.83,-8.58 6.27,0.88 9.951,0.956 11.989,0.22 9.131,-3.3 17.71,-6.38 17.71,-6.38 l 47.961,-1.54 -0.1,15.848 z" /><path
style="display:inline;opacity:0.67000002;fill:url(#SVGID_5_)"
id="path85"
d="m 315.36,245.59019 v -110.3 c -13.711,10.124 -23.834,12.521 -27.165,11.322 11.323,4.264 11.456,12.789 6.794,13.055 -11.988,-0.133 -17.451,1.731 -19.449,4.93 7.727,-2.265 24.111,3.197 24.111,3.197 6.794,2.93 5.729,10.257 1.6,13.32 -8.526,2.264 -14.787,1.998 -17.852,-2.264 1.466,10.256 7.727,11.723 17.852,11.59 11.455,-0.667 7.726,3.862 -1.332,3.862 -2.137,0 -11.19,4.528 -17.584,-1.065 -2.531,-2.531 -9.53,-0.803 -9.992,-0.666 -2.264,0.666 18.443,10.316 13.322,14.119 -4.663,3.465 -15.369,2.115 -15.369,0.633 0,4.105 2.938,4.895 4.197,5.584 1.83,0.636 5.311,5.947 5.311,5.947 3.295,1.496 8.364,7.196 8.195,7.732 -2.042,6.451 -15.126,7.25 -17.723,1.297 -1.744,-3.992 -8.986,-3.894 -7.479,-2.904 4.574,2.178 4.863,2.251 5.082,3.993 -1.234,6.244 4.572,7.624 6.389,7.986 3.848,0.943 5.429,1.792 4.719,2.54 -2.687,2.832 -10.236,1.38 -11.253,-0.217 -1.017,-1.598 -3.173,-5.249 -2.903,-3.848 0.725,3.774 3.057,5.902 4.646,6.679 3.267,1.597 7.863,-0.548 11.979,3.34 2.613,2.469 9.438,3.702 9.438,3.702 0,0 3.703,1.887 0.363,2.832 -2.613,0.145 -4.079,3.74 -8.64,-0.727 -3.484,-3.412 -12.718,-7.062 -14.593,-5.953 -3.557,2.105 -3.848,5.445 -3.848,5.662 4.139,-0.58 6.568,-0.631 7.913,-0.145 6.026,2.178 11.688,4.211 11.688,4.211 l 31.654,1.016 -0.08,-10.46 z" /></g>
<linearGradient
id="path3060_2_"
y2="193.38"
gradientUnits="userSpaceOnUse"
x2="165.14"
gradientTransform="matrix(1.1810609,0,0,-1.1097524,-87.061532,260.05238)"
y1="208.15"
x1="145.81">
<stop
style="stop-color:#B48161"
offset="0"
id="stop87" />
<stop
style="stop-color:#C18666"
offset="1"
id="stop89" />
</linearGradient>
<path
id="path3060_1_"
d="m 76.479967,25.810289 4.134895,-2.645651 5.033681,-4.069461 6.110809,-5.087106 3.056585,-1.831092 1.25783,4.069462 0.538564,2.035287 1.979461,13.838613 -0.899972,4.477851 -3.416808,3.459098 -7.369821,5.088215 -0.538563,2.034176 -0.718085,1.017644 -5.392724,-1.831092 -5.033681,-0.610365 1.251924,-19.945579 z"
style="fill:url(#path3060_2_);stroke-width:1.14485157"/>
<linearGradient
id="SVGID_6_"
y2="58.432"
gradientUnits="userSpaceOnUse"
x2="166.21"
gradientTransform="matrix(1.1810609,0,0,-1.1097524,-87.061532,260.05238)"
y1="91.723"
x1="92.497">
<stop
style="stop-color:#2F2D2D"
offset="0"
id="stop93" />
<stop
style="stop-color:#382C2C"
offset=".1447"
id="stop95" />
<stop
style="stop-color:#522A28"
offset=".3856"
id="stop97" />
<stop
style="stop-color:#7C2722"
offset=".6927"
id="stop99" />
<stop
style="stop-color:#AC231B"
offset="1"
id="stop101" />
</linearGradient>
<path
d="m 98.176059,181.70388 -15.820313,-20.14645 -6.650554,-7.3277 -5.573427,12.21062 -6.831257,16.68734 -5.392723,10.98877 -3.954191,11.39716 -1.07949,3.86637 -1.618053,2.03528 -1.977096,5.90167 H 19.797314 l 8.808352,-22.7932 c 0,0 2.157798,-3.25602 3.59515,-5.49439 1.43853,-2.23949 5.214383,-17.29882 5.573425,-18.31535 0.359043,-1.01876 3.954192,-19.53719 3.954192,-19.53719 l 42.245366,1.42492 1.797574,-7.93584 1.616872,-14.24589 1.619235,-3.86638 10.246893,19.94447 2.875867,-0.2042 5.93129,-3.25712 1.9771,-0.81345 2.15897,-2.23948 1.61688,6.51314 0.64131,2.17955 c 17.59544,21.24177 13.10741,40.48489 13.02002,45.84721 l -0.17835,11.19296 -7.19265,1.01764 -14.45029,2.94418 c 0,0 -5.4683,1.61024 -6.041113,1.73565 -0.979091,0.21417 -1.110193,-6.17578 0.197243,-10.15313 -0.0118,0 6.28323,-11.87435 -1.641678,-19.55384"
id="path104"
style="fill:url(#SVGID_6_);stroke-width:1.14485157"/>
<linearGradient
id="path2994_2_"
y2="140.56"
gradientUnits="userSpaceOnUse"
x2="162.33"
gradientTransform="matrix(1.1810609,0,0,-1.1097524,-87.061532,260.05238)"
y1="181.02"
x1="102.2">
<stop
style="stop-color:#2F2D2D"
offset="0"
id="stop106" />
<stop
style="stop-color:#3D2C2B"
offset=".1662"
id="stop108" />
<stop
style="stop-color:#632926"
offset=".4818"
id="stop110" />
<stop
style="stop-color:#9F241D"
offset=".9105"
id="stop112" />
<stop
style="stop-color:#AC231B"
offset="1"
id="stop114" />
</linearGradient>
<path
id="path2994_1_"
d="m 87.026841,135.91548 h -4.673458 l -25.526268,-1.83108 -18.696194,-1.22184 1.25783,-7.52967 -7.190299,-2.23947 -3.055403,-16.89045 -1.438533,-12.617886 c 0,0 -0.386207,1.131952 -0.206686,-0.292972 0.179521,-1.424924 -1.562543,-8.673825 -1.562543,-8.673825 l 2.308974,-14.233681 3.774671,-9.972236 1.797574,-3.051819 12.763724,-8.751508 6.291512,-6.512028 5.213202,-5.2913 14.921523,9.564957 12.403501,1.831091 1.079491,-1.017642 1.616872,-3.257124 7.190299,-3.866377 2.51684,-0.204196 7.01077,-3.866377 3.59633,-0.407278 1.61688,3.256013 2.69635,1.221838 2.15662,5.698578 -0.71691,3.663293 8.09028,10.785684 8.44812,12.210607 8.44814,13.024049 -0.71927,4.884022 -4.85299,7.936952 -2.69636,1.221837 1.9771,1.220738 -4.67346,0.40727 -5.75058,-0.20308 3.41444,-1.424928 -7.36981,-0.204191 -10.96499,-1.83109 -3.95535,-1.220733 0.71927,1.424925 2.69516,2.238368 -0.36022,3.866379 0.53975,3.25713 0.89879,3.86637 -1.25783,3.86638 -0.36023,1.83109 3.41563,8.54732 -16.897428,9.36187 -4.313235,-8.14004 v 2.23837 l -1.594431,7.32437 z"
style="fill:url(#path2994_2_);stroke-width:1.14485157"/>
<linearGradient
id="path3002_2_"
y2="17.101"
gradientUnits="userSpaceOnUse"
x2="173.04"
gradientTransform="matrix(1.1810609,0,0,-1.1097524,-87.061532,260.05238)"
y1="36.535"
x1="179.35">
<stop
style="stop-color:#A86D35"
offset=".0368"
id="stop118" />
<stop
style="stop-color:#050102"
offset="1"
id="stop120" />
</linearGradient>
<path
id="path3002_1_"
d="m 99.250822,220.97802 -1.618055,5.0871 -1.438531,7.93695 0.35786,4.07058 2.338501,4.06946 5.572233,3.4602 5.03368,0.61036 10.06737,-1.83109 5.93129,-1.83109 c 0,0 8.44813,-3.6644 9.3469,-3.6644 0.8988,0 9.34811,-3.25601 9.34811,-3.25601 l 0.53974,-6.71512 c 0,0 -1.61924,-2.44256 -2.51684,-3.05403 -0.89997,-0.61037 -5.53444,-1.1841 -5.53444,-1.1841 l -9.74613,-4.10609 -3.05658,-1.01654 -9.16976,1.62801 -5.75058,1.22072 -5.75295,0.81456 -3.932922,-2.2417 z"
style="fill:url(#path3002_2_);stroke:#231f20;stroke-width:1.14485157"/>
<linearGradient
id="path3016_1_"
y2="38.722"
gradientUnits="userSpaceOnUse"
x2="180.83"
gradientTransform="matrix(1.1810609,0,0,-1.1097524,-87.061532,260.05238)"
y1="44.844"
x1="156.85">
<stop
style="stop-color:#D1A21C"
offset="0"
id="stop124" />
<stop
style="stop-color:#FFE44C"
offset="1"
id="stop126" />
</linearGradient>
<path
id="path3016_2_"
d="m 126.93487,205.50806 c 0,0 -8.44929,1.62801 -9.88665,1.62801 -1.43971,0 -19.632769,2.41926 -19.632769,2.41926 l 0.757064,8.36754 1.079487,3.05292 4.095918,2.21841 c 0,0 9.20519,-1.60805 10.10515,-1.60805 0.89997,0 8.88748,-1.76118 8.88748,-1.76118 l 3.69554,1.5581 c 0.95666,-0.72133 2.58652,-13.76092 0.8976,-15.86945 z"
style="fill:url(#path3016_1_);stroke-width:1.14485157"/>
<linearGradient
id="path3022_2_"
y2="99.986"
gradientUnits="userSpaceOnUse"
x2="146.67"
gradientTransform="matrix(1.1810609,0,0,-1.1097524,-87.061532,260.05238)"
y1="110.45"
x1="103.73">
<stop
style="stop-color:#744E15"
offset="0"
id="stop130" />
<stop
style="stop-color:#775216"
offset=".1824"
id="stop132" />
<stop
style="stop-color:#815C1A"
offset=".3451"
id="stop134" />
<stop
style="stop-color:#926F21"
offset=".5004"
id="stop136" />
<stop
style="stop-color:#AA882A"
offset=".6511"
id="stop138" />
<stop
style="stop-color:#C9A936"
offset=".7984"
id="stop140" />
<stop
style="stop-color:#EED145"
offset=".9413"
id="stop142" />
<stop
style="stop-color:#FFE44C"
offset="1"
id="stop144" />
</linearGradient>
<path
id="path3022_1_"
d="m 37.953762,132.04244 c 0,0.81346 -0.538563,8.14004 -0.538563,8.14004 l -0.539745,5.90167 -2.516841,4.68094 3.774671,0.20419 h 5.033681 c 0,0 15.280565,1.22184 15.280565,1.22184 l 13.122768,0.61036 12.403501,0.20309 c 0,0 1.978277,-6.9182 2.337319,-7.73276 0.359042,-0.81456 1.438533,-9.36186 1.438533,-9.36186 h -5.93247 l -14.199894,-0.81346 -14.021554,-1.22184 -13.302289,-1.628 -2.350311,-0.18867 z"
style="fill:url(#path3022_2_);stroke-width:1.14485157"/>
<linearGradient
id="path3026_2_"
y2="111.44"
gradientUnits="userSpaceOnUse"
x2="169.99"
gradientTransform="matrix(1.1810609,0,0,-1.1097524,-87.061532,260.05238)"
y1="114.34"
x1="149.21">
<stop
style="stop-color:#A66F25"
offset="0"
id="stop148" />
<stop
style="stop-color:#FFE44C"
offset="1"
id="stop150" />
</linearGradient>
<path
id="path3026_1_"
d="m 92.258941,134.40623 11.146839,-6.10586 6.11082,-4.47674 1.07948,6.10474 3.23611,7.52968 -1.39956,2.6401 -1.6582,1.43047 -2.42354,1.65908 -6.03168,3.29708 -3.068388,0.0167 -3.217212,-5.38008 -3.767583,-6.714 z"
style="fill:url(#path3026_2_);stroke-width:1.14485157"/>
<linearGradient
id="path3030_2_"
y2="147.36"
gradientUnits="userSpaceOnUse"
x2="120.73"
gradientTransform="matrix(1.1810609,0,0,-1.1097524,-87.061532,260.05238)"
y1="151.08"
x1="95.586">
<stop
style="stop-color:#A66F25"
offset="0"
id="stop154" />
<stop
style="stop-color:#FFE44C"
offset="1"
id="stop156" />
</linearGradient>
<path
id="path3030_1_"
d="m 26.087644,82.186823 4.314416,1.424917 8.987872,3.05182 8.628831,2.238371 7.909564,0.813448 2.696362,8.954601 -0.360223,7.32659 -15.458905,-1.01765 -10.605928,-1.62801 -3.77467,-1.628 -1.078308,-8.344235 c 0,0 -1.25783,-4.680938 -1.438533,-5.495497 -0.193693,-0.799022 0.165349,-5.687476 0.165349,-5.687476 z"
style="fill:url(#path3030_2_);stroke-width:1.14485157"/>
<linearGradient
id="path3034_2_"
y2="153.32"
gradientUnits="userSpaceOnUse"
x2="165.78"
gradientTransform="matrix(1.1810609,0,0,-1.1097524,-87.061532,260.05238)"
y1="149.42"
x1="121.46">
<stop
style="stop-color:#744E15"
offset="0"
id="stop160" />
<stop
style="stop-color:#775216"
offset=".1824"
id="stop162" />
<stop
style="stop-color:#815C1A"
offset=".3451"
id="stop164" />
<stop
style="stop-color:#926F21"
offset=".5004"
id="stop166" />
<stop
style="stop-color:#AA882A"
offset=".6511"
id="stop168" />
<stop
style="stop-color:#C9A936"
offset=".7984"
id="stop170" />
<stop
style="stop-color:#EED145"
offset=".9413"
id="stop172" />
<stop
style="stop-color:#FFE44C"
offset="1"
id="stop174" />
</linearGradient>
<path
id="path3034_1_"
d="m 56.283827,89.305881 7.36982,-2.034177 15.639607,-3.663293 0.718086,-1.221833 8.448128,-2.238371 4.314416,-1.83109 14.603806,-1.730105 2.51684,7.106851 -4.35693,6.019296 -1.60506,3.207187 -3.967171,0.04882 h -4.313241 l -4.852979,5.90166 -6.471032,2.848744 -2.698724,1.22072 -5.212022,1.01764 c 0,0 -0.538564,-0.81344 -1.25783,-0.81344 -0.718084,0 -7.369819,1.83109 -7.369819,1.83109 l -8.449309,2.44257 -1.618053,-1.22184 0.719265,-5.49439 c 0,0 0.359043,-6.104753 0.179521,-6.919311 -0.165348,-0.821213 -2.32669,-4.4834 -2.32669,-4.4834 z"
style="fill:url(#path3034_2_);stroke-width:1.14485157"/>
<linearGradient
id="path3038_2_"
y2="177.82"
gradientUnits="userSpaceOnUse"
x2="113.37"
gradientTransform="matrix(1.1810609,0,0,-1.1097524,-87.061532,260.05238)"
y1="187.35"
x1="107.64">
<stop
style="stop-color:#744E15"
offset="0"
id="stop178" />
<stop
style="stop-color:#775216"
offset=".1824"
id="stop180" />
<stop
style="stop-color:#815C1A"
offset=".3451"
id="stop182" />
<stop
style="stop-color:#926F21"
offset=".5004"
id="stop184" />
<stop
style="stop-color:#AA882A"
offset=".6511"
id="stop186" />
<stop
style="stop-color:#C9A936"
offset=".7984"
id="stop188" />
<stop
style="stop-color:#EED145"
offset=".9413"
id="stop190" />
<stop
style="stop-color:#FFE44C"
offset="1"
id="stop192" />
</linearGradient>
<path
id="path3038_1_"
d="m 32.343723,59.870811 0.562185,-1.554764 5.951366,-5.231372 7.010778,-4.069463 8.268606,5.2913 -3.774671,4.273656 -4.852979,4.680937 -5.573425,4.273655 -3.415628,-3.663293 -4.180956,-4.000656 z"
style="fill:url(#path3038_2_);stroke-width:1.14485157" />
<linearGradient
id="path3042_2_"
y2="190.38"
gradientUnits="userSpaceOnUse"
x2="140.53"
gradientTransform="matrix(1.1810609,0,0,-1.1097524,-87.061532,260.05238)"
y1="193.75"
x1="118.45">
<stop
style="stop-color:#744E15"
offset="0"
id="stop196" />
<stop
style="stop-color:#775216"
offset=".1824"
id="stop198" />
<stop
style="stop-color:#815C1A"
offset=".3451"
id="stop200" />
<stop
style="stop-color:#926F21"
offset=".5004"
id="stop202" />
<stop
style="stop-color:#AA882A"
offset=".6511"
id="stop204" />
<stop
style="stop-color:#C9A936"
offset=".7984"
id="stop206" />
<stop
style="stop-color:#EED145"
offset=".9413"
id="stop208" />
<stop
style="stop-color:#FFE44C"
offset="1"
id="stop210" />
</linearGradient>
<path
id="path3042_1_"
d="m 57.724721,36.194242 -5.032501,3.05182 2.51566,2.442564 9.527618,6.308943 13.122768,10.17532 1.438531,-1.017643 1.977096,-2.034176 2.156618,-4.88402 1.797574,-1.628007 -4.677001,-1.629117 -7.011958,-1.220728 -3.415627,-2.035286 -12.401139,-7.52967 z"
style="fill:url(#path3042_2_);stroke-width:1.14485157"/>
<linearGradient
id="path3046_1_"
y2="196.13"
gradientUnits="userSpaceOnUse"
x2="167.34"
gradientTransform="matrix(1.1810609,0,0,-1.1097524,-87.061532,260.05238)"
y1="196.13"
x1="146.49">
<stop
style="stop-color:#744E15"
offset="0"
id="stop214" />
<stop
style="stop-color:#775216"
offset=".1824"
id="stop216" />
<stop
style="stop-color:#815C1A"
offset=".3451"
id="stop218" />
<stop
style="stop-color:#926F21"
offset=".5004"
id="stop220" />
<stop
style="stop-color:#AA882A"
offset=".6511"
id="stop222" />
<stop
style="stop-color:#C9A936"
offset=".7984"
id="stop224" />
<stop
style="stop-color:#EED145"
offset=".9413"
id="stop226" />
<stop
style="stop-color:#FFE44C"
offset="1"
id="stop228" />
</linearGradient>
<path
id="path3046_2_"
d="m 85.952076,46.572647 1.796393,-3.05293 7.011959,-3.459097 2.156617,0.203084 3.234935,-3.051819 4.67344,-1.424922 4.13607,0.204194 1.61688,2.848734 -6.112,0.40728 -4.13487,1.017643 -3.234934,4.477851 -4.134894,4.273658"
style="fill:url(#path3046_1_);stroke-width:1.14485157"/>
<linearGradient
id="path3088_2_"
y2="131.87"
gradientUnits="userSpaceOnUse"
x2="145.2"
gradientTransform="matrix(1.1810609,0,0,-1.1097524,-87.061532,260.05238)"
y1="143.01"
x1="140.34">
<stop
style="stop-color:#7D4C13"
offset="0"
id="stop232" />
<stop
style="stop-color:#7F4F14"
offset=".174"
id="stop234" />
<stop
style="stop-color:#875A16"
offset=".3245"
id="stop236" />
<stop
style="stop-color:#946C19"
offset=".4662"
id="stop238" />
<stop
style="stop-color:#A6851E"
offset=".6026"
id="stop240" />
<stop
style="stop-color:#BEA525"
offset=".7351"
id="stop242" />
<stop
style="stop-color:#DBCD2D"
offset=".8648"
id="stop244" />
<stop
style="stop-color:#FCFB36"
offset=".99"
id="stop246" />
<stop
style="stop-color:#FFFF37"
offset="1"
id="stop248" />
</linearGradient>
<path
id="path3088_1_"
d="m 75.003641,102.85597 c 0.866899,0 4.871876,-2.32161 4.871876,-2.32161 l 4.158515,-1.765612 3.813646,2.746632 2.078668,7.65174 0.694462,7.25889 -4.852978,1.17746 -4.158515,2.35488 -3.291617,0.19533 c 0,0 0.865718,-3.33481 0.865718,-4.31583 0,-0.98103 -0.865718,-5.49328 -1.039334,-6.47319 -0.173615,-0.97991 -3.129811,-6.51424 -3.129811,-6.51424 z"
style="fill:url(#path3088_2_);stroke-width:1.14485157"/>
<linearGradient
id="path3106_5_"
y2="173.28"
gradientUnits="userSpaceOnUse"
x2="337.17"
gradientTransform="matrix(1,0,0,-1,-56.749813,248.59785)"
y1="132.16"
x1="230.03">
<stop
style="stop-color:#52A4C4"
offset="0"
id="stop252" />
<stop
style="stop-color:#5DAAC9"
offset=".0485"
id="stop254" />
<stop
style="stop-color:#85C2DC"
offset=".255"
id="stop256" />
<stop
style="stop-color:#A5D5EB"
offset=".4577"
id="stop258" />
<stop
style="stop-color:#BCE3F6"
offset=".6529"
id="stop260" />
<stop
style="stop-color:#C9EBFD"
offset=".8374"
id="stop262" />
<stop
style="stop-color:#CEEEFF"
offset="1"
id="stop264" />
</linearGradient>
<path
id="path3106_1_"
d="m 133.68018,79.48585 10.872,-5.392 73.465,-40.261 c 1.722,-0.354 43.333,-36.9999996 36,-26.9999999 0.675,1.591 -29.237,40.1049999 -28.746,42.3609999 0.53,2.437 34.914,10.635 35.192,13.589 0.288,3.053 -56.757,9.401 -56.78,12.717 -0.023,3.396 55.062,5.184 54.667,8.541 -0.316,2.686 -49.087,32.648 -49.667,35.126 -0.605,2.584 71.253,34.49 70.334,36.666 -1.724,4.086 -88.583,-17.389 -91.545,-15.672 -9.748,-2.539 -31.298,-46.816004 -42.302,-47.682004 -11.31,-2.798 -13.01,-6.148996 -11.47,-12.999996 z"
style="display:inline;opacity:0.7;fill:url(#path3106_5_)" />
<linearGradient
id="path3106_6_"
y2="173.14"
gradientUnits="userSpaceOnUse"
x2="336.47"
gradientTransform="matrix(0.8652,-0.5013,-0.5013,-0.8652,53.940187,323.61785)"
y1="132.01"
x1="229.33">
<stop
style="stop-color:#52A4C4"
offset="0"
id="stop268" />
<stop
style="stop-color:#5DAAC9"
offset=".0485"
id="stop270" />
<stop
style="stop-color:#85C2DC"
offset=".255"
id="stop272" />
<stop
style="stop-color:#A5D5EB"
offset=".4577"
id="stop274" />
<stop
style="stop-color:#BCE3F6"
offset=".6529"
id="stop276" />
<stop
style="stop-color:#C9EBFD"
offset=".8374"
id="stop278" />
<stop
style="stop-color:#CEEEFF"
offset="1"
id="stop280" />
</linearGradient>
<path
id="path3106_2_"
d="m 133.39018,82.31585 6.704,-10.116 43.38,-71.66699986 c 1.312,-1.17 15.85882,-24.03985014 14.52682,-11.71085014 1.382,1.038 -2.10482,19.6588501 -0.54882,21.36485 1.68,1.843 35.54,-8.3019999 37.263,-5.8849999 1.78,2.497 -44.396,36.5889999 -42.754,39.4699999 1.683,2.95 50.242,-23.12 51.583,-20.017 1.072,2.482 -26.104,52.858 -25.364,55.293 0.771,2.54 78.942,-5.881 79.238,-3.537 0.557,4.399 -85.363,29.365 -87.066,32.335 -9.707,2.69 -50.551,-24.816 -60.506,-20.048 -11.19,3.261996 -14.35,1.217 -16.45,-5.484 z"
style="display:inline;opacity:0.7;fill:url(#path3106_6_)"/>
<linearGradient
id="path3106_7_"
y2="171"
gradientUnits="userSpaceOnUse"
x2="331.82"
gradientTransform="matrix(0.8991,-0.4377,-0.4377,-0.8991,34.320187,315.41785)"
y1="129.88"
x1="224.67">
<stop
style="stop-color:#52A4C4"
offset="0"
id="stop284" />
<stop
style="stop-color:#5DAAC9"
offset=".0485"
id="stop286" />
<stop
style="stop-color:#85C2DC"
offset=".255"
id="stop288" />
<stop
style="stop-color:#A5D5EB"
offset=".4577"
id="stop290" />
<stop
style="stop-color:#BCE3F6"
offset=".6529"
id="stop292" />
<stop
style="stop-color:#C9EBFD"
offset=".8374"
id="stop294" />
<stop
style="stop-color:#CEEEFF"
offset="1"
id="stop296" />
</linearGradient>
<path
id="path3106_3_"
d="m 127.70018,84.41785 7.415,-9.606 48.43,-68.3569999 c 1.393,-1.072 33.04676,-30.8510121 30.83076,-18.6500121 1.304,1.135 -19.01276,27.472012 -17.58476,29.286012 1.543,1.958 36.047,-5.721 37.59,-3.186 1.596,2.619 -46.915,33.296 -45.485,36.287 1.466,3.064 51.776,-19.441 52.891,-16.25 0.891,2.553 -29.845,50.84 -29.281,53.322 0.587,2.588996 79.161,-0.178 79.288,2.180996 0.238,4.428 -87.258,23.140004 -89.17,25.980004 -9.876,1.984 -48.633,-28.394 -58.904,-24.355004 -11.41,2.445 -14.41,0.18 -16.02,-6.654996 z"
style="display:inline;opacity:0.7;fill:url(#path3106_7_)"/>
<linearGradient
id="path3106_8_"
y2="150.11"
gradientUnits="userSpaceOnUse"
x2="309.24"
gradientTransform="matrix(0.9055,0.4244,0.4244,-0.9055,-105.45082,153.78785)"
y1="116.05"
x1="220.51">
<stop
style="stop-color:#52A4C4"
offset="0"
id="stop300" />
<stop
style="stop-color:#5DAAC9"
offset=".0485"
id="stop302" />
<stop
style="stop-color:#85C2DC"
offset=".255"
id="stop304" />
<stop
style="stop-color:#A5D5EB"
offset=".4577"
id="stop306" />
<stop
style="stop-color:#BCE3F6"
offset=".6529"
id="stop308" />
<stop
style="stop-color:#C9EBFD"
offset=".8374"
id="stop310" />
<stop
style="stop-color:#CEEEFF"
offset="1"
id="stop312" />
</linearGradient>
<path
id="path3106_4_"
d="m 127.41018,90.850846 10.07,-0.269 69.395,-5.280996 c 1.419,0.41 45.6,-15.114 36.565,-9.171 -0.052,1.727 -36.099,23.907 -36.524,26.158 -0.459,2.432 22.494,24.446 21.663,27.239 -0.858,2.887 -45.968,-15.572 -47.152,-12.58 -1.214,3.065 60.74124,53.21872 59.26024,56.08972 -1.184,2.299 -34.2199,-5.46456 -35.5269,-3.46756 -1.366,2.082 35.65526,47.62823 34.19826,49.20923 -2.734,2.968 -80.16011,-58.23656 -82.99011,-57.93856 -6.433,-6.436 -16.93249,-47.89583 -24.89749,-53.34883 -7.53,-7.33 -7.63,-11.090004 -4.06,-16.637004 z"
style="opacity:0.7;fill:url(#path3106_8_)"/>
<linearGradient
id="path3898_2_"
y2="147.27"
gradientUnits="userSpaceOnUse"
x2="185.93"
gradientTransform="matrix(1.1810609,0,0,-1.1097524,-87.061532,260.05238)"
y1="152.33"
x1="179.1">
<stop
style="stop-color:#C8C800"
offset="0"
id="stop316" />
<stop
style="stop-color:#FFFF37"
offset="1"
id="stop318" />
</linearGradient>
<path
id="path3898_1_"
d="m 115.76204,98.583418 6.12735,0.554879 h 3.92112 l 4.90022,0.416151 c 0,0 3.43098,-1.109749 3.67547,-1.803345 0.24566,-0.693598 1.96055,-4.022854 1.59442,-5.271331 -0.36848,-1.248466 -0.61415,-4.993885 -0.61415,-4.993885 l -2.57353,-4.716443 -5.8805,0.138718 -1.10311,2.358219 3.18532,1.248472 v 4.993888 l -3.30815,0.832314 -4.9014,3.190539 -0.85864,1.109749 -3.67546,0.554881 -0.24565,1.942073 -0.24803,-0.565981 z"
style="fill:url(#path3898_2_);stroke-width:1.14485157"/>
<linearGradient
id="path3070_2_"
y2="205.48"
gradientUnits="userSpaceOnUse"
x2="158.51"
gradientTransform="matrix(1.1810609,0,0,-1.1097524,-87.061532,260.05238)"
y1="205.48"
x1="134.31">
<stop
style="stop-color:#222222"
offset="0"
id="stop322" />
<stop
style="stop-color:#333333"
offset="1"
id="stop324" />
</linearGradient>
<path
id="path3070_1_"
d="m 71.566754,27.239649 4.134894,-1.220727 4.313235,-2.035287 4.493936,4.273658 6.292693,5.291299 3.416808,2.64565 3.77349,0.610363 2.15662,1.220729 -2.875886,2.035286 h -2.33732 l -6.651735,-2.848735 -6.830074,-3.460208 -5.931288,-3.663293 -3.968364,-2.848735 z"
style="fill:url(#path3070_2_);stroke-width:1.14485157"/>
<g
id="path3050_2_"
transform="matrix(1.1810609,0,0,1.1097524,-87.06153,-24.044231)">
<g
id="g347">
<linearGradient
id="SVGID_7_"
y2="225.45"
gradientUnits="userSpaceOnUse"
x2="171.3"
gradientTransform="matrix(1,0,0,-1,0,256)"
y1="212.14999"
x1="117.98">
<stop
style="stop-color:#440000"
offset=".2086"
id="stop328" />
<stop
style="stop-color:#520B03"
offset=".2433"
id="stop330" />
<stop
style="stop-color:#83340C"
offset=".3802"
id="stop332" />
<stop
style="stop-color:#AC5514"
offset=".5158"
id="stop334" />
<stop
style="stop-color:#CC6F1A"
offset=".6476"
id="stop336" />
<stop
style="stop-color:#E3821E"
offset=".7745"
id="stop338" />
<stop
style="stop-color:#F08D21"
offset=".8944"
id="stop340" />
<stop
style="stop-color:#F59122"
offset="1"
id="stop342" />
</linearGradient>
<path
d="m 109.19,54.334 0.152,-3.668 4.262,-5.318 3.805,-3.667 0.761,-0.367 c 0,0 -0.152,-4.768 -0.152,-5.501 0,-0.734 0.761,-8.986 0.761,-8.986 0,0 -0.703,8.051 0.128,-1.658 0.831,-9.709 23.497,-20.095 30.617,-3.843 7.12,16.252 1.065,4.401 1.37,3.484 0.305,-0.917 5.631,-0.917 5.631,-0.917 l 2.131,2.201 c 3.88,8.734 -9.016,18.314 -18.711,24.636 -1.652,1.079 1.836,11.73 0.261,12.702 -1.747,1.078 -13.052,4.488 -14.564,5.38 -3.086,-11.048 -11.343,-4.932 -11.343,-4.932 l -1.529,-1.224 z"
id="path345"
style="fill:url(#SVGID_7_)"/>
</g>
</g>
<g
id="layer3_1_"
transform="matrix(1.1810609,0,0,1.1097524,-87.06153,-24.044231)">
<linearGradient
id="path4021_2_"
y2="46.678001"
gradientUnits="userSpaceOnUse"
x2="155.5"
y1="46.678001"
x1="136.89999">
<stop
style="stop-color:#2F2D2D"
offset="0"
id="stop350" />
<stop
style="stop-color:#3D2C2B"
offset=".1662"
id="stop352" />
<stop
style="stop-color:#632926"
offset=".4818"
id="stop354" />
<stop
style="stop-color:#9F241D"
offset=".9105"
id="stop356" />
<stop
style="stop-color:#AC231B"
offset="1"
id="stop358" />
</linearGradient>
<path
id="path4021_1_"
d="m 136.9,51.647 c 0,0 3.14,7.882 4.326,8.603 3.94,2.395 13.531,-19.626 14.266,-20.688 0.092,-0.135 -1.723,-7.415 -3.109,-6.57 -2.537,5.505 -9.507,10.538 -15.482,14.067 v 4.588 z"
style="fill:url(#path4021_2_);fill-opacity:0.19419998"/>
<path
id="path3903_1_"
d="m 108.89,158.06 -0.881,5.127 -2.347,10.43 -2.788,13.435 c 0,0 -13.865,29.373 -12.397,30.434 1.467,1.061 6.849,0 9.62,-0.692 7.985,-1.995 17.01,-47.419 22.146,-50.07 5.136,-2.651 13.938,-6.011 11.591,-7.071 -2.347,-1.06 -23.47,-1.42 -24.94,-1.6 z"
style="opacity:0.6;fill-opacity:0.17360002" />
<path
id="path3917_1_"
d="m 138.23,161.6 1.027,-2.121 h 5.574 c 0,0 1.615,-2.122 1.615,-3.536 0,-1.414 1.907,-17.147 1.907,-17.147 l 0.88,-2.651 c 0,0 2.494,5.479 2.936,6.54 0.439,1.062 3.227,5.834 3.227,5.834 l 2.348,5.127 c 0,0 -0.733,-1.238 1.028,9.192 1.761,10.43 -3.815,7.954 -1.614,15.202 2.201,7.248 1.174,9.016 1.174,9.016 0,0 -5.43,-6.54 -6.311,-7.602 -0.88,-1.061 -7.922,-11.137 -8.363,-11.844 -0.45,-0.71 -5.44,-6.01 -5.44,-6.01 z"
style="fill-opacity:0.16120001" />
<path
id="path3931_1_"
d="m 143.37,131.48 c -2.201,3.889 -4.691,5.84 -9.387,5.31 -4.696,-0.53 -20.993,3.358 -29.356,-4.596 l 4.402,1.061 6.163,0.53 9.243,-0.354 9.403,-2.121 3.521,-1.414 3.513,0.116 2.52,1.46 z"
style="fill-opacity:0.29340001" />
<path
id="path3985_1_"
d="m 162.15,108.92 3.081,0.53 4.108,1.061 5.722,0.177 6.603,0.707 3.815,-0.354 2.348,-1.414 2.349,-4.773 c 0,-0.01 -4.41,5.29 -28.03,4.05 z"
style="fill-opacity:0.29750001" />
<path
id="path4009_1_"
d="m 114.3,63.879 c 3.713,5.389 15.716,8.626 19.825,10.217 4.109,1.591 7.189,3.536 8.95,-0.707 1.76,-4.243 2.788,-6.364 4.695,-5.657 1.907,0.707 2.936,4.596 4.402,3.005 1.467,-1.591 8.803,-13.258 8.803,-13.258 l -6.162,5.657 -4.256,4.243 -2.641,-2.475 -2.348,0.53 -3.668,5.48 -1.761,1.768 -1.173,0.53 -18.246,-11.474 c 0.02,10e-4 -7.15,1.056 -6.4,2.141 z"
style="fill-opacity:0.219" />
</g>
<linearGradient
id="SVGID_8_"
y2="212.17"
gradientUnits="userSpaceOnUse"
x2="158.06"
y1="212.17"
x1="158.06"
gradientTransform="matrix(1.1810609,0,0,1.1097524,-87.061532,-24.04423)">
<stop
style="stop-color:#D1A21C"
offset="0"
id="stop368" />
<stop
style="stop-color:#FFE44C"
offset="1"
id="stop370" />
</linearGradient>
<path
d="M 99.616948,211.41195"
id="path373"
style="fill:url(#SVGID_8_);stroke-width:1.14485157"/>
<linearGradient
id="SVGID_9_"
y2="43.644"
gradientUnits="userSpaceOnUse"
x2="140.63"
y1="43.644"
x1="140.63"
gradientTransform="matrix(1.1810609,0,0,1.1097524,-87.061532,-24.04423)">
<stop
style="stop-color:#BA191C"
offset="0"
id="stop375" />
<stop
style="stop-color:#BD201C"
offset=".0311"
id="stop377" />
<stop
style="stop-color:#D1481E"
offset=".2414"
id="stop379" />
<stop
style="stop-color:#E16820"
offset=".4477"
id="stop381" />
<stop
style="stop-color:#EC7F21"
offset=".6465"
id="stop383" />
<stop
style="stop-color:#F38C22"
offset=".8344"
id="stop385" />
<stop
style="stop-color:#F59122"
offset="1"
id="stop387" />
</linearGradient>
<path
d="M 79.031058,24.389806"
id="path390"
style="fill:url(#SVGID_9_);stroke-width:1.14485157"/>
<linearGradient
id="SVGID_10_"
y2="55.197"
gradientUnits="userSpaceOnUse"
x2="122.36"
y1="55.197"
x1="122.36"
gradientTransform="matrix(1.1810609,0,0,1.1097524,-87.061532,-24.04423)">
<stop
style="stop-color:#BA191C"
offset="0"
id="stop392" />
<stop
style="stop-color:#BD201C"
offset=".0311"
id="stop394" />
<stop
style="stop-color:#D1481E"
offset=".2414"
id="stop396" />
<stop
style="stop-color:#E16820"
offset=".4477"
id="stop398" />
<stop
style="stop-color:#EC7F21"
offset=".6465"
id="stop400" />
<stop
style="stop-color:#F38C22"
offset=".8344"
id="stop402" />
<stop
style="stop-color:#F59122"
offset="1"
id="stop404" />
</linearGradient>
<path
d="M 57.453077,37.210776"
id="path407"
style="fill:url(#SVGID_10_);stroke-width:1.14485157"/>
<linearGradient
id="SVGID_11_"
y2="165.05"
gradientUnits="userSpaceOnUse"
x2="178.62"
y1="191.66"
x1="176.29"
gradientTransform="matrix(1.1810609,0,0,1.1097524,-87.061532,-24.04423)">
<stop
style="stop-color:#F17722"
offset="0"
id="stop409" />
<stop
style="stop-color:#F2732B"
offset=".0782"
id="stop411" />
<stop
style="stop-color:#F36E38"
offset=".2517"
id="stop413" />
<stop
style="stop-color:#F36C3D"
offset=".4049"
id="stop415" />
<stop
style="stop-color:#9E2018"
offset=".7669"
id="stop417" />
</linearGradient>
<path
d="m 121.45476,158.93176 c 3.26563,7.12128 6.50174,8.50736 6.58559,24.98496 0.003,0.7624 -1.66292,4.64653 -1.66292,4.64653 0,0 -1.53303,1.84552 -3.10384,-2.03418 -2.69518,-6.65851 -6.29505,-21.93757 -6.04585,-25.15475 0.24802,-3.14059 4.2282,-2.44146 4.2282,-2.44146 z"
id="path420"
style="fill:url(#SVGID_11_);stroke-width:1.14485157"/>
<linearGradient
id="SVGID_12_"
y2="88.176"
gradientUnits="userSpaceOnUse"
x2="168.48"
y1="88.176"
x1="168.48"
gradientTransform="matrix(1.1810609,0,0,1.1097524,-87.061532,-24.04423)">
<stop
style="stop-color:#5A4545"
offset="0"
id="stop422" />
<stop
style="stop-color:#846666"
offset="1"
id="stop424" />
</linearGradient>
<path
d="M 111.9236,73.809302"
id="path427"
style="fill:url(#SVGID_12_);stroke-width:1.14485157"/>
<path
d="M 85.987507,48.334934 C 84.3541,52.581957 85.42296,66.868909 85.42296,66.868909 l -2.698724,11.199622 -0.02126,10.102073"
id="path429"
style="fill:none;stroke:#000000;stroke-width:0.57242578" />
<polyline
points="149.53 129.28 147.9 142.62 147.03 150.11 144.92 159.6"
id="polyline431"
transform="matrix(1.1810609,0,0,1.1097524,-87.06153,-24.044231)"
style="fill:none;stroke:#000000;stroke-width:0.5" />
<path
d="m 84.771015,48.334934 c -1.633407,4.247023 -0.564547,18.533975 -0.564547,18.533975 l -2.698725,11.199622 -0.02598,11.238459"
id="path433"
style="fill:none;stroke:#371509;stroke-width:2.28970313" />
<polyline
points="148.5 129.28 146.87 142.62 146 150.11 143.9 159.6"
id="polyline435"
transform="matrix(1.1810609,0,0,1.1097524,-87.06153,-24.044231)"
style="fill:none;stroke:#371509;stroke-width:2" />
<path
d="M -58.577885,147.63448"
id="path437"
style="fill:none;stroke:#000000;stroke-width:0.57242578" />
<polyline
points="157.75 153.65 153.15 145.53 152.17 142.69 149.24 136.15"
id="polyline439"
transform="matrix(1.1810609,0,0,1.1097524,-87.06153,-24.044231)"
style="fill:none;stroke:#000000;stroke-width:0.5" />
<polyline
points="119.81 95.377 123.37 108.52 123.05 117.06 133.23 112.54 144.02 108.78"
id="polyline441"
transform="matrix(1.1810609,0,0,1.1097524,-87.06153,-24.044231)"
style="fill:none;stroke:#000000;stroke-width:0.5" />
<line
y2="79.744263"
x1="104.30576"
x2="108.26232"
y1="65.511681"
id="line443"
style="fill:none;stroke:#000000;stroke-width:0.57242578" />
<linearGradient
id="SVGID_13_"
y2="80.699"
gradientUnits="userSpaceOnUse"
x2="19.89"
y1="80.699"
x1="19.89"
gradientTransform="matrix(1.1810609,0,0,1.1097524,-87.061532,-24.04423)">
<stop
style="stop-color:#2F2D2D"
offset="0"
id="stop445" />
<stop
style="stop-color:#3D2C2B"
offset=".1662"
id="stop447" />
<stop
style="stop-color:#632926"
offset=".4818"
id="stop449" />
<stop
style="stop-color:#9F241D"
offset=".9105"
id="stop451" />
<stop
style="stop-color:#AC231B"
offset="1"
id="stop453" />
</linearGradient>
<path
d="M -63.570229,65.511682"
id="path456"
style="fill:url(#SVGID_13_);stroke-width:1.14485157"/>
<line
y2="10.76585"
x2="195.18018"
y1="72.539848"
x1="149.00018"
id="line458"
style="fill:none;stroke:#273990" />
<line
y2="23.61985"
x2="209.65018"
y1="73.936844"
x1="151.20018"
id="line460"
style="fill:none;stroke:#273990" />
<line
y2="36.739849"
x2="225.02017"
y1="73.215843"
x1="157.06018"
id="line462"
style="fill:none;stroke:#273990" />
<line
y2="54.131851"
x2="235.30017"
y1="75.03685"
x1="161.06018"
id="line464"
style="fill:none;stroke:#273990" />
<line
y2="73.00985"
x2="240.69019"
y1="77.353844"
x1="163.69019"
id="line466"
style="fill:none;stroke:#273990" />
<line
y2="94.377846"
x2="239.41019"
y1="81.956848"
x1="163.30019"
id="line468"
style="fill:none;stroke:#273990" />
<line
y2="111.84785"
x2="231.19019"
y1="83.251846"
x1="159.56018"
id="line470"
style="fill:none;stroke:#273990" />
<line
y2="129.05785"
x2="222.35019"
y1="85.629845"
x1="158.61018"
id="line472"
style="fill:none;stroke:#273990" />
<line
y2="151.16463"
x2="214.06102"
y1="86.61235"
x1="151.09238"
id="line474"
style="fill:none;stroke:#273990;stroke-width:1.17011964" />
<line
y2="171.14615"
x2="199.80394"
y1="92.478844"
x1="145.17018"
id="line476"
style="fill:none;stroke:#273990;stroke-width:1.28245461" />
<line
y2="165.28784"
x2="166.76018"
y1="92.034843"
x1="142.62018"
id="line478"
style="fill:none;stroke:#273990" />
<linearGradient
id="path3092_2_"
y2="147.19"
gradientUnits="userSpaceOnUse"
x2="167.73"
gradientTransform="matrix(1.1810609,0,0,-1.1097524,-87.061532,260.05238)"
y1="159.05"
x1="162.79">
<stop
style="stop-color:#333535"
offset="0"
id="stop480" />
<stop
style="stop-color:#454444"
offset=".0685"
id="stop482" />
<stop
style="stop-color:#807473"
offset=".3104"
id="stop484" />
<stop
style="stop-color:#AF9A99"
offset=".5331"
id="stop486" />
<stop
style="stop-color:#D0B5B4"
offset=".7294"
id="stop488" />
<stop
style="stop-color:#E5C6C5"
offset=".8917"
id="stop490" />
<stop
style="stop-color:#ECCCCB"
offset="1"
id="stop492" />
</linearGradient>
<path
id="path3092_1_"
d="m 80.885325,88.784297 5.197849,-1.765616 6.932827,-2.746638 6.237181,-3.138374 3.640028,-0.784596 27.86358,-3.421367 2.82509,8.396383 -27.5695,3.263782 -1.03933,1.372763 c 0,0 -2.94675,2.746637 -3.98725,2.746637 -1.038146,0 -3.291618,-0.196423 -3.291618,-0.196423 l -2.945566,1.37276 -2.078666,3.139499 -2.08103,2.941954 h -3.119181 l -2.42708,-1.372771 -2.079848,-0.981019 -2.078669,-8.822535 z"
style="fill:url(#path3092_2_);stroke:#231f20;stroke-width:0.8586387"/>
<linearGradient
id="path3894_2_"
y2="155.28"
gradientUnits="userSpaceOnUse"
x2="179.67"
gradientTransform="matrix(1.1810609,0,0,-1.1097524,-87.061532,260.05238)"
y1="161.2"
x1="162.56">
<stop
style="stop-color:#312121"
offset="0"
id="stop496" />
<stop
style="stop-color:#C18B55"
offset="1"
id="stop498" />
</linearGradient>
<path
id="path3894_1_"
d="m 109.5851,75.47393 0.96375,4.101645 0.38856,1.424922 -1.17515,3.156132 -2.32788,2.496943 -3.06367,4.993886 c 0,0 -1.22594,0 -1.22594,1.525911 0,1.525912 -0.85745,1.803346 0.85862,2.913106 1.71609,1.109749 11.39489,3.467973 11.88502,2.774377 0.49014,-0.693598 2.57354,-1.942064 2.57354,-1.942064 l 4.65575,-2.774388 3.06367,-2.774376 3.06367,-0.55488 c 0,0 2.19323,-3.620013 -0.12283,-4.300291 -0.60471,-0.17756 -3.06368,0.138719 -2.69637,-2.219505 0.35432,-2.347121 1.45271,-5.121503 0.72045,-7.341009 -0.73226,-2.219504 -3.55381,-5.132604 -3.55381,-5.132604 l -6.73913,1.109752 -7.27534,2.553541 z"
style="fill:url(#path3894_2_);stroke:#231f20;stroke-width:0.57242578"/>
<path
d="m 124.45465,86.777864 c 0.51258,-0.44723 3.88451,-4.047262 3.15343,-8.532882 -0.74524,-4.562192 -2.96919,-6.020407 -3.87033,-6.296736 -0.90115,-0.276328 -2.97863,-0.154255 -2.36213,0.573742 0.90941,1.072022 2.24993,5.988224 1.77632,6.882685 -0.47242,0.894461 -1.49995,6.882681 -1.49995,6.882681"
id="path502"
style="fill:none;stroke:#000000;stroke-width:0.57242578" />
<path
d="m 109.9276,84.007922 c 0,0 1.10784,-1.14415 0.95429,-3.211619 -0.12401,-1.676836 -1.51412,-4.30584 -1.54482,-4.680935 -0.0945,-1.192985 3.10265,-2.337139 3.55735,-1.25846 0.23386,0.554877 1.42437,2.19509 1.64995,3.81311 0.35668,2.55132 -0.29408,5.283526 -0.28818,5.420026"
id="path504"
style="fill:none;stroke:#000000;stroke-width:0.57242578" />
<path
d="m 113.28182,74.71153 c -0.0307,-0.668071 1.26019,-2.28054 3.18414,-1.665738 2.14953,0.685827 3.3176,6.547539 3.3176,6.547539 l -1.4468,5.188089 c 0,0 2.24519,-5.769599 -1.46924,-11.86103 -0.32479,-0.533791 3.47586,-1.176338 3.74632,-0.617023 0.60233,1.246252 3.05421,6.513138 3.05421,6.513138 l -1.52001,4.751955"
id="path506"
style="fill:none;stroke:#000000;stroke-width:0.57242578" />
<linearGradient
id="SVGID_14_"
y2="96.082"
gradientUnits="userSpaceOnUse"
x2="162.97"
y1="120.72"
x1="152.91"
gradientTransform="matrix(1.1810609,0,0,1.1097524,-87.061532,-24.04423)">
<stop
style="stop-color:#312121"
offset="0"
id="stop508" />
<stop
style="stop-color:#C18B55"
offset="1"
id="stop510" />
</linearGradient>
<path
d="m 82.385272,99.737562 c 8.365454,4.175998 7.97216,15.044908 6.861964,16.763908 l 9.867762,-1.16635 c 5.946632,-0.55265 10.390972,-7.00031 10.390972,-7.00031 2.41881,-1.90323 -1.89443,-4.176 -1.89443,-4.176 1.7645,-1.90323 1.43853,-4.851834 -0.32597,-5.404495 1.82946,-2.518021 -1.83065,-6.447669 -3.72507,-6.324479 0.32598,-2.271665 -1.24129,-4.421256 -3.26798,-4.421256 -2.026701,0 -6.861967,4.728652 -6.861967,4.728652 0.03897,-1.054261 2.875883,-3.868594 -0.937762,-4.870701 -0.879891,-0.230827 -3.660108,3.05515 -5.07502,4.19486 l -5.043129,7.668402 z"
id="path513"
style="fill:url(#SVGID_14_);stroke:#231f20;stroke-width:0.57242578"/>
<linearGradient
id="path3074_2_"
y2="107.54"
gradientUnits="userSpaceOnUse"
x2="82.469"
gradientTransform="matrix(1.1810609,0,0,-1.1097524,-87.061532,260.05238)"
y1="123.54"
x1="73.739">
<stop
style="stop-color:#2F2D2D"
offset="0"
id="stop515" />
<stop
style="stop-color:#6F231B"
offset="1"
id="stop517" />
</linearGradient>
<path
id="path3074_1_"
d="M 82.054575,99.781947 83.12934,98.044076 81.452234,93.437484 80.505023,89.072832 25.824218,107.77358 c -5.772013,2.83013 -5.366647,2.41926 -11.22835,5.08078 -1.685307,14.90954 0.688558,20.99319 0.688558,20.99319 0,0 6.369466,-1.91133 7.622572,-2.4995 1.253105,-0.58817 17.430145,-5.70111 17.430145,-5.70111 11.926353,-17.04024 28.475377,-21.87432 35.958579,-22.48025 l 5.751766,-3.384743 z"
style="fill:url(#path3074_2_);stroke-width:1.14485157"/>
<linearGradient
id="path3006_1_"
y2="28.744"
gradientUnits="userSpaceOnUse"
x2="110.15"
gradientTransform="matrix(1.1810609,0,0,-1.1097524,-87.061532,260.05238)"
y1="36.848"
x1="94.126">
<stop
style="stop-color:#D1A21C"
offset="0"
id="stop521" />
<stop
style="stop-color:#FFE44C"
offset="1"
id="stop523" />
</linearGradient>
<path
id="path3006_2_"
d="m 49.941529,216.19498 0.621239,1.96315 -0.451165,12.4148 c 0,0 -22.357482,-7.10907 -29.419045,-0.23638 l -3.415629,0.81345 1.797575,-7.73386 0.898788,-5.90055 0.213772,-1.37276 c 6.714331,2.97412 29.747379,0.0555 29.747379,0.0555 z"
style="fill:url(#path3006_1_);stroke-width:1.14485157"/>
<linearGradient
id="SVGID_15_"
y2="251.1"
gradientUnits="userSpaceOnUse"
x2="106.9"
y1="227.15"
x1="108.57"
gradientTransform="matrix(1.1810609,0,0,1.1097524,-87.061532,-24.04423)">
<stop
style="stop-color:#A86D35"
offset=".0368"
id="stop527" />
<stop
style="stop-color:#050102"
offset="1"
id="stop529" />
</linearGradient>
<path
d="m 17.279292,231.15444 c -5.823811,13.54674 1.760962,24.06832 10.068544,22.37039 l 32.506338,-1.69681 c 10.112243,-2.71445 2.542824,-14.68645 -1.912137,-16.75171 -5.351387,-3.69103 -27.3203,-10.88002 -38.539198,-6.32559 -1.606242,0.64365 -2.118822,2.39706 -2.118822,2.39706 z"
id="path532"
style="fill:url(#SVGID_15_);stroke:#231f20;stroke-width:1.14485157"/>
</svg>
