<?xml version="1.0" encoding="UTF-8"?>
<svg
version="1.1"
xmlns="http://www.w3.org/2000/svg"
xmlns:svg="http://www.w3.org/2000/svg">
<g
transform="matrix(1.25,0,0,-1.25,0,24.48)">
<path
style="fill:#7e6b44;"
d="M 0.25,2.561 C 0.2365,6.609 0.0219,10.38 0.04,15.2 c 7e-4,0.19 4.97,3.26 7.277,4.25 1.601,0.69 17.643,-1.84 20.353,-2.57 0.32,-0.1 0.86,-7.21 0,-11.033 C 27.45,5.041 24.78,0.0265 21.16,0.1411 14.2,0.8218 6.787,1.302 0.25,2.561 Z"/>
<path
style="opacity:0;fill:#d0b379;"
d="m 27.61,17 c -1.09,-0.67 -1.95,-1.2 -2.56,-1.6 v 0 0 -0.1 c -0.11,-0.1 -0.21,-0.15 -0.32,-0.2 v 0 L 24.63,15 c -0.1,0.13 -0.18,0.25 -0.28,0.36 l -0.1,0.1 0.8,0.48 c 0.59,0.19 0.93,0.37 1.04,0.56 0.1,0.16 0.1,0.28 -0.1,0.36 -0.24,0.16 -0.36,0.25 -0.36,0.28 l 0.96,0.1 h 0.1 c 0.45,-0.1 0.77,-0.16 0.96,-0.32 z m -11.64,0.28 c -0.24,0 -0.47,0 -0.68,0.1 0.29,0.19 0.55,0.33 0.76,0.44 l 0.4,0.28 0.24,0.1 0.4,-0.2 c -0.11,-0.21 -0.17,-0.33 -0.2,-0.36 -0.11,-0.1 -0.41,-0.19 -0.92,-0.32 z m 7,-2.36 c 0.26,-0.13 0.49,-0.29 0.68,-0.48 -0.78,-0.56 -1.68,-1.09 -2.72,-1.6 -0.16,0.1 -0.21,0.14 -0.16,0.24 0,0.1 0.16,0.15 0.4,0.28 0.37,0.21 0.61,0.4 0.72,0.56 0,0.52 0,0.54 0.7,0.8 0.1,0 0.19,0.1 0.4,0.2 z m -11,2.84 c 0.57,0.32 1.31,0.51 1.84,0.76 0.21,0.1 0.57,0.1 1.08,0 h 0.24 c -0.45,-0.24 -0.98,-0.56 -1.6,-0.96 z m 0.16,-1.16 c -0.62,-0.43 -1.41,-1.05 -1.84,-1.42 -0.67,-0.1 -1.508,0 -2.04,0.16 -0.06,0.36 -0.08,0.74 -0.12,1.16 -0.03,0.16 -0.06,0.32 -0.01,0.35 1.322,0.22 2.6,-0.1 4.01,-0.25 z"/>
<path
style="fill:#b99e64;"
d="m 23.25,16.16 c -0.35,0.11 -2.46,0.43 -6.16,0.94 0.87,0.44 1.22,0.63 0.8,1.42 2.57,-0.35 5.18,-0.86 7.34,-1.15 -0.37,-0.24 -1.18,-0.73 -1.98,-1.21 z M 17.01,16 c 1.56,-0.17 3.25,-0.39 4.72,-0.68 -0.48,-0.38 -0.89,-0.68 -1.32,-0.96 -1.34,0.19 -2.37,1.01 -3.4,1.66 z m -3.97,-2.44 -2.56,0.36 c 1.31,1.48 4.25,1.6 2.51,-0.36 z m -4.231,0.6 c -5.873,3.62 -2.936,1.81 0,0 z m 3.921,4.88 c -1.28,-1.03 -2.61,-0.91 -4.121,-0.16 1.225,0.74 2.841,0.34 4.121,0.18 z"/>
<path
style="fill:#c6a86c;"
d="m 24.21,15.56 c -0.29,0.29 -0.61,0.49 -0.96,0.6 0.54,0.48 1.23,0.84 1.7,1.23 1.14,-0.12 1.14,-0.37 1.12,-0.75 -0.65,-0.47 -1.14,-0.62 -1.86,-1.08 z m -10.44,0.8 c 0.6,-0.1 2.24,-0.1 3.24,-0.36 1.69,-1.03 3.34,-1.77 4.72,-0.7 2.02,-0.56 -0.55,-1.93 -0.98,-2.58 -7.49,1.08 -6.55,1.49 -6.98,3.64 z m 3.44,2.3 c 0.2,0 0.48,-0.12 0.68,-0.14 0.64,-0.65 0.18,-1.01 -0.32,-1.31 -0.51,-0.32 -1.09,0 -1.6,0.1 0.95,0.14 1.09,0.97 1.24,1.35 z M 7.648,18.24 c 0.117,0.38 0.562,0.43 0.961,0.6 1.711,-0.79 2.631,-0.67 4.121,0.2 0.88,-0.1 1.88,-0.15 3,-0.28 -1.22,-0.46 -2.66,-0.49 -3.76,-1.04 z M 6.852,17.28 C 9.769,16.02 6.578,15.22 10.29,15.24 9.885,14.89 9.506,14.53 9.168,14.2 c -2.225,0.32 -4.456,0.51 -6.52,1.08 1.535,1.05 3.23,1.12 4.204,2 z"/>
<path
style="fill:#917b4e;"
d="m 24.65,15.16 c 1.94,1.42 0.92,0.84 3.16,1.6 0,-3.24 0.13,-6.48 0,-9.719 C 26.04,5.94 25.9,5.173 25.49,3.4 c 0,2.531 -0.32,7.02 -0.84,11.76 z M 20.73,11.2 v 0 l -0.1,1.12 v 0.32 c 0.95,0.63 2.61,1.96 3,1.8 0.75,-3.67 0.72,-7.924 0.84,-11.001 -1.28,-0.873 -2.3,-1.836 -3.42,-2.597 v 0 C 20.73,5.919 20.84,6.633 20.73,11.2 Z"/>
<path
style="fill:#dcc99a;"
d="m 15.97,17.28 c 4.76,-0.9 8.75,-0.15 8.88,-3.24 0,-0.85 0.1,-3.39 0.28,-7.601 0,-1.312 0.12,-2.501 0.2,-3.679 0.1,-0.481 -0.1,-0.719 -0.44,-0.719 -0.59,4.314 -0.81,11.849 -1.24,12.399 -2.48,2.04 -5.94,1.8 -8.64,2.12 -0.1,0.73 0.37,0.67 0.96,0.72 z M 8.934,1.179 C 8.104,4.453 8.419,9.731 8.648,13.64 v 0 c 0.473,1.01 2.572,2.32 3.692,3.15 -2.738,0.35 -5.472,0.75 -8.211,1.07 0.153,0.62 0.805,0.57 1.24,0.6 2.754,-0.42 5.641,-0.66 8.161,-0.98 0.91,0.64 1.81,1.08 2.8,1.48 0.4,0.17 0.91,0.1 0.88,-0.3 -1.58,-0.56 -2.88,-1.65 -4.14,-2.5 v 0 C 11.83,15.28 10.73,14.21 9.848,13.3 9.637,9.634 9.707,5.271 9.709,1.554 9.771,1.287 9.817,0.9603 8.934,1.179 Z"/>
<path
style="fill:#d4bb87;"
d="m 9.969,13.32 c 0,0 0.02,0.1 0.04,0.12 0.1,0.11 0.25,0.27 0.52,0.48 l 2.56,-0.36 0.88,-0.12 c 2.08,-0.21 4.67,-0.4 6.8,-0.7 l -0.12,-0.1 v -0.1 c -1.67,0 -3.58,0.1 -5,0.1 -1.92,0.59 -3.69,0.4 -5.701,0.68 z m -2.321,4.92 -1.796,0.2 c 0.679,0.4 1.558,0.84 2.636,1.08 l 2.922,-0.24 c -1.552,0 -2.582,-0.14 -3.762,-1.04 z m 1.001,-4.6 c -3.036,0.54 -8.284,1.18 -8.558,0.84 -0.021,0.58 -0.0175,0.53 0,0.68 v 0 h 0.84 v 0 c 1.475,0.79 2.648,1.53 3.8,2.44 L 6.81,17.32 C 5.727,15.99 3.067,15.65 2.648,15.28 4.837,14.72 7.22,14.54 9.168,14.2 8.99,14.04 8.767,13.81 8.649,13.64 Z"/>
<path
style="fill:#b0965f;"
d="M 14.52,5.427 C 15.6,4.736 17.57,5.114 18.09,1.881 17.56,1.666 16.97,1.654 16.25,1.838 15.48,2.08 10.52,2.026 10.15,2.08 9.326,7.74 11.65,6.12 14.52,5.427 Z M 9.989,6.192 C 9.741,7.917 9.456,8.301 9.97,13.36 c 3.57,0.1 7.38,-1.04 10.66,-0.68 v 0.1 -0.12 C 17.72,9.751 11.42,6.493 9.989,6.192 Z M 20.97,1.439 c -0.83,0.812 -2.07,1.84 -2.84,2.481 -4.44,3.769 -5.82,2.78 -0.98,5.532 0.91,0.628 2.81,1.138 3.62,1.748 0.14,-4.845 0.2,-6.213 0.2,-10.36 v 0 z M 8.57,3.24 H 8.531 C 7.969,3.291 3.779,3.877 3.404,4.038 1.569,5.82 7.339,6.929 8.458,8.75 7.344,9.854 6.687,9.762 2.137,13.67 c 0,0 5.777,0.12 6.511,-0.1 C 8.633,5.977 8.531,5 8.57,3.24 Z m -8.5,11.82 c -0.0467,3.02 -0.0233,1.51 0,0 z M 0.25,4.279 0.1997,11.47 C -0.0074,15.92 7.041,8.667 7.041,8.667 6.545,7.21 2.197,5.66 0.25,4.279 Z"/>
<path
style="fill:#9d8655;"
d="m 12.83,6.682 c 2.95,0.141 8.92,-5.613 8.14,-5.762 v 0.039 c -1.64,1.933 -4.42,3.48 -5.72,4.039 -2.44,1.275 -5.2,0.883 -2.42,1.684 z M 10.21,2.4 c 1.17,0.154 4.24,-0.02 6.04,-0.561 0.72,-0.184 1.3,-0.172 1.76,0.04 1.49,1.131 1.47,-0.294 1.6,-1.119 -0.22,-0.106 -0.68,-0.094 -1.4,0.039 -2.81,0.388 -5.54,1.044 -8,1.279 v 0.04 z M 8.531,3.24 h 0.04 c 0.03,-0.347 0.05,-0.679 0.08,-1 -2.427,0.524 -9.3828,0.189 -7.44,1.678 1.042,0.01 5.261,0.17 7.32,-0.678 z"/>
<path
style="fill:#e1c88f;"
d="m 5.369,18.46 c 1.099,0.71 1.847,1.2 3.119,1.1 C 7.437,19.27 6.718,18.95 5.852,18.44 Z M 0.09,15.16 c 1.33,0.83 2.851,1.71 4.121,2.48 L 4.73,17.56 C 3.254,16.37 2.139,15.8 0.93,15.12 v 0 H 0.809 0.09 Z"/>
</g>
</svg>
