<?xml version="1.0" encoding="UTF-8"?>
<svg
xmlns="http://www.w3.org/2000/svg"
xmlns:svg="http://www.w3.org/2000/svg"
version="1.1"
x="0px"
y="0px"
viewBox="0 0 640 640"
height="36"
width="36">
<g
id="g10"
transform="matrix(0.8077,-1.039,1.035,0.8156,-1326,4479)">
<path
fill="#e9df17"
d="m 3332,-1186 c 34,138 75,284.3 75,415.8 -53,15.4 -119,6.7 -168,7 -20,-91.6 -6,-289.8 -6,-399.8 20,-40 71,-22 99,-23 z"/>
<path
fill="#d95d42"
d="m 3330,-1185 c -20,1 -70,1 -84,7 9,-8 -8,-93 44,-92 50,5 29,74 40,85 z"/>
<path
fill="#d95d42"
d="m 3343,-1139 4,17 c -34,-16 -93,-8 -114,14 v -10 c 19,-25 64,-34 110,-21 z"/>
<path
fill="#d95d42"
d="m 3233,-839.5 c 49,-7.8 114,-4.6 170,-5.7 l 1,15.5 c -43,-2.1 -127,0.4 -172,5.5 1,-3.3 -2,-13.6 1,-15.3 z"/>
</g>
<g
id="g22"
transform="matrix(0.1651,0,0,0.1651,-182.1,216.3)">
<path
fill="#d95d42"
d="m 1833,557.5 c 413,18 718,156.1 754,679.5 -19,592 -218,620 -615,713 -374,2 -545,-76 -692,-360 -232,-521 46,-985.7 553,-1032.5 z"/>
<path
d="m 1860,786.5 c 308,-7.1 542,180.1 551,460.5 -20,317 -148,455 -469,515 -345,54 -551,-229 -552,-537 41,-288 221,-387.5 470,-438.5 z"/>
</g>
<g
transform="matrix(0.1653,0,0,0.1653,-46.47,306.7)">
<path
fill="#d95d42"
d="m 1833,557.5 c 413,18 718,156.1 754,679.5 -19,592 -218,620 -615,713 -374,2 -545,-76 -692,-360 -232,-521 46,-985.7 553,-1032.5 z"/>
<path
d="m 1860,786.5 c 308,-7.1 542,180.1 551,460.5 -20,317 -148,455 -469,515 -345,54 -551,-229 -552,-537 41,-288 221,-387.5 470,-438.5 z"/>
</g>
</svg>
