<?xml version="1.0" encoding="UTF-8" standalone="no"?>
<svg




xmlns="http://www.w3.org/2000/svg"
viewBox="-0.258 -0.548 123.547 123.539"
version="1.1"
y="0px"
x="0px"
>
<g>
<path
style="fill:#000"
d="M 14.609,1.816 C 7.851,1.816 2.343,7.324 2.343,14.089 v 94.078 c 0,6.773 5.508,12.281 12.266,12.281 h 94.078 c 6.758,0 12.281,-5.508 12.281,-12.281 v -94.08 c 0,-6.766 -5.523,-12.273 -12.281,-12.273 H 14.606 Z"
/>
<path
style="fill:#fff;stroke:#fff;"
d="M 61.270,22.762 8.080,58.801 H 114.460 L 91.926,43.539 V 24.371 l -15.086,-1.63e-4 v 8.932 L 61.270,22.762 Z"
/>
<path
style="fill:#fff;stroke:#fff;"
d="M 23.598,63.625 V 105.253 H 98.427 V 63.625 Z m 11.536,9.520 h 17.585 v 17.585 h -17.585 z m 31.163,5.257 H 84.394 V 105.049 H 66.298 Z"
/></g>
</svg>
