<?xml version="1.0" standalone="no"?>
<!DOCTYPE svg PUBLIC "-//W3C//DTD SVG 20010904//EN"
"http://www.w3.org/TR/2001/REC-SVG-20010904/DTD/svg10.dtd">
<svg version="1.0" xmlns="http://www.w3.org/2000/svg"
width="57.962264pt" height="36.000000pt" viewBox="0 0 57.962264 36.000000"
preserveAspectRatio="xMidYMid meet">
<g transform="translate(0.000000,36.000000) scale(0.004528,-0.004528)"
fill="#4d4d4d" stroke="none">
<path d="M9920 7699 c-54 -15 -108 -40 -113 -54 -3 -6 -1 -45 4 -86 14 -121
11 -216 -7 -252 -25 -49 -42 -64 -134 -124 -111 -73 -195 -110 -294 -130 -70
-14 -96 -15 -196 -4 -103 11 -120 11 -157 -4 -23 -9 -49 -27 -57 -40 -9 -14
-26 -29 -37 -36 -44 -23 -157 -50 -288 -69 -108 -15 -145 -16 -188 -8 -53 11
-55 10 -140 -33 -111 -57 -127 -83 -95 -158 12 -27 22 -65 22 -84 0 -24 13
-54 41 -96 22 -33 44 -63 48 -66 5 -2 6 -26 4 -52 -3 -31 1 -62 10 -86 15 -36
15 -37 -6 -41 -50 -11 -162 -28 -327 -51 -96 -14 -269 -39 -385 -55 -115 -17
-300 -44 -410 -60 -110 -16 -294 -43 -410 -60 -115 -16 -302 -44 -415 -60
-113 -16 -299 -44 -415 -60 -485 -71 -631 -92 -825 -120 -113 -16 -248 -36
-300 -45 -52 -8 -100 -15 -106 -15 -14 0 -34 64 -24 80 11 18 -15 108 -38 128
-10 9 -29 51 -41 92 -12 41 -26 86 -31 100 -5 14 -25 79 -45 145 -20 66 -40
131 -45 145 -5 14 -23 72 -40 130 -18 58 -47 152 -66 210 -59 186 -67 222 -55
253 7 18 18 28 28 26 10 -1 23 -1 30 0 15 1 33 55 23 71 -6 10 27 35 121 92
l129 79 103 -3 c56 -1 166 1 245 6 166 10 182 18 155 69 -21 41 -33 51 -123
95 l-75 37 -225 -1 c-124 0 -322 -6 -440 -14 -228 -14 -512 -11 -863 10 -182
11 -203 11 -244 -5 -38 -15 -49 -25 -65 -62 -27 -60 -13 -95 51 -127 85 -43
256 -113 306 -126 53 -14 119 -49 197 -105 56 -40 142 -53 222 -35 37 8 62 8
103 -1 l53 -12 31 -101 c17 -56 42 -132 54 -171 13 -38 40 -124 60 -190 21
-66 48 -151 60 -190 13 -38 44 -137 70 -220 25 -82 55 -176 66 -208 20 -59 18
-82 -7 -73 -15 6 -44 -19 -44 -38 0 -53 43 -103 78 -92 28 9 39 -5 62 -84 13
-41 26 -79 30 -85 4 -5 -24 -51 -64 -102 -39 -50 -158 -211 -265 -357 -107
-146 -198 -266 -202 -266 -4 0 -43 21 -86 47 -202 120 -461 225 -695 283 -231
57 -309 65 -608 65 -299 0 -377 -8 -608 -65 -264 -65 -562 -194 -782 -338
-630 -412 -1044 -1073 -1135 -1812 -20 -161 -20 -459 0 -620 128 -1040 894
-1899 1917 -2150 231 -57 309 -65 608 -65 299 0 377 8 608 65 264 65 562 194
782 338 347 227 640 541 837 897 l50 90 324 12 c432 15 621 29 635 48 6 8 25
15 42 15 21 0 66 24 154 83 98 65 131 94 160 137 60 89 98 166 98 199 0 22 5
31 16 31 21 0 344 28 406 35 l46 5 -1 -34 c-1 -45 18 -66 58 -66 36 0 49 12
58 51 5 19 17 29 44 37 56 17 130 90 138 135 10 53 -31 132 -101 196 -31 28
-60 51 -66 51 -17 0 -68 -41 -68 -54 0 -10 -35 -15 -132 -19 -73 -4 -191 -10
-263 -13 l-130 -6 -17 43 c-10 24 -38 75 -63 112 -25 38 -45 70 -45 72 0 2
473 550 1051 1217 1037 1196 1052 1213 1085 1210 30 -3 40 3 94 60 61 64 69
83 49 120 -10 18 -2 29 62 94 41 41 76 74 80 74 17 0 27 -49 16 -88 -9 -36 -8
-47 6 -71 9 -16 17 -47 17 -69 0 -27 17 -79 53 -159 l53 -118 -100 -67 c-149
-99 -256 -187 -396 -328 -395 -394 -633 -858 -732 -1426 -20 -113 -22 -164
-22 -409 0 -245 2 -296 22 -409 81 -463 257 -861 539 -1216 86 -109 294 -317
403 -403 355 -282 753 -458 1216 -539 113 -20 164 -22 409 -22 245 0 296 2
409 22 463 81 861 257 1216 539 109 86 317 294 403 403 282 355 458 753 539
1216 20 113 22 164 22 409 0 245 -2 296 -22 409 -81 463 -257 861 -539 1216
-86 109 -294 317 -403 403 -355 282 -753 458 -1216 539 -113 20 -164 22 -409
22 -245 0 -296 -2 -409 -22 -165 -29 -292 -61 -439 -112 -64 -22 -119 -40
-121 -40 -11 0 -52 147 -78 278 -9 46 -14 54 -43 67 -28 11 -36 23 -48 62 -93
310 -235 746 -253 778 -12 22 -26 65 -30 95 -8 62 -43 130 -82 161 -15 11 -32
30 -38 42 -11 19 -8 22 40 38 144 48 183 52 345 43 133 -8 160 -7 197 7 61 23
309 52 374 43 41 -5 60 -15 90 -43 65 -62 72 -134 28 -283 -18 -61 -27 -74
-106 -152 -138 -135 -164 -151 -318 -205 -150 -51 -202 -75 -222 -100 -17 -22
-8 -79 25 -146 37 -75 61 -84 155 -55 71 21 258 108 329 153 50 31 206 176
229 212 10 17 33 50 51 75 18 25 52 86 76 135 51 107 71 222 55 327 -11 75 3
112 63 167 37 33 38 34 108 28 89 -8 101 -19 102 -95 0 -49 -4 -61 -27 -84
-21 -20 -28 -37 -28 -66 0 -50 26 -125 51 -148 20 -18 22 -18 57 1 29 16 37
27 39 50 0 17 2 35 3 40 0 6 11 -24 24 -65 32 -106 92 -189 139 -190 31 0 30
28 -2 65 -37 42 -58 111 -66 213 l-6 77 20 -36 c31 -57 76 -89 122 -89 49 0
50 16 3 55 -34 29 -59 80 -86 180 -6 22 -15 45 -19 50 -4 6 -11 31 -15 55 -4
25 -20 71 -35 102 -16 31 -38 92 -50 134 -11 42 -52 142 -91 223 -145 304
-158 332 -158 355 0 40 -62 56 -140 35z m-1480 -1676 c0 -9 5 -30 10 -47 6
-17 23 -71 39 -121 l29 -89 -83 -96 c-679 -781 -1419 -1640 -1428 -1660 -8
-16 -24 -27 -47 -31 -42 -9 -63 -35 -57 -74 4 -25 -5 -41 -51 -95 -139 -164
-156 -180 -184 -180 -33 0 -61 -37 -56 -73 2 -17 -9 -38 -37 -69 -22 -24 -74
-84 -115 -132 -41 -49 -95 -112 -120 -141 -25 -28 -97 -111 -160 -184 -200
-232 -174 -208 -207 -190 -15 9 -59 26 -96 39 -57 18 -86 22 -169 19 l-100 -4
-20 65 c-11 36 -26 81 -33 100 -7 19 -18 55 -25 80 -7 25 -18 63 -25 85 -7 22
-18 60 -25 85 -7 25 -18 61 -25 80 -32 90 -35 103 -24 116 16 19 7 58 -16 68
-13 6 -26 30 -38 70 -10 33 -25 77 -32 96 -7 19 -18 55 -25 80 -7 25 -19 63
-27 84 -10 27 -11 42 -4 49 18 18 13 58 -8 64 -19 5 -41 49 -41 83 0 9 -18 72
-39 141 -22 68 -58 185 -81 259 -23 74 -55 178 -72 230 -58 186 -87 277 -128
410 -23 74 -57 182 -75 240 -18 58 -32 107 -29 109 2 2 28 8 57 12 28 4 115
17 192 29 77 12 196 30 265 40 69 10 188 28 265 39 77 12 183 28 235 36 52 8
154 24 225 34 72 11 193 29 270 41 135 21 232 35 530 79 77 12 199 30 270 41
72 11 191 29 265 40 74 11 180 27 235 36 55 8 156 24 225 34 323 48 411 61
490 74 47 8 88 14 93 15 4 0 7 -7 7 -16z m-3805 -788 c14 -49 32 -108 39 -130
8 -22 19 -60 26 -85 7 -25 25 -83 40 -130 15 -47 33 -105 40 -130 6 -25 18
-61 25 -80 7 -19 19 -55 25 -80 7 -25 25 -83 40 -130 15 -47 33 -105 40 -130
6 -25 18 -61 25 -80 7 -19 17 -51 22 -70 24 -85 47 -158 58 -190 7 -19 18 -55
25 -80 7 -25 18 -63 26 -85 7 -22 25 -80 39 -130 15 -49 33 -106 40 -125 7
-19 19 -55 25 -80 7 -25 25 -83 40 -130 15 -47 33 -105 40 -130 7 -25 18 -63
26 -85 7 -22 25 -80 39 -130 15 -49 31 -100 36 -113 l9 -23 -93 7 c-50 4 -93
8 -95 9 -1 1 -9 58 -17 126 -69 557 -325 1080 -725 1479 -58 58 -145 136 -193
174 -48 38 -87 73 -87 78 0 5 17 33 38 63 25 37 45 55 62 57 20 2 25 9 25 33
0 23 38 83 155 248 177 249 155 241 205 72z m-1695 -411 c141 -21 345 -74 461
-120 96 -37 274 -124 341 -166 l37 -23 -470 -640 c-259 -352 -474 -641 -478
-643 -4 -1 -15 4 -25 11 -17 12 -17 14 0 51 18 37 18 39 -2 74 -24 41 -101 89
-127 79 -9 -3 -17 -15 -17 -26 0 -13 -22 -32 -69 -61 -66 -39 -77 -42 -208
-59 -153 -19 -156 -21 -129 -86 21 -49 20 -55 -6 -55 -14 0 -58 -31 -110 -76
l-87 -76 -30 -94 c-41 -125 -49 -245 -27 -374 21 -121 44 -167 134 -267 84
-94 143 -128 279 -162 101 -26 133 -26 253 -1 119 25 130 25 130 1 0 -10 7
-24 15 -31 8 -7 15 -21 15 -31 0 -10 4 -20 9 -23 14 -9 -3 -60 -54 -161 -30
-58 -45 -103 -46 -130 -2 -63 -12 -89 -39 -95 -20 -5 -25 -12 -25 -35 l0 -30
140 -10 c77 -5 146 -14 152 -18 11 -7 1005 12 1386 26 53 2 97 1 97 -3 0 -5
-40 -61 -89 -126 -290 -388 -710 -670 -1176 -789 -206 -53 -334 -69 -550 -69
-216 0 -344 16 -550 69 -657 168 -1204 651 -1453 1282 -199 503 -199 1053 0
1556 249 631 796 1114 1453 1282 118 31 276 58 395 69 86 8 366 -4 470 -20z
m7284 16 c653 -47 1243 -395 1606 -946 486 -736 486 -1702 0 -2438 -525 -796
-1504 -1142 -2395 -845 -737 245 -1286 890 -1425 1674 -146 821 184 1666 841
2150 56 41 106 72 110 68 4 -5 81 -170 169 -368 89 -198 166 -362 170 -365 5
-3 25 -39 45 -80 19 -41 50 -101 68 -132 37 -66 127 -223 165 -287 l25 -44
-39 -33 -39 -33 -11 32 c-9 26 -16 32 -40 32 -25 0 -29 -4 -32 -31 -2 -17 5
-66 16 -107 10 -43 15 -82 10 -89 -16 -26 -7 -60 23 -90 l31 -31 -51 -109
c-54 -115 -60 -142 -38 -173 13 -17 24 -18 77 -4 11 3 16 -10 22 -51 20 -134
62 -205 193 -320 104 -92 169 -118 338 -132 131 -11 132 -11 222 17 87 27 163
62 196 91 8 8 20 14 24 14 13 0 75 62 75 74 0 6 14 27 30 46 17 21 44 80 67
147 l38 112 -17 135 c-25 192 -49 249 -152 354 -113 116 -194 156 -351 173
-90 10 -119 10 -137 1 -13 -7 -52 -20 -88 -30 l-65 -17 -23 34 c-26 38 -342
744 -342 764 0 6 -36 93 -80 192 -44 99 -80 185 -80 191 0 6 -27 73 -61 149
-33 75 -59 138 -57 140 11 10 214 80 291 100 166 43 293 62 507 73 14 1 88 -3
164 -8z m-6229 -480 c221 -181 429 -440 559 -697 101 -202 182 -470 210 -695
l6 -48 -38 0 c-20 1 -406 18 -856 39 -544 25 -821 41 -823 48 -2 6 -21 35 -41
65 l-38 53 439 615 c509 713 485 680 498 680 6 0 44 -27 84 -60z m6167 -1241
c59 -7 107 -20 148 -40 33 -16 64 -29 68 -29 4 0 33 -26 63 -57 68 -70 102
-150 120 -278 10 -70 10 -97 -1 -137 -28 -110 -88 -221 -136 -253 -57 -37
-115 -65 -179 -86 -59 -19 -82 -21 -166 -16 -134 8 -223 50 -310 146 -75 81
-92 117 -71 146 11 15 24 20 43 17 14 -2 39 3 55 11 27 14 30 13 80 -24 60
-46 149 -69 263 -68 60 1 75 4 91 22 11 11 20 28 20 38 0 9 7 22 16 30 22 18
44 64 44 92 0 14 -7 57 -16 96 -15 66 -19 73 -64 106 -34 25 -61 36 -101 41
l-54 6 -54 100 c-34 65 -50 103 -43 110 8 8 77 36 92 38 3 0 44 -5 92 -11z
m-498 -84 c-21 -24 -42 -41 -48 -38 -6 4 -24 16 -39 27 l-28 20 58 17 c95 27
99 25 57 -26z m-7409 -100 c-16 -22 -41 -61 -54 -87 l-25 -46 13 -124 c15
-140 32 -182 106 -265 60 -68 141 -115 270 -158 l40 -13 -28 -7 c-61 -16 -215
27 -283 78 -111 85 -180 255 -168 415 9 112 46 203 103 253 45 38 46 38 51 16
4 -15 -4 -35 -25 -62z m1715 -31 c437 -20 797 -38 800 -41 7 -7 5 -341 -3
-349 -3 -3 -145 17 -314 45 -1043 174 -1316 221 -1319 224 -2 2 -9 30 -15 63
-6 32 -15 67 -20 76 -13 24 -66 25 871 -18z m5855 -62 c42 -72 46 -84 33 -95
-140 -111 -136 -109 -161 -92 -24 15 -24 17 -10 58 9 25 13 60 10 87 -4 39 -1
48 29 84 19 22 34 44 34 50 0 17 15 -4 65 -92z m-4447 -20 c10 -14 10 -18 0
-21 -31 -10 -173 -149 -189 -186 l-19 -40 0 139 0 138 98 -7 c73 -5 100 -11
110 -23z m440 -133 c51 -22 50 -25 -32 -117 l-56 -62 -15 36 c-8 20 -15 43
-15 51 0 8 -5 24 -12 36 -6 12 -14 36 -18 53 l-8 32 57 -5 c31 -3 75 -14 99
-24z m-359 -131 c7 -24 18 -54 23 -68 6 -14 14 -40 18 -58 7 -28 4 -35 -19
-52 -24 -17 -30 -17 -42 -4 -9 8 -53 19 -102 25 l-87 12 43 51 c70 85 135 148
144 143 5 -3 15 -25 22 -49z m-2224 -43 c44 -8 118 -21 165 -30 83 -16 186
-34 408 -74 480 -87 568 -104 576 -111 4 -5 -10 -28 -32 -52 -26 -28 -45 -61
-53 -91 -14 -57 -7 -67 63 -103 56 -29 122 -31 229 -9 40 9 74 13 77 10 13
-12 -135 -346 -181 -409 -13 -17 -59 -19 -728 -37 -393 -10 -720 -18 -728 -19
-8 0 1 17 21 43 83 100 88 147 25 239 l-43 63 16 48 c21 59 38 78 50 57 30
-51 37 -56 67 -40 31 18 44 70 22 96 -7 9 -11 38 -10 74 2 58 2 58 -57 127
-57 66 -59 69 -46 98 7 17 23 54 35 83 12 28 27 52 33 52 6 0 47 -7 91 -15z
m2836 -51 c7 -8 29 -24 48 -34 l36 -19 -84 -1 c-91 0 -88 -3 -42 53 17 21 25
21 42 1z m-953 -430 c4 -67 51 -150 124 -220 95 -91 122 -110 183 -130 36 -11
52 -20 43 -24 -7 -4 -131 -11 -275 -15 l-262 -7 39 88 c22 49 59 149 82 221
24 73 48 133 53 133 6 0 11 -21 13 -46z m426 20 c33 -15 54 -30 50 -36 -4 -6
-9 -27 -11 -47 -4 -41 -26 -93 -46 -110 -11 -8 -30 -3 -83 21 -62 28 -75 39
-118 100 -27 39 -45 75 -42 83 4 12 26 15 99 15 80 0 103 -4 151 -26z m387 4
c31 -26 109 -126 109 -139 0 -14 -81 -69 -125 -85 -11 -5 -26 -14 -33 -21 -8
-8 -37 -13 -72 -13 -50 0 -63 4 -85 25 -14 14 -25 34 -25 44 0 10 -7 24 -15
31 -24 20 -18 31 46 92 44 41 72 59 98 63 20 4 43 8 51 10 30 6 36 5 51 -7z"/>
</g>
</svg>
