<?xml version="1.0" standalone="no"?>
<!DOCTYPE svg PUBLIC "-//W3C//DTD SVG 20010904//EN"
"http://www.w3.org/TR/2001/REC-SVG-20010904/DTD/svg10.dtd">
<svg version="1.0" xmlns="http://www.w3.org/2000/svg"
width="52.191781pt" height="36.000000pt" viewBox="0 0 52.191781 36.000000"
preserveAspectRatio="xMidYMid meet">
<g transform="translate(0.000000,36.000000) scale(0.008219,-0.008219)"
fill="#4d4d4d" stroke="none">
<path d="M4500 4333 c-13 -3 -37 -16 -53 -29 -16 -13 -34 -24 -41 -24 -16 0
-46 -32 -46 -50 0 -7 -6 -21 -14 -29 -26 -30 19 -228 59 -261 30 -25 17 -57
-37 -96 -29 -21 -55 -41 -58 -45 -3 -3 -23 -12 -45 -18 -22 -7 -53 -17 -70
-23 -16 -6 -42 -13 -57 -15 -16 -3 -28 -9 -28 -14 0 -5 -8 -9 -17 -9 -9 0 -35
-9 -57 -19 -23 -11 -57 -26 -77 -34 -24 -10 -60 -44 -106 -98 -67 -81 -178
-239 -167 -239 3 0 -6 -14 -20 -31 -14 -17 -26 -37 -26 -45 0 -8 -4 -14 -9
-14 -29 0 -42 -183 -19 -264 6 -22 24 -56 39 -73 16 -18 31 -49 35 -69 8 -42
31 -55 134 -74 71 -14 110 -33 110 -54 0 -8 7 -16 15 -20 12 -4 15 -21 13 -78
-3 -93 30 -206 71 -240 18 -16 34 -47 50 -98 13 -41 34 -104 47 -140 13 -36
24 -85 24 -108 0 -24 7 -57 16 -74 25 -48 -4 -126 -80 -216 -23 -27 -59 -74
-81 -106 -22 -31 -52 -73 -67 -93 -16 -20 -28 -40 -28 -44 0 -5 -15 -32 -34
-62 -19 -29 -39 -70 -45 -91 -5 -22 -22 -51 -35 -65 -45 -47 -104 -154 -97
-174 4 -11 68 -50 157 -96 86 -44 150 -83 152 -92 3 -18 -70 -48 -178 -73 -36
-9 -112 -29 -170 -47 -58 -17 -145 -41 -195 -54 -49 -12 -124 -32 -165 -43
-41 -12 -111 -29 -155 -38 -44 -9 -141 -35 -215 -56 -74 -22 -171 -49 -215
-59 -103 -26 -272 -69 -310 -80 -16 -5 -75 -22 -130 -38 -151 -45 -175 -48
-181 -23 -10 36 -48 47 -113 34 -52 -11 -61 -10 -100 9 l-42 20 5 54 c5 38 13
62 31 81 14 15 25 33 25 39 0 17 55 122 74 141 18 18 76 136 110 226 13 35 44
106 68 158 54 115 88 210 88 248 -1 35 -26 89 -82 177 -61 95 -228 430 -228
458 0 12 -7 33 -16 46 -12 17 -13 26 -5 34 6 6 11 23 11 37 0 29 35 139 49
153 10 10 121 -225 121 -258 0 -13 4 -26 9 -29 4 -3 11 -27 14 -53 3 -26 13
-70 22 -96 20 -60 17 -89 -12 -102 -24 -10 -37 -43 -23 -59 5 -6 25 -20 45
-30 27 -15 42 -17 62 -10 68 24 82 112 43 256 -24 84 -24 87 -6 107 16 17 16
25 6 55 -7 23 -18 36 -29 36 -22 0 -52 102 -87 299 -13 75 -29 151 -35 170
-14 42 -6 205 10 225 7 8 25 63 40 123 25 95 28 120 23 210 -6 134 4 153 82
153 31 0 58 5 64 13 6 7 13 39 16 71 3 40 10 62 20 68 21 12 20 21 -4 70 -14
30 -17 45 -9 59 7 14 5 29 -7 55 -16 34 -16 37 -1 46 11 5 17 22 17 42 0 50
-66 103 -177 141 -45 16 -60 17 -114 7 -72 -13 -135 -51 -151 -90 -7 -15 -12
-91 -13 -177 -1 -169 -5 -183 -67 -210 -21 -9 -74 -36 -118 -60 l-78 -44 -141
-9 c-133 -8 -141 -9 -167 -35 -17 -17 -38 -27 -56 -27 -18 0 -37 -9 -53 -26
-32 -35 -38 -42 -76 -78 -19 -18 -42 -54 -53 -80 -19 -48 -19 -48 3 -77 18
-24 20 -33 11 -45 -7 -8 -21 -14 -31 -14 -10 0 -20 -4 -24 -9 -16 -28 -23
-166 -13 -291 13 -172 12 -193 -12 -248 -11 -24 -20 -56 -20 -71 0 -14 -10
-53 -21 -86 -20 -56 -21 -62 -6 -97 20 -47 48 -50 132 -13 32 14 59 25 60 23
1 -2 8 -14 15 -27 10 -19 18 -22 44 -18 30 5 34 2 49 -31 9 -21 35 -59 57 -86
26 -32 39 -55 34 -65 -8 -21 -74 -312 -74 -328 0 -7 -20 -58 -45 -113 -25 -55
-45 -110 -45 -121 0 -12 -11 -34 -25 -51 -14 -16 -25 -36 -25 -45 0 -13 -75
-130 -92 -143 -7 -5 -78 -145 -78 -154 0 -2 -19 -44 -41 -93 -90 -191 -109
-236 -109 -250 0 -8 -9 -26 -20 -40 -11 -14 -20 -34 -20 -44 0 -11 -4 -27 -9
-37 -6 -9 -18 -36 -27 -59 -11 -26 -25 -44 -39 -47 -12 -3 -33 -26 -48 -53
-14 -27 -40 -62 -57 -80 -16 -18 -30 -36 -30 -41 0 -21 89 -77 190 -118 54
-22 55 -22 25 -29 -16 -4 -59 -15 -95 -25 -63 -18 9 -18 2793 -19 l2857 -1 0
770 c0 424 -1 770 -3 770 -1 0 -18 -5 -37 -10 -67 -20 -255 -68 -295 -74 -22
-4 -58 -16 -80 -26 -53 -24 -100 -37 -160 -46 -27 -4 -84 -17 -125 -30 -41
-13 -93 -29 -115 -35 -22 -6 -64 -20 -92 -31 -29 -11 -79 -26 -110 -33 -62
-14 -127 -31 -468 -123 -366 -99 -355 -98 -355 -63 0 29 -25 43 -72 41 -93 -4
-110 -1 -115 20 -3 11 -9 20 -13 20 -5 0 -16 20 -26 45 -13 35 -14 49 -6 57 7
7 12 41 12 77 1 98 53 321 75 321 13 0 105 100 105 114 0 4 8 16 18 27 36 37
62 125 62 204 0 24 4 54 9 67 5 13 17 68 26 123 9 55 21 121 26 146 7 30 7 80
0 149 -6 57 -10 105 -8 107 2 1 26 6 53 9 27 4 52 12 56 18 4 6 13 11 20 11
16 0 38 43 38 76 0 15 -10 39 -22 54 -20 25 -21 37 -19 136 5 178 4 260 -4
339 -8 90 6 235 29 280 24 50 22 189 -4 240 -11 22 -20 49 -20 60 0 22 21 74
42 101 9 13 8 24 -6 54 -17 34 -17 41 -1 112 20 90 14 110 -53 176 -39 38 -57
49 -102 57 -30 6 -56 15 -58 20 -4 10 -9 11 -52 3z m-2771 -2915 c16 -18 50
-59 75 -91 l47 -57 -20 -29 c-12 -16 -21 -35 -21 -42 0 -7 -11 -40 -24 -73
-13 -34 -43 -124 -66 -201 -38 -128 -69 -221 -105 -315 -7 -19 -19 -66 -25
-105 -17 -92 -28 -115 -56 -115 -21 0 -22 -5 -25 -84 -2 -46 -7 -87 -10 -90
-3 -3 -55 -19 -115 -36 -60 -16 -122 -34 -139 -39 -85 -26 -100 -24 -143 20
-44 43 -53 71 -49 149 2 43 1 45 -25 45 -34 -1 -35 7 -5 37 25 24 70 97 99
161 10 21 44 77 75 124 32 48 69 103 83 124 23 34 101 143 139 195 9 12 51 63
94 115 80 95 110 145 142 234 30 87 37 105 42 105 2 0 16 -15 32 -32z"/>
</g>
</svg>
