<?xml version="1.0" standalone="no"?>
<!DOCTYPE svg PUBLIC "-//W3C//DTD SVG 20010904//EN"
"http://www.w3.org/TR/2001/REC-SVG-20010904/DTD/svg10.dtd">
<svg version="1.0" xmlns="http://www.w3.org/2000/svg"
width="53.965844pt" height="36.000000pt" viewBox="0 0 53.965844 36.000000"
preserveAspectRatio="xMidYMid meet">
<g transform="translate(0.000000,36.000000) scale(0.006831,-0.006831)"
fill="#4d4d4d" stroke="none">
<path d="M1969 4721 l-24 -19 20 -22 c22 -25 122 -102 151 -118 11 -5 51 -18
89 -27 67 -17 181 -56 217 -76 10 -5 23 -9 29 -9 6 0 17 -6 25 -14 7 -8 42
-24 77 -35 35 -12 72 -27 81 -34 20 -14 146 -430 146 -481 0 -20 -6 -36 -14
-39 -8 -3 -20 -18 -28 -33 -8 -17 -27 -32 -50 -40 -62 -21 -121 -68 -184 -146
-32 -40 -65 -77 -71 -81 -7 -4 -13 -12 -13 -18 0 -22 -54 -90 -67 -85 -24 9
-83 -21 -83 -42 0 -10 -8 -26 -18 -35 -17 -16 -23 -15 -93 8 -195 67 -456 90
-676 61 -642 -85 -1169 -570 -1304 -1201 -21 -97 -24 -137 -24 -330 0 -178 4
-236 19 -305 124 -565 510 -996 1050 -1171 65 -22 130 -39 143 -39 13 0 37 -7
53 -15 66 -34 484 -36 560 -3 19 9 73 26 120 38 207 54 399 157 588 314 106
89 149 135 244 262 40 55 79 107 88 117 8 10 15 22 15 26 0 21 80 171 90 168
5 -2 15 -13 21 -25 6 -12 14 -19 17 -15 4 3 7 2 7 -4 0 -16 58 -70 111 -104
69 -44 184 -81 259 -82 l64 -2 21 -70 c39 -129 40 -120 -8 -120 -36 0 -43 -4
-55 -28 -26 -53 -26 -93 -2 -117 17 -17 28 -20 48 -14 15 4 63 8 107 9 131 4
212 23 258 63 23 21 22 30 -9 44 -23 11 -28 9 -44 -12 -16 -21 -22 -22 -51
-14 -33 9 -33 11 -71 149 -43 164 -43 161 -20 169 26 8 55 29 70 49 7 9 18 17
23 17 8 0 28 19 83 80 20 22 72 123 81 156 15 54 16 69 18 154 2 95 -9 142
-58 241 l-32 66 46 50 c25 27 165 181 311 343 146 162 327 362 404 444 76 83
186 203 245 266 203 220 256 276 360 378 57 56 109 101 114 99 13 -4 60 -165
53 -182 -2 -7 -28 -26 -58 -42 -181 -103 -390 -305 -513 -498 -73 -114 -173
-331 -186 -405 -4 -25 -15 -76 -23 -115 -68 -318 -22 -693 121 -980 157 -313
414 -574 705 -714 183 -88 311 -129 513 -162 76 -13 374 -6 435 10 242 63 312
87 453 157 274 138 533 392 670 659 132 257 184 487 174 775 -9 246 -57 434
-168 650 -185 359 -506 636 -879 758 -201 66 -263 75 -510 76 -178 1 -237 -2
-282 -15 -65 -18 -78 -12 -78 37 0 22 -7 36 -23 47 -21 14 -29 14 -80 -1 -31
-8 -57 -21 -57 -27 0 -7 7 -34 15 -61 15 -50 9 -71 -18 -61 -8 3 -17 18 -21
34 -18 75 -40 139 -53 149 -19 16 -177 561 -175 603 1 19 -3 38 -10 42 -14 9
-21 46 -10 53 4 2 76 16 159 31 121 21 156 24 174 15 15 -9 64 -10 168 -6
l146 7 37 -31 c20 -17 42 -46 48 -65 10 -29 8 -41 -14 -87 -39 -81 -157 -192
-217 -203 -12 -2 -26 -8 -33 -13 -6 -5 -36 -15 -66 -22 -30 -7 -68 -18 -83
-24 -27 -10 -28 -13 -21 -56 4 -25 7 -52 7 -60 0 -38 48 -51 113 -31 16 5 55
16 86 26 107 31 226 119 291 214 43 63 98 193 105 247 4 39 8 43 62 69 36 17
60 36 64 48 5 20 6 20 26 2 37 -33 23 -85 -44 -162 -13 -16 -19 -39 -20 -80
-1 -62 1 -64 59 -52 15 3 25 -8 46 -52 41 -84 83 -91 54 -9 -22 62 -19 95 4
45 38 -84 80 -86 52 -2 -25 72 -22 477 3 525 24 46 21 55 -31 106 -72 69 -114
64 -167 -21 -32 -53 -65 -63 -202 -63 -56 0 -114 -4 -130 -10 -16 -5 -100 -14
-187 -19 -128 -8 -165 -14 -192 -30 -35 -21 -275 -71 -337 -71 -21 0 -38 6
-41 14 -3 7 -24 16 -48 19 -35 5 -47 1 -75 -21 -18 -15 -36 -39 -39 -53 -4
-17 9 -79 36 -168 22 -78 40 -144 38 -146 -4 -3 -291 -23 -431 -30 -34 -2 -88
-6 -118 -9 -30 -4 -215 -18 -410 -32 -436 -30 -693 -49 -960 -69 -418 -31
-414 -31 -431 -4 -8 13 -43 121 -78 239 -63 217 -82 259 -140 316 l-32 31 53
7 c29 4 72 18 95 32 23 13 53 24 67 24 14 0 27 4 30 9 3 4 45 11 93 15 108 8
203 25 221 39 24 19 -26 47 -85 47 -28 0 -55 5 -58 10 -8 13 -132 13 -137 1
-5 -15 -504 6 -705 29 -216 25 -245 25 -274 1z m3383 -830 c9 -8 58 -173 58
-195 0 -10 -57 -78 -128 -150 -131 -135 -487 -515 -582 -621 -29 -33 -105
-114 -169 -180 -88 -92 -121 -120 -140 -120 -23 0 -26 -4 -26 -33 0 -27 -13
-45 -79 -112 -64 -64 -84 -78 -102 -74 -26 7 -40 -11 -24 -31 10 -12 -18 -46
-156 -190 -92 -97 -170 -174 -173 -173 -4 2 -29 14 -56 27 -28 13 -59 28 -70
32 -27 12 -138 28 -148 22 -5 -3 -21 0 -36 6 -24 11 -31 26 -65 139 -21 70
-41 141 -45 157 -4 17 -16 34 -29 40 -17 7 -29 31 -47 91 -29 96 -30 100 -10
108 20 7 8 36 -15 36 -15 0 -24 19 -45 88 -15 48 -58 189 -96 313 -38 125 -69
236 -69 247 0 12 -4 23 -9 26 -5 3 -12 22 -16 42 -3 20 -10 44 -15 53 -17 33
-81 273 -78 294 4 29 51 38 161 30 58 -4 91 -2 95 4 4 6 79 16 167 22 88 7
309 23 490 36 387 29 722 52 750 54 11 0 92 7 180 14 154 13 512 12 527 -2z
m-2524 -171 c6 -19 20 -60 31 -90 23 -64 50 -152 202 -660 61 -206 132 -440
156 -520 94 -306 97 -328 58 -354 -44 -29 -50 -22 -65 67 -31 200 -152 483
-277 652 -88 118 -236 264 -351 345 -51 35 -92 68 -92 72 0 4 24 47 53 95 29
48 100 168 156 266 57 98 107 175 111 170 5 -4 13 -24 18 -43z m-138 15 c0 -5
-208 -345 -222 -363 -8 -9 -16 -7 -35 12 l-24 25 28 43 c15 24 34 47 41 51 7
5 10 12 7 18 -4 5 -2 9 3 9 5 0 14 17 20 38 6 20 26 55 44 76 40 48 138 113
138 91z m3700 -610 c159 -20 320 -69 429 -132 240 -139 438 -349 533 -568 36
-83 72 -188 82 -240 4 -16 9 -41 12 -55 13 -64 20 -230 13 -318 -12 -152 -64
-343 -116 -421 -9 -14 -18 -32 -19 -39 -8 -45 -147 -233 -236 -317 -163 -154
-407 -281 -608 -315 -165 -28 -201 -31 -295 -25 -296 18 -577 131 -754 302
-30 29 -58 53 -61 53 -3 0 -27 24 -51 53 -218 252 -319 537 -306 861 10 240
72 435 204 633 89 133 266 303 376 360 l28 14 40 -88 c122 -263 341 -686 416
-800 10 -14 18 -31 20 -37 1 -6 7 -29 13 -51 6 -22 16 -60 21 -85 7 -33 19
-54 47 -77 54 -47 85 -44 138 12 38 39 43 49 38 77 -9 49 -27 71 -88 112 -34
23 -56 44 -56 55 0 11 -6 21 -13 24 -18 7 -132 230 -205 402 -52 123 -192 512
-192 535 0 11 83 37 145 46 28 3 58 11 68 16 52 27 222 33 377 13z m-4525 -11
c115 -16 300 -73 347 -106 l28 -19 -27 -42 c-15 -23 -43 -71 -63 -107 -21 -36
-82 -139 -137 -230 -54 -91 -139 -234 -188 -317 -84 -144 -91 -153 -120 -153
-31 0 -84 -17 -122 -38 -16 -9 -23 -22 -23 -41 0 -16 -13 -44 -30 -66 -25 -32
-30 -47 -30 -92 0 -49 -9 -77 -42 -133 -4 -8 -15 -28 -23 -45 -31 -63 -59 -80
-126 -76 -32 2 -37 -1 -43 -25 -5 -18 -3 -30 6 -35 7 -5 71 -9 141 -9 126 0
129 -1 171 -29 42 -29 76 -70 76 -91 0 -5 -25 -34 -55 -64 -71 -71 -77 -95
-34 -143 38 -44 77 -63 129 -63 59 0 70 20 81 156 15 182 15 290 1 307 -22 27
17 97 73 133 17 10 33 24 38 30 11 18 112 -8 188 -48 58 -31 69 -33 148 -31
49 1 109 -4 145 -13 34 -9 87 -20 119 -25 32 -5 101 -20 155 -33 53 -13 117
-27 142 -31 93 -14 91 -9 55 -117 -64 -191 -174 -364 -318 -502 -34 -32 -73
-66 -87 -75 -14 -9 -45 -31 -69 -49 -58 -44 -218 -123 -301 -150 -130 -42
-228 -56 -375 -55 -316 2 -543 84 -791 285 -472 381 -576 1109 -232 1617 162
239 426 428 688 495 52 13 113 28 135 33 63 16 249 15 370 -3z m552 -231 c20
-18 39 -33 42 -33 8 0 113 -101 152 -145 42 -49 135 -187 162 -240 42 -84 94
-235 112 -325 18 -84 27 -319 14 -350 -7 -16 -86 -5 -624 85 -55 9 -122 19
-150 21 -85 8 -168 24 -206 40 -33 14 -36 19 -30 43 5 17 17 29 37 35 49 14
59 22 62 49 4 30 -28 52 -62 42 -11 -4 -37 -10 -57 -14 -33 -7 -35 -6 -37 22
-2 19 7 40 23 60 41 49 71 97 106 162 17 33 73 130 124 215 51 85 125 210 164
278 l72 123 30 -18 c17 -10 46 -33 66 -50z m1309 -924 c13 -12 24 -28 24 -35
0 -21 -20 -27 -38 -12 -9 8 -43 23 -75 33 -55 18 -56 20 -35 32 32 19 95 9
124 -18z m-441 -111 c-21 -24 -42 -47 -46 -52 -5 -6 -9 7 -9 30 0 44 20 62 69
63 22 1 22 -1 -14 -41z m379 22 l29 -11 -44 -45 -44 -45 -17 48 c-25 71 -23
77 15 70 17 -3 45 -10 61 -17z m-255 -103 c7 -34 15 -72 18 -84 l5 -21 -74 16
c-89 19 -101 26 -87 56 20 39 103 115 115 105 6 -5 17 -37 23 -72z m517 1 c23
-45 13 -62 -25 -40 -36 20 -43 40 -23 64 18 21 27 16 48 -24z m-86 -87 c21
-41 7 -219 -20 -236 -16 -10 -60 15 -110 61 l-50 46 58 67 c31 36 62 69 67 73
18 14 44 8 55 -11z m127 -103 c4 -37 1 -49 -19 -73 -31 -36 -51 -27 -36 16 6
17 8 58 5 91 l-5 61 25 -25 c17 -17 27 -41 30 -70z m-594 -34 c46 -5 61 -12
74 -30 14 -22 13 -30 -6 -92 -11 -38 -30 -77 -41 -87 -20 -18 -21 -17 -73 36
-33 32 -61 73 -72 101 l-18 48 24 19 c13 11 31 18 39 16 8 -2 41 -7 73 -11z
m-162 -124 c12 -27 36 -62 55 -76 36 -29 36 -44 -1 -44 -35 0 -83 45 -91 86
-6 32 1 84 11 84 2 0 14 -22 26 -50z m719 -10 c0 -32 -112 -166 -130 -155 -15
10 -12 55 5 61 8 4 12 10 10 15 -3 5 3 16 15 26 11 10 20 22 20 28 0 6 12 16
28 22 36 14 52 15 52 3z m-492 -168 c35 -17 71 -66 60 -78 -11 -10 -143 33
-169 56 -21 17 -22 21 -9 30 23 15 81 11 118 -8z"/>
</g>
</svg>
