<?xml version="1.0" standalone="no"?>
<!DOCTYPE svg PUBLIC "-//W3C//DTD SVG 20010904//EN"
"http://www.w3.org/TR/2001/REC-SVG-20010904/DTD/svg10.dtd">
<svg version="1.0" xmlns="http://www.w3.org/2000/svg"
width="51.414226pt" height="36.000000pt" viewBox="0 0 51.414226 36.000000"
preserveAspectRatio="xMidYMid meet">
<g transform="translate(0.000000,36.000000) scale(0.005021,-0.005021)"
fill="#4d4d4d" stroke="none">
<path d="M4448 6833 c-10 -3 -18 -11 -18 -18 0 -8 -6 -18 -14 -22 -16 -9 -192
-171 -322 -296 -50 -48 -102 -95 -115 -105 -13 -9 -60 -46 -104 -82 -87 -72
-250 -196 -330 -250 -27 -19 -54 -38 -60 -43 -13 -12 -149 -97 -321 -200 -142
-87 -176 -113 -158 -125 18 -12 117 -156 117 -169 0 -7 3 -13 7 -13 4 0 23
-24 43 -52 20 -29 55 -79 77 -111 22 -32 40 -62 40 -67 0 -5 15 -25 34 -45 19
-20 41 -51 51 -70 9 -19 20 -35 26 -35 6 0 8 -4 5 -9 -3 -5 8 -23 26 -40 17
-17 28 -31 24 -31 -8 0 29 -58 48 -75 6 -5 39 -50 72 -100 33 -49 116 -172
185 -273 68 -101 131 -194 139 -207 8 -13 49 -72 90 -132 41 -59 119 -174 175
-255 55 -81 163 -236 240 -345 77 -109 143 -204 147 -213 4 -8 8 235 9 540 2
305 4 580 5 610 13 349 -5 787 -51 1275 -23 248 -37 512 -33 650 3 111 11 18
55 -615 29 -410 55 -785 58 -835 2 -49 9 -128 14 -175 21 -181 24 -309 10
-326 -12 -14 -13 -128 -10 -681 2 -375 0 -663 -5 -663 -5 0 -21 17 -35 38
-128 185 -1165 1631 -1178 1642 -9 8 -20 22 -23 30 -11 25 -124 184 -134 187
-11 4 -28 -26 -126 -222 -44 -88 -120 -232 -167 -320 -48 -88 -102 -189 -120
-225 -19 -36 -48 -90 -66 -120 -18 -30 -64 -116 -102 -190 -90 -172 -409 -744
-494 -885 -10 -16 -44 -77 -75 -135 -76 -139 -311 -540 -406 -690 -52 -82
-120 -197 -178 -297 -24 -43 -52 -87 -62 -97 -10 -11 -18 -23 -18 -27 0 -10
-123 -203 -288 -453 -78 -117 -128 -204 -132 -227 l-7 -36 65 5 c44 3 63 2 59
-5 -5 -7 10 -10 43 -8 28 2 50 0 50 -4 0 -5 10 -6 22 -4 13 2 95 -5 183 -16
88 -11 231 -25 318 -32 87 -7 153 -15 148 -18 -5 -3 23 -7 62 -8 40 -1 101 -6
137 -11 73 -11 235 -30 325 -37 33 -3 94 -9 135 -15 128 -16 169 -20 460 -45
30 -3 73 -7 95 -10 22 -3 141 -14 265 -25 124 -11 257 -25 295 -30 75 -11 945
-53 952 -46 2 2 5 514 6 1137 1 624 3 1121 4 1104 5 -41 41 -2269 37 -2273 -4
-6 -724 27 -979 43 -183 12 -1027 100 -1539 160 -71 9 -173 19 -225 24 -53 5
-283 30 -511 55 -460 51 -515 54 -524 31 -3 -9 0 -17 7 -19 15 -5 256 -32 407
-47 63 -6 122 -13 130 -16 8 -3 22 -5 31 -4 12 1 127 -11 319 -33 192 -23
1552 -171 1660 -181 39 -4 341 -20 525 -29 33 -2 164 -8 290 -15 127 -6 271
-13 320 -14 l90 -2 3 -71 3 -72 -593 -7 c-790 -9 -1495 -2 -1783 18 -129 9
-234 12 -239 7 -16 -15 1 -37 36 -45 18 -4 35 -9 38 -9 120 -38 631 -111 1044
-150 32 -3 64 -10 71 -16 16 -13 330 -46 577 -60 145 -9 292 -9 560 -1 200 6
518 13 708 17 329 6 358 8 620 45 151 21 322 47 380 58 300 58 280 53 416 116
40 19 74 38 75 43 2 5 23 21 47 36 23 15 40 31 37 36 -7 11 41 17 255 30 96 6
227 15 290 20 63 5 154 12 203 15 57 5 87 11 87 19 0 9 -42 11 -162 9 -90 -1
-174 -5 -187 -8 -13 -3 -212 -19 -442 -34 -229 -16 -422 -32 -429 -36 -8 -5
-8 -10 1 -21 10 -12 -1 -14 -67 -16 -109 -3 -141 -4 -242 -12 -48 -3 -150 -8
-227 -11 -77 -3 -230 -10 -340 -15 -110 -5 -248 -10 -306 -10 l-106 0 -7 78
c-13 169 -18 292 -13 292 4 0 71 -15 150 -34 79 -19 303 -64 498 -100 432 -81
398 -75 402 -62 5 16 -23 86 -101 246 -39 80 -88 186 -110 235 -41 93 -81 180
-137 300 -18 39 -50 113 -70 165 -21 52 -52 127 -70 166 -18 39 -36 81 -40 95
-4 13 -18 49 -31 79 -13 30 -44 109 -69 175 -25 66 -52 134 -60 150 -30 66
-163 415 -251 660 -29 83 -58 158 -64 167 -5 10 -10 22 -10 27 0 5 -5 22 -11
38 -6 15 -10 28 -9 28 2 0 -48 135 -59 160 -21 46 -71 188 -71 201 0 11 -9 14
-32 12 l-33 -3 -3 -85 c-7 -212 -30 -1173 -36 -1535 -4 -220 -9 -416 -11 -435
-3 -19 -5 -125 -6 -235 -2 -333 -15 -328 -22 10 -27 1257 -30 1394 -43 2463
-6 445 -5 557 6 577 12 23 8 152 -16 435 -8 100 -84 1154 -88 1225 -7 128 -36
509 -42 553 -6 50 -49 102 -76 95z m403 -5773 c4 -19 9 -113 11 -207 l4 -173
-53 0 -53 0 0 173 c0 137 3 177 15 193 8 10 15 27 15 37 0 14 7 18 27 15 22
-2 28 -9 34 -38z"/>
<path d="M4790 5673 c0 -10 7 -45 15 -78 39 -159 69 -306 90 -435 2 -14 11
-50 20 -80 9 -30 18 -64 20 -75 2 -11 11 -47 19 -80 8 -33 17 -82 21 -110 3
-27 10 -66 15 -85 5 -19 14 -69 20 -110 6 -41 16 -102 21 -135 6 -33 12 -145
14 -249 2 -141 7 -192 17 -202 14 -14 101 -62 304 -170 67 -35 148 -81 181
-101 178 -114 223 -144 306 -205 49 -37 93 -65 98 -62 12 7 -7 51 -79 181 -81
148 -118 217 -197 368 -38 72 -87 164 -110 205 -23 41 -66 122 -95 180 -30 58
-88 168 -130 245 -42 77 -95 176 -117 220 -23 44 -56 109 -75 145 -19 36 -72
137 -118 225 -120 233 -220 414 -230 420 -6 4 -10 -2 -10 -12z"/>
<path d="M4795 4283 c4 -10 22 -67 42 -128 19 -60 40 -121 48 -135 37 -69 159
-410 147 -410 -3 0 -1 -5 6 -12 7 -7 12 -20 12 -29 0 -9 6 -29 14 -44 8 -15
12 -34 9 -41 -3 -8 0 -14 6 -14 6 0 11 -8 11 -18 0 -10 9 -37 20 -60 11 -22
20 -47 20 -54 0 -7 7 -26 15 -41 8 -16 53 -146 100 -290 47 -144 90 -271 95
-282 5 -11 54 -157 109 -325 55 -168 132 -399 171 -515 39 -115 72 -217 74
-225 2 -8 6 -22 9 -30 19 -47 35 -105 31 -112 -3 -4 0 -8 5 -8 6 0 11 -8 11
-17 1 -47 38 -66 215 -110 11 -2 29 -9 40 -14 11 -5 88 -31 170 -58 198 -66
674 -230 800 -276 246 -90 374 -130 385 -119 13 13 -74 133 -307 423 -16 19
-82 105 -148 192 -66 86 -226 295 -355 462 -129 168 -307 401 -395 517 -88
117 -187 248 -220 290 -33 43 -109 144 -170 225 -220 292 -272 362 -366 485
-143 188 -285 383 -292 403 -3 9 -11 17 -17 17 -5 0 -10 6 -10 14 0 8 -7 17
-16 20 -8 3 -13 10 -9 15 3 5 1 13 -5 16 -6 4 -50 59 -97 123 -85 115 -143
182 -158 182 -4 0 -4 -8 0 -17z"/>
</g>
</svg>
