<?xml version="1.0" encoding="UTF-8" standalone="no"?>
<!-- Created with Inkscape (http://www.inkscape.org/) -->

<svg
xmlns:dc="http://purl.org/dc/elements/1.1/"
xmlns:cc="http://creativecommons.org/ns#"
xmlns:rdf="http://www.w3.org/1999/02/22-rdf-syntax-ns#"
xmlns:svg="http://www.w3.org/2000/svg"
xmlns="http://www.w3.org/2000/svg"
id="svg13195"
viewBox="0 0 43.527836 100.00124"
version="1.1"
width="16"
height="36">
<defs
id="defs13197">
<linearGradient
id="linearGradient12536"
y2="706.16998"
gradientUnits="userSpaceOnUse"
x2="1480.7"
y1="706.16998"
x1="1387">
<stop
id="stop9459"
style="stop-color:#d0d0d0"
offset="0" />
<stop
id="stop9461"
style="stop-color:#f2f2f2"
offset="1" />
</linearGradient>
<linearGradient
id="linearGradient12538"
y2="711.47998"
gradientUnits="userSpaceOnUse"
x2="798.29999"
gradientTransform="translate(610.33,-19.625)"
y1="712.35999"
x1="849.13">
<stop
id="stop9335"
style="stop-color:#a00"
offset="0" />
<stop
id="stop9337"
style="stop-color:#f55"
offset="1" />
</linearGradient>
<radialGradient
id="radialGradient12540"
gradientUnits="userSpaceOnUse"
cy="806.77002"
cx="1179.9"
r="39.870998">
<stop
id="stop9329"
style="stop-color:#ff2a2a"
offset="0" />
<stop
id="stop9331"
style="stop-color:#a00"
offset="1" />
</radialGradient>
<linearGradient
id="linearGradient12542"
y2="693.08002"
gradientUnits="userSpaceOnUse"
x2="1186.5"
gradientTransform="translate(244,-2)"
y1="693.08002"
x1="1170.7">
<stop
id="stop9384"
style="stop-color:white"
offset="0" />
<stop
id="stop9386"
style="stop-color:white;stop-opacity:0"
offset="1" />
</linearGradient>
<radialGradient
id="radialGradient12544"
gradientUnits="userSpaceOnUse"
cy="1008.4"
cx="1070.1"
gradientTransform="matrix(1,0,0,0.2,0,806.69)"
r="58.865002">
<stop
id="stop9469"
style="stop-color:black"
offset="0" />
<stop
id="stop9471"
style="stop-color:black;stop-opacity:0"
offset="1" />
</radialGradient>
</defs>
<g
id="layer1"
transform="translate(-173.64273,-349.74505)">
<g
id="hot"
transform="translate(-408.75,-404.31)">
<g
id="g9507"
transform="matrix(0.3697245,0,0,0.27387,73.854174,606.65)">
<g
id="g9491">
<path
id="path9349"
style="color:#000000;opacity:0.98470998;fill:url(#linearGradient12536)"
d="m 1430.5,538.23 c -11.987,0 -21.625,9.669 -21.625,21.656 v 227.5 c 0,0.052 -4e-4,0.10435 0,0.15625 -13.168,8.3005 -21.906,22.972 -21.906,39.688 0,25.892 20.983,46.875 46.875,46.875 25.892,0 46.875,-20.983 46.875,-46.875 0,-17.082 -9.1296,-32.024 -22.781,-40.219 v -227.12 c 0,-11.987 -9.6376,-21.656 -21.625,-21.656 h -5.8124 z"/>
<g
id="g9345"
transform="translate(0,10)">
<path
id="rect9247"
style="color:#000000;opacity:0.98470998;fill:url(#linearGradient12538)"
d="M 1409.5,575.82766 V 778.63 c 0,11.987 9.6689,21.656 21.656,21.656 h 5.7813 c 11.987,0 21.656,-9.669 21.656,-21.656 V 576.07766 c -6.8688,1.3372 -15.103,2.125 -23.969,2.125 -9.3753,0 -18.031,-0.89378 -25.125,-2.375 z"/>
<circle
id="path9249"
style="color:#000000;opacity:0.98470998;fill:url(#radialGradient12540)"
transform="matrix(1.1758,0,0,1.1758,35.756,-143.29)"
cx="1189.5702"
cy="817.95331"
r="39.871414" />
</g>
<path
id="path9353"
d="m 1430.2,538.47 c -12.525,0 -22.625,10.133 -22.625,22.656 v 227.16 c -13.174,8.5307 -21.906,23.332 -21.906,40.188 0,26.432 21.443,47.875 47.875,47.875 26.432,0 47.875,-21.443 47.875,-47.875 0,-17.221 -9.1262,-32.284 -22.781,-40.719 v -226.62 c 0,-12.523 -10.1,-22.656 -22.625,-22.656 h -5.8124 z m 0,2 h 5.8124 c 11.45,0 20.625,9.2049 20.625,20.656 v 227.12 0.5625 l 0.5,0.28125 c 13.36,8.0202 22.281,22.65 22.281,39.375 0,25.352 -20.523,45.875 -45.875,45.875 -25.352,0 -45.875,-20.523 -45.875,-45.875 0,-16.367 8.5504,-30.72 21.438,-38.844 l 0.4688,-0.28125 v -0.5625 c -4e-4,-0.0416 0,-0.0991 0,-0.15625 v -227.5 c 0,-11.451 9.1753,-20.656 20.625,-20.656 z"
style="color:#000000;text-indent:0;text-transform:none;opacity:0.98470998;fill:#333333"/>
<rect
id="rect9394"
style="color:#000000;opacity:0.98470998;fill:url(#linearGradient12542)"
ry="8.0551996"
height="194.57001"
width="16.110001"
y="585.64001"
x="1412.6" />
</g>
<ellipse
id="path9503"
style="color:#000000;opacity:0.5;fill:url(#radialGradient12544)"
transform="translate(364.21,-116.77)"
cx="1070.1079"
cy="1008.3682"
rx="58.865231"
ry="11.773046" />
</g>
</g>
</g>
</svg>
