<?xml version="1.0" standalone="no"?>
<!DOCTYPE svg PUBLIC "-//W3C//DTD SVG 20010904//EN"
"http://www.w3.org/TR/2001/REC-SVG-20010904/DTD/svg10.dtd">
<svg version="1.0" xmlns="http://www.w3.org/2000/svg"
width="52.115326pt" height="36.000000pt" viewBox="0 0 52.115326 36.000000"
preserveAspectRatio="xMidYMid meet">
<g transform="translate(0.000000,36.000000) scale(0.005463,-0.005463)"
fill="#f2f2f2" stroke="none">
<path d="M3537 6553 c-4 -3 -7 -25 -7 -48 0 -30 10 -58 39 -106 21 -35 53
-109 70 -164 109 -340 112 -347 193 -420 58 -52 111 -79 140 -72 14 4 25 -5
42 -32 38 -59 67 -64 381 -57 43 1 63 -6 150 -56 100 -57 166 -82 430 -157
251 -72 306 -83 387 -75 l74 6 27 -35 c15 -20 51 -47 81 -62 29 -14 64 -38 78
-53 37 -42 78 -99 78 -112 0 -5 16 -60 36 -121 32 -99 35 -119 29 -178 -7 -71
3 -112 35 -146 15 -16 20 -39 22 -100 3 -78 3 -80 33 -90 17 -5 36 -17 43 -25
18 -22 8 -111 -24 -195 -77 -206 -77 -209 -82 -475 -4 -250 5 -388 34 -529 9
-42 13 -91 10 -115 -5 -29 -1 -59 13 -98 l20 -58 -53 -55 c-30 -30 -58 -55
-64 -55 -6 0 -41 44 -78 98 -38 53 -119 160 -182 237 -100 125 -124 147 -212
207 -132 89 -224 120 -376 126 -127 5 -217 -13 -270 -53 -42 -32 -112 -137
-120 -181 -4 -24 0 -54 14 -95 56 -163 461 -829 888 -1459 73 -107 210 -310
305 -450 95 -140 202 -291 238 -335 126 -153 581 -663 605 -677 10 -6 149 -38
408 -93 59 -13 111 -26 116 -28 17 -11 404 -88 425 -85 19 3 5 21 -98 128
-105 110 -235 269 -330 404 -16 24 -89 121 -160 217 -342 455 -518 723 -749
1137 -90 162 -107 202 -88 202 9 0 28 -30 70 -110 19 -36 43 -80 54 -97 18
-31 21 -32 41 -18 12 8 30 15 39 15 22 0 248 -225 248 -246 0 -9 7 -22 15 -30
8 -9 15 -27 15 -41 0 -22 -2 -24 -16 -12 -14 11 -19 10 -34 -9 -10 -12 -30
-26 -45 -32 -17 -7 -25 -15 -21 -25 11 -31 161 -250 205 -301 25 -30 59 -69
74 -89 16 -19 35 -35 43 -35 8 0 14 -7 14 -15 0 -8 6 -15 14 -15 8 0 26 -19
39 -42 31 -51 90 -118 104 -118 6 0 24 -7 39 -15 35 -18 71 -19 77 -2 3 7 16
-1 34 -22 28 -33 58 -37 46 -6 -4 11 -1 13 11 9 25 -9 30 21 9 56 -17 30 -17
32 0 41 9 6 17 21 17 34 0 15 7 26 19 30 12 3 25 23 33 48 12 37 17 42 50 48
64 10 69 20 46 92 -11 34 -24 83 -28 108 -5 25 -22 66 -39 90 -30 42 -31 49
-36 169 -14 331 -17 363 -44 400 -20 27 -21 34 -46 215 -21 158 -37 210 -84
265 -37 44 -39 50 -51 155 -6 59 -18 122 -27 139 -23 46 -54 76 -78 76 -29 0
-45 19 -45 55 0 16 -7 43 -15 59 -28 53 -14 84 35 80 47 -3 372 61 595 118 44
11 123 29 175 40 52 11 127 32 165 47 39 16 105 36 148 45 43 10 119 37 170
60 51 23 118 53 150 66 81 32 189 139 245 241 63 117 83 188 89 317 5 99 3
123 -17 190 -12 42 -35 104 -51 137 -31 65 -67 147 -93 209 -9 21 -16 50 -16
64 0 14 -20 59 -44 101 -42 73 -109 209 -119 242 -7 21 -143 116 -221 154 -32
16 -60 35 -63 41 -2 7 -22 15 -43 19 -53 9 -93 41 -86 69 4 16 -2 26 -25 41
-16 11 -33 33 -37 49 -7 25 -16 32 -55 42 -26 6 -65 21 -87 33 -26 13 -50 19
-68 15 -24 -5 -43 6 -133 79 -117 95 -277 185 -403 227 -75 25 -82 30 -105 71
-60 110 -91 146 -174 203 -62 42 -103 63 -157 77 -89 23 -101 24 -94 4 4 -9 3
-45 -1 -81 l-7 -66 -35 7 c-47 8 -83 26 -83 39 1 6 7 22 15 36 8 14 14 37 15
52 0 15 4 29 9 32 16 10 21 85 8 124 -27 79 -127 191 -206 232 -73 37 -197 63
-275 57 -232 -17 -329 -57 -490 -205 -55 -51 -110 -110 -121 -131 -31 -57 -47
-77 -82 -94 -31 -17 -32 -16 -72 17 -54 46 -84 51 -181 30 -65 -14 -87 -15
-113 -6 -45 16 -91 16 -258 -1 -145 -15 -174 -22 -197 -50 -8 -9 -40 -14 -107
-16 -82 -2 -104 -6 -158 -32 -34 -16 -69 -29 -79 -29 -22 0 -65 53 -73 91 -10
46 -35 82 -100 149 -47 49 -63 60 -101 66 -49 7 -72 30 -114 114 -21 42 -71
93 -129 132 -29 20 -35 21 -44 11z m2418 -918 c28 -19 66 -45 87 -59 43 -30
48 -37 59 -84 7 -33 5 -38 -48 -90 -70 -67 -159 -112 -226 -112 -38 0 -58 7
-100 35 -66 45 -102 46 -110 5 -6 -26 -11 -30 -41 -30 -30 0 -44 9 -91 58 -31
31 -75 89 -97 127 -23 39 -47 75 -53 80 -18 15 -25 41 -13 53 6 6 23 6 46 1
76 -18 222 -9 352 21 164 37 175 37 235 -5z m-149 -2877 c71 -125 74 -132 74
-150 0 -10 -5 -18 -12 -18 -19 0 -48 32 -48 53 0 10 -18 57 -40 104 -44 95
-44 93 -31 93 6 0 31 -37 57 -82z"/>
<path d="M0 950 l0 -950 2106 0 2106 0 -30 30 c-18 17 -41 30 -56 30 -13 0
-31 7 -40 15 -8 8 -18 15 -23 15 -4 0 -14 9 -21 20 -8 13 -23 20 -42 20 -25 0
-30 4 -30 24 0 18 -7 25 -30 30 -17 3 -30 12 -30 19 0 7 -18 25 -40 39 l-39
26 -36 -32 c-23 -21 -35 -41 -35 -58 0 -31 -62 -88 -97 -88 -12 0 -28 -6 -35
-14 -8 -7 -28 -21 -46 -30 -29 -15 -35 -15 -69 0 -21 9 -56 17 -77 19 -42 3
-66 24 -66 59 0 40 -28 100 -56 123 -20 16 -42 23 -71 23 -24 0 -43 5 -43 10
0 6 6 10 13 10 12 0 -26 23 -99 58 -23 11 -45 25 -48 31 -4 6 -16 11 -27 11
-10 0 -19 7 -19 15 0 26 -60 57 -102 52 -24 -3 -46 1 -67 14 -17 10 -41 18
-54 17 -51 -4 -178 78 -197 126 -4 12 -24 27 -44 34 -20 7 -74 42 -120 76 -80
61 -85 63 -159 70 -67 6 -242 57 -257 75 -3 3 -16 7 -30 9 -22 2 -96 48 -299
184 -31 21 -52 28 -71 25 -38 -8 -72 13 -95 57 -11 22 -29 44 -40 50 -11 6
-22 14 -25 17 -3 4 -28 18 -56 32 -28 14 -61 37 -75 51 -13 14 -30 26 -36 26
-7 0 -13 4 -13 10 0 5 -15 13 -32 18 -25 6 -33 14 -33 32 0 24 -6 29 -85 64
-14 6 -29 20 -34 31 -5 11 -35 33 -67 48 -33 16 -59 33 -59 38 0 5 -11 9 -24
9 -14 0 -28 5 -31 10 -5 8 -11 8 -19 1 -8 -7 -37 2 -94 30 -56 27 -93 39 -116
37 -20 -1 -43 5 -53 13 -10 9 -34 22 -53 29 -19 7 -53 21 -76 31 -22 11 -52
19 -65 19 -39 0 -170 48 -184 66 -6 10 -17 14 -23 10 -5 -3 -12 -2 -14 2 -3 8
-195 82 -211 82 -4 0 -7 -427 -7 -950z"/>
</g>
</svg>
