<?xml version="1.0" standalone="no"?>
<!DOCTYPE svg PUBLIC "-//W3C//DTD SVG 20010904//EN"
"http://www.w3.org/TR/2001/REC-SVG-20010904/DTD/svg10.dtd">
<svg version="1.0" xmlns="http://www.w3.org/2000/svg"
width="52.171875pt" height="36.000000pt" viewBox="0 0 52.171875 36.000000"
preserveAspectRatio="xMidYMid meet">
<g transform="translate(0.000000,36.000000) scale(0.007031,-0.007031)"
fill="#f2f2f2" stroke="none">
<path d="M2320 4201 c-33 -6 -34 -7 -10 -14 14 -4 35 -7 47 -7 12 0 40 -9 61
-20 21 -11 58 -24 82 -28 25 -5 61 -16 80 -24 19 -9 52 -19 73 -23 49 -8 157
-43 172 -55 6 -5 35 -15 64 -21 29 -6 65 -17 79 -25 15 -8 33 -14 40 -14 7 0
20 -4 30 -9 9 -5 35 -13 57 -19 44 -12 269 -87 300 -101 11 -5 55 -21 97 -36
95 -33 119 -55 62 -56 -62 -1 -94 -7 -111 -21 -12 -10 -17 -9 -28 5 -15 21
-29 22 -44 3 -12 -14 -57 -11 -79 7 -7 5 -15 7 -19 4 -3 -4 -14 -2 -25 4 -11
6 -32 12 -46 14 -100 11 -161 16 -262 20 -435 15 -506 18 -515 26 -6 4 -69 9
-140 10 -72 1 -170 6 -220 10 -49 4 -142 11 -205 14 -63 3 -173 10 -245 16
-213 15 -251 17 -455 28 -107 6 -229 13 -270 16 -155 10 -462 25 -658 31 -177
6 -202 5 -202 -8 0 -28 162 -50 510 -68 118 -6 301 -17 405 -25 105 -8 262
-19 350 -25 619 -39 793 -51 815 -55 14 -3 162 -14 330 -25 168 -11 355 -25
415 -31 61 -5 234 -14 386 -18 151 -5 284 -13 295 -18 10 -6 25 -8 32 -6 7 3
10 -1 6 -10 -6 -17 54 -30 73 -15 6 5 45 10 87 11 68 2 76 0 78 -18 2 -11 12
-21 22 -23 41 -8 46 -25 48 -179 l3 -148 -90 -12 c-49 -7 -121 -16 -159 -22
-62 -9 -72 -8 -95 10 -14 11 -53 24 -86 29 -78 13 -195 13 -195 0 0 -5 7 -10
15 -10 8 0 15 -4 15 -9 0 -5 12 -11 28 -13 21 -2 28 -9 30 -31 4 -29 -21 -67
-42 -67 -32 0 -393 -164 -423 -192 -16 -15 -30 -19 -52 -15 -26 6 -37 1 -70
-31 -21 -20 -57 -49 -79 -64 -31 -20 -45 -39 -59 -77 -31 -90 -33 -91 -179
-106 -71 -7 -180 -13 -242 -13 -73 0 -118 -4 -127 -12 -20 -17 -794 -95 -814
-83 -9 6 -21 37 -28 71 -16 78 -53 152 -95 187 -39 33 -52 15 -14 -20 32 -30
72 -115 81 -175 3 -25 9 -53 11 -62 4 -14 -1 -18 -19 -18 -21 0 -25 6 -30 41
-3 23 -16 62 -29 87 -26 51 -82 92 -100 74 -7 -7 -1 -15 21 -26 34 -18 58 -58
77 -129 11 -41 10 -49 -2 -54 -20 -7 -28 3 -42 54 -9 30 -22 47 -46 61 -46 27
-51 18 -16 -27 33 -41 47 -91 25 -91 -7 0 -21 22 -30 50 -9 27 -21 52 -26 55
-5 4 -9 15 -9 26 0 10 -9 28 -20 39 -17 17 -28 20 -71 14 -65 -9 -75 -26 -59
-106 6 -33 14 -67 17 -75 5 -13 2 -13 -15 -4 -11 6 -34 11 -50 11 -76 0 -87 7
-106 73 -9 34 -28 98 -41 142 -36 117 -74 265 -69 265 2 0 -2 13 -10 28 -8 15
-21 62 -30 104 -19 90 -25 108 -38 108 -5 0 -6 5 -3 10 7 12 -25 13 -41 2 -20
-13 -47 -115 -46 -177 0 -54 13 -133 29 -175 3 -8 7 -26 8 -40 8 -81 71 -377
82 -388 17 -17 18 -13 -17 -72 -33 -56 -34 -60 -20 -60 5 0 19 -9 31 -21 20
-20 20 -25 9 -103 -6 -44 -22 -142 -35 -216 -34 -198 -35 -202 -17 -233 15
-26 20 -27 62 -21 25 3 48 9 51 13 4 3 28 97 55 209 26 111 51 202 55 202 4 0
9 -11 13 -24 6 -23 71 -76 95 -76 9 0 11 -11 6 -40 -11 -67 -2 -80 60 -80 59
0 76 14 90 73 4 15 11 27 15 27 4 0 10 20 13 45 4 24 11 53 15 62 5 10 16 38
23 63 l14 45 160 -2 c851 -14 896 -15 891 -32 -2 -9 -20 -71 -40 -137 -48
-160 -44 -174 47 -174 36 0 70 5 79 13 8 6 43 78 78 159 l64 148 138 0 138 0
72 -125 c180 -311 171 -298 224 -327 37 -21 229 -95 229 -89 0 0 23 -6 50 -15
62 -19 219 -54 263 -59 40 -5 52 -12 52 -31 0 -10 -13 -14 -50 -14 -109 0
-201 -58 -231 -147 l-16 -48 -164 -13 c-90 -8 -166 -16 -168 -18 -3 -3 2 -12
11 -20 13 -13 41 -17 137 -18 102 -1 121 -3 124 -17 3 -9 1 -23 -4 -30 -5 -8
-20 -50 -33 -94 -34 -108 -38 -113 -115 -118 -35 -2 -66 -9 -70 -14 -3 -6 -12
-12 -19 -14 -9 -3 -8 -10 4 -28 19 -26 -1 -26 359 -2 88 6 243 15 345 21 212
12 294 17 475 30 208 15 245 14 245 -9 0 -36 20 -40 145 -31 66 5 185 11 265
15 80 4 231 13 335 20 105 8 285 19 400 25 116 6 266 15 335 20 69 6 143 10
166 10 25 0 60 10 90 26 47 25 114 80 114 95 0 12 -84 -3 -102 -18 -31 -27
-110 -43 -212 -43 l-101 0 -46 63 c-61 83 -109 161 -109 175 0 8 18 12 49 12
54 0 203 25 239 40 12 5 22 17 22 26 0 14 -8 16 -57 11 -32 -4 -112 -9 -179
-13 l-121 -7 -31 46 c-18 25 -56 67 -86 94 l-55 49 45 2 c25 1 50 4 56 8 5 4
8 28 6 56 l-5 49 23 -28 c22 -27 23 -27 37 -9 14 19 17 18 138 -14 127 -35
192 -67 257 -130 89 -86 151 -131 140 -101 -7 20 -235 264 -258 277 -24 13
-23 13 25 14 33 0 60 7 80 20 17 11 36 20 43 20 8 0 48 17 89 38 83 41 199
145 224 200 7 17 16 32 20 32 3 0 3 23 -1 50 -8 66 -46 104 -155 160 -76 39
-85 46 -100 86 -43 114 -182 281 -316 379 -112 82 -205 119 -339 135 -47 5
-90 11 -97 12 -17 2 -24 38 -8 44 8 3 33 38 56 77 23 40 55 91 72 115 16 24
27 46 24 48 -11 11 -47 -18 -143 -119 -55 -57 -105 -107 -111 -110 -7 -4 -40
18 -75 49 -69 60 -115 88 -167 99 -19 4 -53 19 -76 34 -39 25 -75 37 -201 70
-23 6 -51 11 -63 11 -11 0 -21 5 -21 11 0 5 -5 7 -11 3 -6 -3 -15 -1 -19 5
-11 19 -77 30 -172 31 -64 0 -88 3 -88 13 0 6 11 64 24 126 20 91 29 119 48
133 29 22 33 22 142 -2 50 -11 103 -20 119 -20 15 0 37 -5 47 -10 19 -10 60
-17 117 -19 28 -1 32 -5 35 -33 l3 -33 81 -3 81 -3 36 40 c37 41 84 71 111 71
8 0 16 4 18 9 3 9 258 19 358 14 82 -4 1170 4 1520 11 355 8 395 13 355 46
-13 11 -162 13 -793 14 -427 1 -898 -1 -1047 -4 -148 -3 -278 -2 -288 3 -9 4
-32 4 -50 -1 -35 -10 -288 2 -407 18 -57 8 -79 16 -91 32 -15 19 -25 21 -100
20 -46 -1 -91 -5 -101 -8 -9 -3 -40 2 -68 10 -35 11 -50 12 -50 3 0 -8 -3 -8
-11 0 -8 8 -6 18 6 36 19 29 18 30 -62 58 -72 26 -318 38 -401 20 -30 -6 -60
-7 -70 -2 -9 4 -53 25 -97 46 -44 21 -88 41 -97 46 -10 5 -23 9 -30 9 -7 1
-31 9 -53 20 -22 11 -46 19 -52 20 -7 0 -13 4 -13 9 0 5 -15 14 -32 21 -57 21
-132 52 -158 65 -14 7 -45 18 -70 25 -25 6 -68 22 -97 36 -28 13 -65 24 -80
24 -16 0 -39 8 -53 17 -20 14 -63 18 -264 24 -281 9 -388 9 -436 0z m1663
-608 c3 -16 3 -70 0 -121 -4 -74 -2 -97 10 -110 13 -15 13 -22 2 -48 -11 -27
-17 -31 -39 -27 -15 3 -28 8 -30 12 -2 3 -7 75 -10 158 -7 133 -6 152 7 147 8
-3 18 -1 22 5 12 20 32 11 38 -16z m209 -26 c12 -35 8 -94 -6 -106 -9 -8 -16
-20 -16 -28 0 -8 -7 -13 -17 -11 -15 3 -18 15 -19 71 -1 47 3 72 12 82 16 15
40 11 46 -8z m92 10 c9 10 7 -32 -9 -147 -8 -58 -15 -110 -15 -115 0 -6 -12
-12 -26 -13 -26 -2 -26 -2 -20 56 12 119 20 217 18 224 -1 4 9 3 22 -2 13 -5
27 -6 30 -3z m-218 -71 c1 -40 -3 -64 -14 -77 -22 -26 -28 -17 -31 46 -3 69 5
97 27 93 13 -3 17 -16 18 -62z m114 -121 c-8 -10 -9 -15 -1 -15 7 0 8 -8 2
-22 -4 -13 -6 -29 -4 -35 3 -7 0 -13 -6 -13 -19 0 -16 80 3 92 17 12 20 9 6
-7z m-3432 -1112 c-3 -13 44 -103 51 -99 15 9 37 -20 32 -41 l-6 -23 -44 30
c-25 16 -47 27 -50 25 -3 -2 -7 7 -7 18 -1 12 -5 39 -9 60 -7 33 -6 37 14 37
11 0 20 -3 19 -7z m86 -18 c19 -29 21 -65 4 -65 -21 1 -42 23 -55 58 -11 30
-10 32 12 32 13 0 29 -10 39 -25z m4879 -479 c11 -28 4 -29 -58 -10 -59 19
-55 29 12 29 28 0 40 -5 46 -19z m-1177 -81 c3 -7 14 -10 26 -7 16 4 12 -3
-15 -29 -25 -23 -44 -55 -59 -99 l-23 -65 -122 -9 -121 -9 -57 46 c-61 50 -98
65 -187 74 -92 9 -67 23 41 23 127 0 161 7 161 32 0 22 8 26 70 33 25 3 90 11
145 18 107 13 134 12 141 -8z m829 -77 c34 -18 125 -111 125 -128 0 -5 -12
-10 -27 -11 -16 0 -241 -14 -501 -32 -261 -18 -475 -29 -477 -26 -2 3 31 11
73 18 124 19 177 35 180 55 4 17 -4 17 -118 11 l-121 -7 20 39 c24 48 53 78
92 99 27 13 72 15 320 13 159 -2 291 0 294 3 9 8 104 -15 140 -34z m-1843 -89
c23 -12 58 -11 58 1 0 6 46 10 119 10 69 0 122 -4 126 -10 8 -14 58 -13 72 1
7 7 39 10 85 8 58 -3 83 -10 121 -32 27 -16 47 -30 45 -32 -5 -4 -117 -13
-428 -35 -518 -36 -494 -36 -487 -16 11 29 50 73 82 92 49 30 160 37 207 13z
m875 -115 c-10 -11 -124 -17 -130 -7 -4 6 18 11 55 12 34 1 64 4 67 6 2 3 7 3
9 0 3 -3 3 -8 -1 -11z m1152 -22 c42 -43 141 -197 141 -218 0 -7 -548 -40
-715 -42 -123 -2 -237 -17 -256 -33 -20 -17 -49 -16 -49 2 0 5 -7 9 -16 9 -12
0 -8 7 12 22 54 42 104 91 99 98 -2 3 -23 4 -47 1 -32 -5 -42 -10 -40 -23 4
-24 -24 -30 -141 -30 -146 0 -154 8 -116 113 l21 57 67 6 c36 3 246 17 466 31
220 14 407 27 415 29 8 2 42 4 74 5 52 1 62 -2 85 -27z m-1339 9 c0 -4 -37 -9
-82 -10 -89 -2 -112 -12 -88 -36 10 -9 46 -16 107 -19 105 -6 132 -18 165 -77
12 -22 25 -39 30 -39 12 0 10 -38 -3 -46 -10 -6 -1143 -83 -1210 -82 -25 0
-26 2 -16 32 51 160 82 212 132 221 29 5 255 19 505 31 69 4 184 12 255 19
163 16 205 17 205 6z m194 -76 c-25 -65 -44 -94 -44 -67 0 5 -9 19 -20 32 -24
27 -26 50 -5 51 8 1 20 3 25 4 6 1 16 3 24 4 8 0 19 15 25 33 6 17 14 28 17
25 4 -4 -6 -40 -22 -82z"/>
</g>
</svg>
