<?xml version="1.0" standalone="no"?>
<!DOCTYPE svg PUBLIC "-//W3C//DTD SVG 20010904//EN"
"http://www.w3.org/TR/2001/REC-SVG-20010904/DTD/svg10.dtd">
<svg version="1.0" xmlns="http://www.w3.org/2000/svg"
width="50.420455pt" height="36.000000pt" viewBox="0 0 50.420455 36.000000"
preserveAspectRatio="xMidYMid meet">
<g transform="translate(0.000000,36.000000) scale(0.005114,-0.005114)"
fill="#f2f2f2" stroke="none">
<path d="M6522 6429 c-34 -32 -49 -40 -75 -38 -37 3 -77 -8 -77 -21 0 -5 -12
-16 -27 -25 l-28 -15 25 2 c52 5 68 -29 23 -49 -19 -9 -30 -10 -40 -2 -19 16
-16 4 4 -16 12 -13 14 -21 6 -34 -16 -26 -58 -26 -79 1 -31 39 -51 45 -23 7
34 -45 90 -61 119 -34 20 18 24 15 21 -17 -3 -25 25 -23 32 2 3 11 12 20 21
20 20 0 20 -1 1 -36 -22 -43 -17 -103 13 -149 9 -14 15 -16 18 -7 10 23 34 13
34 -14 0 -22 3 -24 14 -15 11 9 15 9 19 -1 3 -7 5 3 4 22 -2 26 2 35 17 38 17
4 18 0 13 -34 -4 -22 -16 -46 -27 -56 -14 -11 -16 -18 -8 -21 7 -2 2 -8 -12
-11 -16 -5 -32 -21 -44 -49 -11 -23 -25 -49 -31 -57 -7 -8 -19 -36 -29 -61 -9
-25 -32 -64 -51 -87 -38 -44 -95 -145 -95 -168 0 -21 -80 -94 -102 -94 -35 0
-85 -28 -111 -61 -14 -19 -44 -45 -67 -59 -33 -20 -40 -30 -38 -52 2 -22 -8
-34 -60 -73 -89 -67 -119 -100 -152 -164 -67 -133 -52 -267 52 -475 16 -32 28
-60 25 -62 -14 -15 -128 42 -282 141 -117 75 -189 115 -207 115 -17 0 -37 -11
-53 -27 -22 -24 -25 -34 -19 -63 11 -59 5 -100 -21 -144 -14 -24 -25 -50 -25
-59 0 -13 -9 -17 -35 -17 -59 0 -102 -23 -110 -60 -4 -17 -13 -34 -21 -37 -16
-6 -125 18 -225 51 -114 37 -292 59 -424 53 -127 -7 -197 -24 -315 -77 -47
-22 -130 -56 -185 -76 -55 -20 -145 -63 -200 -95 -103 -60 -224 -110 -308
-129 -41 -9 -59 -7 -119 11 -65 20 -86 21 -232 16 -89 -3 -197 -11 -242 -18
-62 -9 -97 -9 -150 0 -38 6 -94 15 -124 20 -68 10 -97 25 -176 89 -85 68 -94
77 -149 157 -27 39 -54 75 -60 80 -25 22 -66 106 -105 215 -46 130 -84 213
-108 232 -11 9 -9 1 6 -23 12 -20 22 -49 22 -64 l0 -28 -25 27 c-32 35 -32 24
2 -33 14 -25 27 -59 28 -76 1 -17 9 -44 18 -61 16 -32 55 -156 64 -207 3 -15
9 -30 14 -33 5 -3 9 -13 9 -22 0 -29 -34 15 -80 103 -23 44 -43 78 -45 75 -5
-8 -40 41 -74 107 -18 34 -42 70 -54 80 -19 18 -20 18 -8 -5 6 -12 24 -41 39
-65 40 -62 47 -75 90 -162 45 -91 57 -125 45 -125 -17 0 -52 31 -66 58 -8 15
-22 42 -31 60 -10 17 -19 32 -21 32 -6 0 7 -33 22 -55 27 -40 12 -42 -27 -4
-22 22 -45 37 -51 34 -6 -4 -13 3 -16 15 -3 11 -11 19 -17 17 -11 -4 -71 58
-71 74 0 11 -64 69 -155 138 -25 19 -52 41 -60 48 -8 7 -44 38 -80 69 -36 30
-94 70 -130 88 -97 48 -109 51 -70 17 19 -17 40 -30 45 -31 21 0 131 -89 201
-161 68 -70 184 -226 184 -247 0 -6 18 -33 40 -61 23 -28 38 -56 35 -61 -3 -6
-1 -10 4 -10 6 0 11 -6 11 -13 0 -7 25 -40 55 -72 57 -62 64 -75 41 -75 -33 0
-123 74 -164 135 -23 35 -42 66 -42 70 0 6 -40 64 -77 114 -2 2 -5 2 -8 -1 -3
-3 1 -13 9 -21 21 -20 79 -127 70 -127 -4 0 1 -10 12 -22 41 -47 48 -59 32
-53 -9 4 -35 36 -58 73 -53 83 -80 118 -80 104 0 -6 6 -17 12 -24 7 -8 23 -34
36 -58 19 -38 20 -41 4 -23 -11 12 -23 19 -27 15 -5 -4 -5 -2 -1 5 4 7 -8 28
-29 50 -38 39 -38 27 -1 -17 19 -22 18 -22 -19 5 -22 16 -62 47 -90 70 -65 53
-170 125 -183 125 -6 0 -12 4 -14 9 -4 12 -88 81 -99 81 -4 0 15 -21 44 -47
29 -27 55 -52 59 -58 4 -5 10 -6 14 -3 9 10 53 -21 144 -102 41 -36 103 -88
137 -114 35 -26 68 -57 74 -69 7 -12 32 -44 56 -71 24 -27 53 -63 65 -80 l22
-31 -25 21 c-13 11 -39 34 -58 51 -19 17 -61 45 -95 63 -96 52 -207 143 -232
193 -8 15 -22 27 -32 27 -10 0 -25 9 -35 20 -10 12 -22 18 -27 15 -5 -3 -20 1
-33 10 -13 8 -26 13 -28 10 -3 -2 -25 16 -50 42 -38 40 -40 43 -12 24 18 -12
39 -32 48 -44 8 -12 15 -16 15 -10 0 14 -80 84 -90 78 -3 -2 -50 36 -104 84
-53 48 -124 102 -157 119 -72 38 -77 35 -9 -7 27 -17 63 -43 79 -58 16 -16 68
-64 115 -107 48 -43 85 -80 83 -82 -8 -9 -75 31 -117 70 -24 22 -34 29 -21 14
14 -16 22 -31 18 -34 -3 -4 -46 7 -94 24 -132 46 -206 64 -239 59 -23 -3 -20
-4 13 -6 23 0 44 -5 47 -10 3 -5 72 -30 152 -57 81 -26 158 -57 173 -69 14
-12 52 -37 83 -55 32 -17 60 -36 63 -40 12 -19 -13 -17 -60 5 -80 37 -152 49
-226 37 -58 -10 -59 -10 -14 -8 58 4 136 -9 182 -30 17 -8 38 -14 46 -14 8 0
25 -8 38 -18 13 -10 53 -36 89 -56 36 -21 73 -47 83 -57 16 -18 17 -19 1 -19
-10 0 -25 6 -33 13 -64 55 -310 51 -390 -5 -25 -18 -91 -97 -91 -110 0 -5 16
10 36 34 20 23 52 51 72 62 47 24 139 31 241 17 68 -9 92 -17 138 -48 31 -20
51 -39 45 -41 -6 -2 -32 12 -59 31 -26 19 -59 38 -73 42 -14 4 11 -18 55 -48
44 -30 87 -61 95 -69 24 -23 77 -58 81 -54 2 2 10 -3 17 -11 12 -12 9 -14 -26
-10 -21 3 -52 12 -68 20 -30 15 -194 28 -194 15 0 -5 -30 -9 -67 -10 -62 -1
-64 -2 -23 -7 l45 -6 -32 -14 c-18 -7 -39 -11 -46 -8 -20 8 -153 -21 -194 -42
-65 -33 -134 -102 -191 -191 -57 -88 -108 -144 -141 -155 -10 -3 -39 4 -65 15
-26 11 -53 20 -59 19 -7 0 8 -8 33 -18 79 -32 65 -45 -50 -43 -44 0 -44 0 -10
-7 42 -9 26 -19 -40 -24 -25 -2 -4 -4 45 -4 77 0 141 -10 265 -41 14 -3 -26
-9 -90 -13 -86 -5 -129 -12 -167 -29 -52 -22 -129 -93 -152 -141 -7 -13 9 0
35 29 26 30 66 66 88 80 38 25 50 27 180 30 148 4 153 2 97 -43 -56 -47 -108
-76 -148 -87 -24 -6 -41 -13 -38 -16 6 -7 -71 -34 -147 -52 -43 -10 -70 -10
-110 -2 -43 8 -49 8 -35 -3 27 -19 110 -27 164 -15 26 7 68 14 93 17 25 3 61
14 81 24 32 16 41 16 79 5 37 -11 47 -19 61 -52 20 -47 12 -70 -37 -103 -34
-24 -47 -48 -19 -37 9 3 40 -6 69 -19 45 -20 57 -31 66 -61 15 -45 63 -100
104 -118 53 -24 97 -31 221 -32 66 0 165 -4 220 -8 83 -7 111 -5 165 9 76 21
131 25 180 13 44 -10 260 11 257 25 -1 6 9 16 22 23 13 7 51 39 85 71 33 33
70 66 80 74 18 13 17 11 -2 -27 -12 -23 -33 -55 -47 -73 -15 -17 -22 -31 -17
-31 10 0 84 90 135 166 32 48 134 147 124 121 -6 -15 -3 -17 12 -12 14 4 21 0
24 -12 3 -10 5 -3 6 16 1 25 10 42 38 68 61 57 119 103 129 103 5 0 4 -4 -1
-8 -6 -4 -26 -32 -45 -62 -19 -30 -41 -64 -48 -75 -23 -36 -72 -144 -72 -159
0 -16 -85 -82 -139 -108 -20 -10 -30 -17 -23 -18 7 0 20 4 30 10 9 5 28 14 42
20 14 5 36 18 50 27 24 17 24 17 11 0 -7 -9 -10 -17 -5 -17 5 0 -18 -13 -51
-30 -58 -28 -77 -40 -113 -68 -14 -10 -13 -11 8 -3 20 7 99 42 133 59 20 10
-24 -96 -55 -136 -8 -9 -7 -11 4 -7 8 3 35 43 61 88 31 55 63 97 99 127 l53
45 -25 -40 c-13 -22 -42 -66 -65 -98 -22 -32 -47 -68 -55 -80 -8 -12 -31 -39
-53 -61 -21 -21 -36 -40 -33 -43 7 -7 117 107 156 161 43 60 200 219 260 264
25 18 78 57 117 87 40 30 75 55 78 55 7 0 40 27 97 79 44 40 49 42 45 20 -10
-51 -20 -66 -60 -93 -39 -27 -38 -28 6 -11 15 6 13 -5 -13 -76 -32 -85 -76
-152 -146 -223 -30 -30 -33 -36 -14 -26 47 25 145 135 180 203 33 65 37 68 87
83 29 8 66 22 82 30 30 15 101 87 101 103 0 5 6 16 13 23 15 17 67 120 67 134
0 6 9 19 20 29 17 16 15 4 -15 -80 -20 -54 -38 -102 -41 -107 -3 -4 -1 -8 5
-8 6 0 42 65 81 144 39 79 77 149 84 155 9 8 23 8 47 0 19 -7 35 -13 37 -14 2
-2 -8 -29 -21 -61 -34 -80 -41 -150 -27 -271 13 -126 45 -249 104 -418 59
-165 83 -217 150 -324 l54 -86 -8 -60 c-4 -33 -18 -87 -30 -119 -24 -64 -130
-227 -260 -401 -45 -60 -88 -122 -96 -137 -22 -43 -17 -95 21 -203 91 -257
136 -451 91 -390 -13 18 -15 18 -39 2 -38 -24 -47 -21 -47 16 -1 29 -2 30 -14
15 -12 -17 -14 -17 -31 2 -14 15 -21 17 -35 8 -14 -9 -22 -9 -33 0 -8 7 -22 9
-31 6 -11 -4 -22 0 -30 11 -7 10 -18 15 -24 11 -6 -3 -14 -2 -17 4 -4 6 -14 1
-25 -12 l-19 -23 -1 22 c0 12 -6 23 -12 25 -21 7 -80 -15 -86 -32 -15 -39 -72
-55 -72 -19 0 18 -4 20 -25 15 -20 -5 -25 -3 -25 11 0 10 -7 26 -15 37 -12 16
-22 17 -70 11 -53 -6 -58 -5 -86 23 -30 29 -33 30 -107 26 -42 -3 -91 -10
-109 -16 -24 -9 -38 -9 -55 -1 -25 13 -73 24 -100 24 -10 0 -23 9 -28 20 -6
10 -17 19 -25 19 -8 0 -15 5 -15 10 0 6 -11 10 -25 10 -14 0 -25 4 -25 10 0
17 -169 5 -183 -13 -7 -9 -25 -17 -42 -19 -26 -3 -30 -7 -30 -33 0 -20 -6 -31
-18 -33 -21 -4 -21 -3 5 -48 44 -74 25 -152 -26 -105 -27 25 -54 29 -94 12
-36 -15 -36 -15 -22 -41 7 -13 6 -19 -5 -24 -10 -3 -15 -19 -15 -46 0 -25 -5
-40 -12 -40 -7 0 -1 -12 14 -25 29 -25 34 -35 19 -35 -18 0 -61 -47 -61 -66 0
-11 -4 -25 -9 -32 -9 -15 29 -97 45 -97 16 -1 54 -29 54 -41 0 -6 -17 -21 -38
-35 -27 -18 -45 -23 -67 -18 -34 6 -104 -16 -123 -39 -9 -12 -15 -13 -23 -5
-9 9 -16 8 -27 -3 -8 -9 -24 -13 -35 -10 -25 6 -119 -13 -113 -23 6 -10 -227
-2 -234 7 -9 14 -83 14 -91 1 -5 -9 -11 -10 -21 -2 -7 6 -49 13 -93 17 -75 7
-113 12 -125 16 -3 1 -16 1 -29 0 -45 -4 -111 21 -111 41 0 11 -5 19 -11 19
-14 0 -39 25 -39 39 0 6 -9 11 -21 11 -29 0 -45 19 -53 63 -5 28 -12 37 -26
37 -11 0 -20 7 -20 15 0 8 -8 15 -18 15 -15 0 -17 6 -14 37 4 29 2 35 -11 30
-20 -7 -37 11 -37 41 0 19 -4 22 -20 17 -13 -4 -22 -1 -26 9 -3 9 -9 14 -14
11 -4 -2 -12 7 -19 21 -10 23 -16 25 -47 19 -26 -4 -39 -2 -47 9 -17 21 -35
22 -101 1 -103 -31 -95 23 -96 -637 l0 -578 4930 0 4930 0 0 330 c0 299 -2
330 -16 330 -9 0 -23 8 -29 17 -13 17 -14 17 -33 0 -19 -18 -21 -18 -31 0 -6
10 -11 12 -11 6 0 -7 -7 -13 -16 -13 -11 0 -14 -6 -9 -20 4 -13 2 -20 -6 -20
-7 0 -10 -3 -6 -6 3 -4 -1 -13 -10 -22 -13 -13 -18 -14 -37 -2 -11 7 -30 18
-40 24 -41 23 -77 70 -74 97 3 18 -1 25 -14 26 -10 1 -18 -3 -18 -9 0 -6 -11
-8 -25 -6 -14 3 -28 2 -30 -3 -3 -4 -18 -6 -33 -4 -15 1 -33 -2 -39 -7 -8 -7
-23 -6 -44 1 -27 9 -37 8 -65 -10 -19 -11 -41 -30 -49 -42 l-15 -22 -6 23 c-4
12 -14 22 -24 22 -23 0 -34 28 -19 46 6 8 10 14 8 15 -69 13 -86 8 -80 -25 1
-4 -4 -14 -10 -22 -9 -11 -8 -14 6 -14 14 0 15 -3 5 -15 -16 -20 -30 -19 -30
1 0 11 -6 15 -20 11 -13 -3 -20 0 -21 9 -3 29 -4 33 -15 44 -9 9 -17 9 -33 1
-23 -13 -26 -32 -11 -61 8 -15 6 -21 -9 -29 -24 -13 -45 8 -34 34 5 15 2 17
-16 12 -29 -7 -44 17 -79 125 -21 63 -43 103 -88 163 -76 100 -92 131 -109
211 -7 36 -23 81 -35 102 -12 20 -23 48 -25 61 -1 13 -12 31 -23 40 -12 9 -24
30 -28 46 -4 17 -16 42 -27 57 -11 14 -21 38 -22 51 -2 14 -12 38 -24 54 -25
34 -71 155 -71 187 0 33 -33 125 -84 230 -32 67 -62 111 -113 166 -110 118
-230 321 -319 539 l-43 104 29 36 c27 35 77 172 101 276 6 28 14 156 18 285 6
202 10 241 27 275 17 35 176 278 256 391 l29 40 107 -17 c59 -9 128 -20 153
-23 39 -6 46 -10 42 -25 -8 -30 18 -37 39 -11 18 22 22 23 61 11 63 -19 171
-40 178 -35 12 7 113 -17 129 -31 8 -8 42 -24 75 -36 61 -23 108 -62 118 -99
3 -11 1 -22 -4 -26 -5 -3 -5 -10 1 -17 6 -7 18 -22 28 -35 12 -17 34 -26 84
-34 50 -8 68 -15 71 -29 6 -23 67 -35 109 -20 53 19 78 40 95 82 10 25 20 38
29 35 8 -3 11 0 7 10 -3 7 0 14 6 14 6 0 23 18 38 41 25 38 26 43 15 87 -7 26
-21 58 -30 72 -10 14 -31 61 -47 105 -15 44 -54 127 -85 185 -102 191 -160
339 -160 412 0 60 -22 110 -55 128 -33 18 -107 121 -120 168 -6 21 -19 41 -32
46 -26 12 -43 104 -21 117 7 5 11 22 10 41 -2 22 7 55 26 93 32 64 57 144 48
152 -11 11 -34 -7 -47 -37 -14 -30 -76 -80 -101 -80 -6 0 -21 -9 -32 -19 -21
-19 -21 -19 -48 4 l-28 24 35 21 c47 29 44 35 -5 10 -68 -35 -144 -59 -185
-60 -53 -1 -106 10 -129 26 -16 11 -25 10 -55 -2 -54 -23 -81 -20 -132 14 -26
18 -82 47 -125 66 l-79 33 3 54 c4 62 -10 109 -33 109 -18 0 -19 -4 -2 -31 10
-17 10 -23 0 -26 -7 -3 -13 -20 -13 -39 0 -19 -4 -34 -10 -34 -5 0 -10 6 -10
14 0 8 -5 18 -11 22 -9 5 -10 -6 -5 -38 7 -45 6 -45 -19 -41 -18 4 -30 17 -44
48 -13 30 -26 44 -46 49 -35 9 -43 1 -22 -22 9 -10 18 -29 19 -42 2 -13 15
-36 30 -50 21 -20 25 -29 16 -38 -16 -16 -39 -15 -61 3 -11 7 -25 11 -32 9 -7
-3 -29 2 -50 10 -48 21 -53 20 -26 -3 l21 -18 -29 -6 c-16 -3 -62 -4 -102 -1
-47 4 -69 2 -61 -4 10 -7 3 -16 -30 -36 -24 -15 -34 -24 -23 -20 88 31 95 31
126 -4 16 -18 27 -37 25 -41 -3 -4 6 -14 19 -21 27 -15 33 -30 11 -30 -7 0
-18 -6 -24 -13 -8 -10 -2 -12 31 -10 31 2 36 0 18 -5 -40 -12 -39 -33 1 -22
l33 10 -42 -38 c-57 -51 -108 -81 -155 -91 -50 -12 -60 -21 -22 -22 25 0 26
-1 9 -8 -11 -5 -45 -12 -75 -16 -30 -4 -79 -14 -109 -22 -31 -9 -71 -13 -95
-10 l-41 6 30 -14 c17 -8 36 -14 43 -15 6 0 12 -6 12 -14 0 -9 -19 -18 -50
-25 -27 -6 -73 -16 -100 -22 -28 -6 -53 -16 -58 -23 -4 -6 -20 -20 -35 -29
-29 -19 -67 -49 -98 -79 -40 -38 -79 -45 -79 -15 0 7 -15 33 -34 59 -41 59
-117 227 -167 371 l-37 109 29 42 c33 48 37 78 40 276 l2 145 36 55 c36 55 36
55 73 46 47 -12 85 4 99 41 6 15 14 30 19 33 5 3 10 20 12 37 1 21 8 33 20 36
25 7 22 37 -7 77 -21 29 -24 41 -19 80 5 40 1 58 -28 121 -38 81 -78 123 -136
139 -60 16 -134 12 -177 -10 -32 -16 -46 -18 -69 -10 -16 5 -46 10 -67 10 -21
0 -41 5 -44 10 -15 24 -70 9 -113 -31z m163 -98 c3 -10 -2 -31 -10 -48 -26
-51 5 -172 55 -218 20 -18 20 -20 3 -26 -26 -11 -73 -10 -73 0 0 5 4 11 10 13
5 2 0 23 -10 47 -21 46 -27 121 -9 121 6 0 1 12 -10 26 -14 17 -21 41 -21 69
0 40 1 41 30 37 16 -2 32 -12 35 -21z m-239 3 c-3 -9 -6 -20 -6 -25 0 -13 -24
-11 -38 3 -10 10 -7 15 10 25 31 17 41 16 34 -3z m-2 -212 c-4 -18 -10 -32
-15 -32 -10 0 -11 25 -3 58 10 35 25 11 18 -26z m2021 -749 c9 -13 12 -23 8
-23 -5 0 -1 -5 7 -10 8 -5 11 -10 5 -10 -5 0 -35 26 -65 57 l-55 56 43 -23
c23 -13 49 -34 57 -47z m-485 -48 c11 -13 4 -12 -25 5 -57 31 -81 58 -29 32
22 -11 47 -28 54 -37z m614 21 c-29 -21 -74 -31 -74 -17 0 14 36 29 70 30 24
1 24 1 4 -13z m-1878 -253 c35 -62 83 -124 143 -189 26 -28 61 -68 77 -89 l29
-38 -40 7 c-22 4 -43 14 -48 21 -8 15 -105 50 -114 41 -4 -3 1 -6 10 -6 10 0
17 -5 17 -11 0 -6 -7 -9 -15 -5 -30 11 -14 -20 18 -34 30 -14 31 -15 8 -18
-13 -2 -26 0 -30 5 -3 4 -17 14 -30 21 -22 13 -23 12 -17 -4 12 -30 -38 21
-115 116 l-68 85 67 71 c37 39 70 72 74 73 3 0 19 -20 34 -46z m-266 -281 c30
-31 80 -79 110 -105 46 -40 51 -47 32 -47 -38 0 -23 -33 18 -41 19 -4 48 -14
63 -22 39 -20 21 -28 -85 -41 l-57 -6 -47 82 c-103 179 -127 238 -96 238 3 0
31 -26 62 -58z m-4835 -204 c14 -18 34 -42 43 -53 9 -11 18 -28 19 -39 3 -16
1 -17 -12 -6 -8 7 -15 16 -15 21 0 5 -7 17 -15 27 -81 94 -89 105 -69 94 12
-6 34 -26 49 -44z m96 -120 c11 -21 11 -22 -4 -9 -10 7 -17 17 -17 22 0 15 9
10 21 -13z m84 -80 c23 -24 48 -59 54 -79 7 -21 36 -60 71 -94 34 -32 58 -60
55 -64 -8 -7 -124 110 -125 127 0 6 -4 12 -9 12 -5 0 -32 32 -60 70 -57 79
-51 92 14 28z m157 -133 c14 -20 4 -14 -30 20 -28 28 -51 54 -52 59 0 13 57
-43 82 -79z m6511 -10 c34 -7 35 -8 30 -44 -4 -26 0 -41 11 -50 14 -12 21 -9
49 23 l32 37 53 -11 c44 -10 52 -15 47 -28 -14 -33 -15 -47 -6 -61 12 -19 29
-6 46 34 l14 34 37 -15 c21 -9 58 -32 83 -51 l46 -35 -90 6 c-170 12 -182 15
-181 39 1 29 -34 36 -41 8 -3 -12 -12 -21 -21 -21 -40 0 -272 34 -272 40 0 16
103 111 115 106 8 -3 29 -8 48 -11z m-6703 -85 c0 -4 12 -12 28 -19 74 -34
175 -119 177 -151 1 -3 6 -15 13 -27 7 -13 10 -23 8 -23 -10 0 -111 68 -137
92 -14 13 -36 33 -50 44 -13 10 -39 41 -57 67 -33 47 -33 47 -8 35 14 -6 26
-14 26 -18z m-550 -66 l35 -14 -40 6 c-22 3 -47 10 -55 15 -25 14 20 10 60 -7z
m-307 -100 c-46 -23 -46 -24 -13 -18 19 4 40 11 47 16 7 5 41 12 75 15 73 5
62 -10 -14 -21 -27 -4 -48 -11 -48 -15 0 -5 -26 -24 -58 -44 -31 -19 -70 -48
-85 -64 -131 -136 -172 -173 -191 -173 -12 0 -16 3 -10 8 6 4 21 36 34 72 29
84 60 137 104 178 48 44 128 79 172 74 l35 -4 -48 -24z m1132 -18 c6 -6 23
-21 38 -33 15 -12 23 -24 18 -28 -12 -7 -100 54 -101 69 0 5 -8 19 -17 30 -16
17 -13 17 17 -4 19 -13 40 -28 45 -34z m-1436 -257 c-10 -14 -16 -29 -12 -32
9 -10 -25 -20 -43 -13 -13 5 -12 9 5 28 12 12 21 25 21 30 0 4 8 16 18 26 15
16 18 16 23 2 4 -8 -2 -27 -12 -41z m457 39 c-42 -32 -120 -110 -141 -142 -17
-25 -72 -62 -80 -54 -3 3 71 92 146 175 15 17 61 36 99 42 3 0 -8 -9 -24 -21z
m134 -2 c0 -2 -23 -18 -50 -36 -70 -45 -160 -163 -160 -209 0 -12 -4 -21 -10
-21 -5 0 -10 -9 -10 -20 0 -15 -7 -20 -28 -20 -24 0 -32 7 -46 38 -18 40 -20
51 -8 54 4 1 48 44 98 94 59 60 102 95 120 99 16 3 36 10 44 15 15 9 50 13 50
6z m55 -25 c-3 -6 -11 -8 -17 -5 -6 4 -5 9 3 15 16 10 23 4 14 -10z m-25 -19
c0 -4 -20 -18 -45 -30 -43 -21 -135 -99 -135 -114 0 -13 18 -9 35 8 21 22 30
12 15 -17 -10 -18 -27 -118 -32 -186 -2 -17 -8 -16 -51 2 -28 11 -34 19 -30
35 3 11 9 20 13 20 9 0 30 79 30 115 0 14 11 37 25 51 14 14 25 28 25 32 0 7
21 25 84 69 31 22 66 30 66 15z m1833 -64 c-8 -29 -19 -55 -23 -58 -5 -3 -11
-18 -14 -34 -8 -46 -93 -144 -140 -162 -23 -9 -11 25 18 51 32 29 86 101 86
114 0 6 4 11 8 11 5 0 15 18 22 40 7 22 17 40 22 40 4 0 8 6 8 13 0 11 19 37
26 37 2 0 -4 -24 -13 -52z m-2374 9 c-12 -25 -42 -44 -69 -42 -8 1 -40 3 -70
5 l-55 2 48 8 c26 5 71 20 99 34 28 14 53 24 55 22 2 -2 -1 -15 -8 -29z m2105
9 c-3 -9 -10 -16 -15 -16 -5 0 -9 -6 -9 -12 0 -16 -44 -58 -59 -58 -11 0 -3
11 53 77 29 35 41 38 30 9z m187 -52 c-21 -59 -36 -82 -47 -72 -3 3 9 36 27
73 17 36 33 64 36 62 2 -3 -5 -31 -16 -63z m-1751 21 c-7 -9 -23 -21 -34 -27
-15 -7 -12 -1 9 20 31 30 48 35 25 7z m180 -10 c-25 -26 -40 -32 -40 -15 0 6
5 10 11 10 6 0 17 7 25 15 26 25 29 17 4 -10z m-267 -10 c-3 -9 -8 -14 -10
-11 -3 3 -2 9 2 15 9 16 15 13 8 -4z m161 -16 c-9 -10 -34 -54 -55 -98 -47
-99 -65 -113 -56 -46 4 26 7 56 7 66 0 24 48 79 64 73 7 -3 16 1 19 9 3 7 12
14 21 14 15 0 15 -2 0 -18z m572 -1 c4 -7 3 -8 -4 -4 -7 4 -12 3 -12 -2 0 -5
-31 -28 -69 -51 -97 -57 -175 -132 -207 -197 -15 -30 -31 -57 -36 -60 -17 -11
-64 50 -62 81 3 57 4 61 18 81 13 17 14 15 4 -23 -7 -30 -7 -53 1 -80 l11 -38
-5 38 c-6 54 20 115 69 160 53 49 77 61 156 80 125 30 127 31 136 15z m-369
-26 c-15 -10 -52 -45 -82 -78 -32 -34 -55 -52 -55 -43 0 27 56 91 101 116 52
27 76 31 36 5z m1067 -24 c-10 -12 -68 -72 -128 -133 -68 -69 -103 -99 -93
-79 9 17 64 77 122 132 101 97 141 129 99 80z m-1444 -62 c-23 -80 -36 -99
-26 -39 6 38 36 117 42 110 1 -1 -6 -33 -16 -71z m-364 51 c6 -6 -17 -66 -43
-113 -17 -30 -31 -44 -45 -44 -17 0 -18 -2 -8 -15 11 -13 8 -21 -15 -45 l-29
-30 -24 40 c-13 23 -38 47 -55 54 -20 9 -25 15 -14 15 9 1 17 5 17 9 0 5 8 13
19 18 10 5 38 26 62 46 83 69 94 76 113 72 10 -2 20 -5 22 -7z m104 -37 c7
-16 17 -30 23 -30 6 0 7 -3 4 -6 -6 -7 -51 19 -74 42 -14 14 -7 24 17 24 10 0
23 -13 30 -30z m-7 -46 c46 -45 81 -100 69 -108 -11 -6 -175 26 -189 36 -16
13 35 118 57 118 9 0 37 -20 63 -46z m560 -36 c-3 -18 -9 -35 -13 -38 -4 -3
-10 -12 -13 -20 -4 -12 -6 -11 -6 3 -1 10 -5 15 -11 12 -20 -12 -10 13 17 44
15 17 29 31 30 31 1 0 0 -15 -4 -32z m-473 -9 c0 -18 -2 -19 -15 -9 -8 7 -15
16 -15 21 0 5 7 9 15 9 9 0 15 -9 15 -21z m334 -14 c-3 -42 10 -91 23 -88 6 1
8 -9 6 -22 -4 -17 -20 -30 -63 -49 -69 -31 -71 -31 -93 -6 -16 20 -16 22 5 60
13 22 27 40 32 40 5 0 18 7 28 17 17 15 18 15 19 -3 0 -11 5 -5 10 14 5 17 14
32 20 32 6 0 7 5 4 10 -5 9 1 30 9 30 2 0 2 -16 0 -35z m36 -22 c0 -35 -3 -44
-10 -33 -16 25 -11 80 7 80 2 0 3 -21 3 -47z m813 -5 c-24 -24 -76 -79 -117
-123 -41 -43 -78 -77 -81 -73 -13 13 157 196 210 226 34 19 31 14 -12 -30z
m-1003 7 c0 -15 -6 -25 -14 -25 -11 0 -12 5 -3 25 15 31 17 31 17 0z m528 -7
c-6 -18 -20 -44 -30 -58 -10 -14 -27 -36 -38 -50 -14 -18 -22 -22 -30 -14 -12
12 12 58 64 120 35 43 48 43 34 2z m-176 -43 c7 -16 16 -33 20 -36 5 -3 11
-21 14 -40 6 -35 6 -35 -58 -62 -76 -33 -84 -33 -56 -5 14 14 18 23 10 26 -16
5 -15 34 3 58 8 10 15 25 15 33 0 8 8 32 18 54 12 29 18 35 20 21 2 -10 8 -32
14 -49z m252 -2 c-21 -38 -43 -77 -51 -88 -13 -19 -13 -19 -13 3 0 27 29 87
37 78 4 -3 17 12 30 34 40 66 37 45 -3 -27z m-691 28 c24 -15 26 -19 13 -30
-16 -13 -46 -3 -73 25 -37 37 2 40 60 5z m-183 -11 c42 -11 43 -13 25 -26 -18
-14 -18 -14 2 -14 12 0 25 5 29 11 10 17 58 3 88 -24 14 -13 26 -27 26 -30 0
-11 -91 -47 -119 -47 -17 0 -56 -7 -88 -17 -32 -9 -81 -18 -108 -20 -50 -5
-51 -4 -63 29 -18 50 -15 63 21 112 32 44 32 44 88 41 30 -2 75 -9 99 -15z
m510 -22 c0 -21 -3 -29 -10 -22 -5 5 -7 19 -4 32 9 31 14 27 14 -10z m-70
-113 c-16 -19 -37 -19 -55 -1 -13 12 -9 16 23 29 32 13 37 13 40 1 2 -8 -2
-21 -8 -29z m466 23 c-9 -12 -16 -28 -16 -36 0 -7 -5 -18 -10 -25 -6 -7 -17
-21 -25 -32 -14 -19 -14 -18 -5 8 14 40 54 107 63 107 5 0 1 -10 -7 -22z
m-1142 -4 c16 -43 -3 -57 -40 -30 -19 15 -19 15 1 30 26 20 31 20 39 0z m427
-16 c-33 -26 -45 -22 -18 5 12 13 26 21 31 19 5 -3 -1 -13 -13 -24z m1234 -43
c-15 -20 -29 -34 -32 -31 -3 2 8 20 23 40 37 46 45 37 9 -9z m-1345 26 c0 -11
-28 -18 -110 -27 -73 -8 -74 5 -2 22 59 14 112 17 112 5z m212 -9 c4 -4 -10
-6 -32 -4 -23 2 -37 8 -34 14 6 10 53 2 66 -10z m445 -10 c20 -13 4 -52 -21
-52 -36 0 -136 22 -136 30 0 4 24 12 53 17 68 13 89 14 104 5z m-469 -12 c12
0 13 -3 5 -11 -6 -6 -41 -14 -78 -17 -37 -2 -61 -8 -55 -12 9 -6 6 -14 -9 -29
-11 -11 -20 -21 -18 -21 1 0 26 9 54 19 39 14 62 17 88 11 20 -5 39 -11 42
-13 7 -8 -96 -65 -128 -72 -28 -6 -130 31 -179 65 -41 28 -50 32 -50 21 0 -6
7 -11 15 -11 8 0 15 -4 15 -8 0 -4 22 -19 50 -33 27 -13 50 -27 50 -31 0 -5 8
-9 18 -9 9 -1 -1 -5 -23 -9 -96 -19 -191 16 -225 84 l-20 41 26 3 c14 2 37 -1
52 -6 38 -12 229 10 267 31 18 10 42 15 59 12 16 -3 36 -5 44 -5z m97 -40
c-19 -21 -50 -27 -59 -11 -3 5 -16 7 -29 4 -12 -3 -18 -2 -14 3 4 4 29 11 55
15 26 3 51 7 56 8 5 0 1 -8 -9 -19z m84 -3 c-2 -1 -13 -9 -24 -17 -19 -14 -19
-14 -6 3 7 9 18 17 24 17 6 0 8 -1 6 -3z m62 -43 c19 -15 25 -24 14 -20 -11 4
-32 10 -47 13 -30 6 -36 18 -15 26 6 3 12 6 13 6 0 1 16 -11 35 -25z m-147
-40 c-42 -33 -154 -66 -154 -45 0 6 17 13 38 17 20 4 57 17 82 29 48 25 65 24
34 -1z m148 5 c82 -17 81 -29 -2 -30 -52 -1 -66 -3 -45 -8 27 -6 24 -8 -25
-14 -30 -4 -71 -7 -90 -6 l-35 0 36 19 c19 10 41 26 48 34 16 19 41 20 113 5z
m283 -49 c-3 -5 -22 -10 -41 -10 -19 0 -34 5 -34 10 0 6 18 10 41 10 24 0 38
-4 34 -10z m-422 -27 c-18 -2 -48 -2 -65 0 -18 2 -4 4 32 4 36 0 50 -2 33 -4z
m3787 -228 c30 -4 98 -18 150 -31 298 -74 434 -104 505 -109 44 -3 134 -12
200 -20 66 -8 174 -19 240 -25 66 -6 131 -14 145 -17 33 -8 76 -10 336 -17
121 -2 231 -9 245 -14 13 -5 42 -15 64 -22 41 -12 298 -151 414 -223 35 -21
116 -61 179 -88 153 -64 184 -86 216 -150 38 -77 35 -101 -21 -161 -27 -28
-58 -54 -70 -59 -14 -5 -20 -14 -17 -23 6 -15 -29 -52 -58 -62 -13 -4 -17 -11
-13 -21 4 -11 -18 -39 -69 -87 -40 -39 -81 -85 -90 -103 -25 -51 -48 -58 -92
-28 -20 14 -44 25 -53 25 -18 0 -86 -43 -114 -72 -10 -10 -27 -18 -38 -18 -18
0 -20 -4 -14 -29 5 -23 2 -30 -11 -33 -11 -2 -18 -14 -19 -38 -2 -19 -10 -58
-18 -86 -16 -54 -13 -100 8 -107 7 -3 52 10 101 29 49 18 98 33 110 34 11 0
60 26 110 57 64 41 115 65 184 85 103 30 125 47 158 123 35 82 85 171 118 209
19 22 43 59 55 83 12 24 46 69 75 101 30 31 54 60 54 64 0 18 16 6 40 -29 14
-20 42 -55 63 -77 52 -57 105 -161 113 -226 3 -28 32 -115 48 -145 9 -16 16
-36 16 -42 0 -7 8 -32 19 -55 23 -53 36 -96 50 -168 7 -32 22 -68 36 -84 14
-16 25 -35 25 -43 0 -7 6 -13 13 -13 6 -1 36 -23 66 -49 l54 -49 -26 -32 c-19
-23 -27 -43 -27 -71 0 -30 -3 -38 -12 -32 -7 4 -20 6 -30 5 -9 -2 -19 2 -23 8
-11 18 -23 11 -36 -22 -11 -31 -13 -31 -16 -10 -3 13 -11 26 -20 29 -21 8 -63
-44 -63 -79 0 -23 -4 -28 -26 -28 -15 0 -23 4 -19 10 9 15 -11 37 -42 45 -19
4 -35 0 -54 -14 -16 -12 -38 -21 -50 -21 -11 0 -30 -11 -41 -25 -11 -14 -24
-23 -29 -20 -16 10 -10 43 11 58 16 11 19 21 14 44 -6 33 -33 52 -78 57 -16 2
-32 9 -36 16 -7 11 -25 10 -110 -6 -8 -2 -27 -5 -42 -8 -15 -2 -40 -13 -55
-24 -18 -12 -44 -19 -72 -19 -30 0 -47 -5 -53 -17 -10 -18 -39 -21 -66 -7 -9
5 -31 15 -48 21 -24 8 -33 20 -38 42 -3 17 -14 37 -23 44 -15 10 -20 8 -35
-14 -10 -15 -18 -21 -18 -14 0 18 -25 42 -44 42 -9 0 -22 -13 -31 -30 -14 -27
-37 -32 -55 -11 -3 3 -20 14 -38 23 -31 17 -33 17 -51 -1 -23 -23 -49 -33 -56
-21 -3 5 -12 7 -19 4 -8 -3 -17 -1 -20 5 -4 5 -27 8 -51 5 -44 -4 -45 -3 -39
22 6 23 4 25 -15 19 -16 -5 -21 -2 -21 13 0 21 -28 37 -78 46 -24 4 -37 1 -53
-15 -13 -13 -27 -18 -40 -14 -25 8 -49 -11 -49 -40 0 -14 -7 -25 -20 -28 -13
-3 -20 0 -20 9 0 18 -32 34 -74 38 -18 2 -37 6 -42 9 -6 3 -16 2 -24 -3 -9 -5
-19 -5 -27 2 -17 14 -59 2 -67 -18 -4 -9 -1 -23 5 -31 10 -11 8 -12 -15 -3
-15 5 -39 10 -54 10 -16 0 -32 8 -40 20 -7 11 -23 20 -36 20 -14 0 -28 5 -31
11 -4 6 -19 7 -35 4 -19 -4 -33 -1 -44 10 -11 12 -25 15 -45 10 -23 -5 -32 -2
-44 15 -20 29 -137 113 -205 147 -30 15 -85 55 -122 88 -37 33 -116 89 -174
124 -135 80 -372 257 -423 315 -37 43 -87 134 -113 206 -61 168 -71 209 -80
330 -5 69 -19 168 -29 220 -12 54 -21 136 -21 190 0 52 -4 112 -9 133 -9 38
-9 38 17 33 15 -3 52 -8 82 -11z m-653 -263 c57 -67 112 -155 140 -224 33 -82
81 -296 93 -419 17 -163 30 -184 167 -253 81 -40 288 -176 472 -309 189 -136
230 -170 301 -242 57 -58 63 -67 48 -76 -10 -6 -18 -20 -18 -32 0 -12 -4 -29
-10 -37 -8 -12 -11 -12 -28 3 -10 9 -21 14 -24 11 -4 -3 -4 12 -1 33 4 32 0
44 -27 76 -35 40 -73 49 -84 20 -6 -14 -8 -14 -20 3 -11 14 -17 16 -27 7 -13
-10 -76 -9 -106 2 -6 2 -17 -3 -24 -11 -7 -8 -21 -12 -33 -9 -68 18 -102 30
-108 39 -3 5 -19 11 -35 14 -15 2 -33 8 -40 13 -15 13 -53 2 -53 -16 0 -23
-53 -75 -77 -75 -13 0 -23 -4 -23 -10 0 -5 -9 -10 -20 -10 -16 0 -20 7 -20 32
0 30 -1 30 -19 14 -12 -11 -21 -14 -26 -7 -7 13 -56 3 -67 -12 -4 -7 -16 -1
-32 14 -14 13 -30 25 -35 25 -6 1 -13 3 -16 4 -3 1 -8 3 -12 5 -5 1 -15 4 -23
7 -68 23 -97 27 -183 24 -53 -2 -97 0 -97 5 0 9 -45 2 -65 -10 -14 -8 -57 -1
-73 11 -9 8 -18 6 -30 -6 -25 -22 -42 -20 -42 5 0 26 -23 49 -49 49 -12 0 -21
5 -21 10 0 6 -7 10 -16 10 -8 0 -12 5 -9 10 4 6 1 18 -7 27 -7 9 -11 19 -9 22
4 7 -71 21 -80 15 -4 -2 -15 6 -25 17 -21 23 -82 52 -94 44 -5 -3 -12 0 -15 6
-4 5 -14 8 -22 5 -9 -4 -17 1 -20 14 -4 16 -14 20 -43 20 -38 0 -38 1 -49 50
-23 109 -8 210 47 310 71 129 125 205 212 296 49 51 111 126 138 166 78 118
128 183 170 219 21 19 55 60 75 92 20 31 41 57 45 57 5 0 27 -21 49 -48z"/>
<path d="M1 1304 c0 -11 3 -14 6 -6 3 7 2 16 -1 19 -3 4 -6 -2 -5 -13z"/>
<path d="M2 1260 c0 -14 2 -19 5 -12 2 6 2 18 0 25 -3 6 -5 1 -5 -13z"/>
</g>
</svg>
