<?xml version="1.0" standalone="no"?>
<!DOCTYPE svg PUBLIC "-//W3C//DTD SVG 20010904//EN"
"http://www.w3.org/TR/2001/REC-SVG-20010904/DTD/svg10.dtd">
<svg version="1.0" xmlns="http://www.w3.org/2000/svg"
width="50.252788pt" height="36.000000pt" viewBox="0 0 50.252788 36.000000"
preserveAspectRatio="xMidYMid meet">
<g transform="translate(0.000000,36.000000) scale(0.006691,-0.006691)"
fill="#f2f2f2" stroke="none">
<path d="M3900 5330 c-19 -5 -163 -14 -320 -20 -405 -14 -496 -24 -646 -71
-17 -5 -62 -9 -100 -9 -38 -1 -87 -5 -109 -9 -22 -5 -85 -18 -140 -29 -112
-23 -224 -70 -271 -114 -22 -21 -55 -35 -110 -49 -44 -11 -113 -37 -154 -57
-41 -20 -80 -35 -86 -34 -6 1 -19 -9 -27 -22 -9 -13 -40 -33 -69 -44 -54 -21
-115 -50 -133 -64 -5 -4 -26 -20 -45 -36 -19 -16 -46 -35 -60 -42 -38 -20
-155 -116 -176 -144 -11 -14 -34 -52 -53 -84 -18 -33 -44 -66 -58 -73 -38 -20
-114 -108 -148 -170 -28 -52 -29 -60 -36 -228 -4 -96 -3 -186 1 -202 18 -63
47 -92 178 -178 72 -49 132 -86 132 -83 0 3 -16 24 -35 47 -30 37 -32 45 -21
60 10 14 31 19 95 23 71 4 81 7 81 24 0 29 30 35 51 9 18 -22 19 -22 70 -6 57
16 69 27 69 64 0 19 -3 21 -14 11 -12 -9 -16 -6 -21 24 -4 19 -4 39 -1 44 3 5
35 10 71 11 65 2 65 2 116 -46 l52 -48 -27 53 -27 54 39 34 c22 18 56 58 76
88 l36 54 42 -15 c24 -8 101 -28 171 -43 110 -25 131 -32 150 -56 53 -67 51
-69 34 30 -1 5 14 14 33 20 19 6 41 15 48 20 7 4 16 5 19 2 3 -3 19 4 35 15
26 19 34 20 89 10 33 -5 81 -21 107 -35 26 -13 65 -30 87 -37 22 -6 45 -14 50
-18 6 -3 18 -7 28 -8 27 -4 43 -24 61 -74 l15 -44 2 35 c1 19 3 44 3 55 1 22
42 30 190 39 37 3 70 7 73 9 9 10 121 -36 244 -99 124 -64 126 -65 141 -112
l16 -47 1 47 1 47 128 -3 c70 -2 136 -6 147 -11 49 -18 114 -53 160 -86 27
-19 78 -46 113 -58 61 -23 62 -24 40 -39 -40 -26 -118 -106 -118 -120 0 -7 4
-11 9 -8 11 7 71 -13 71 -24 0 -14 -27 -108 -51 -176 l-21 -62 -34 11 c-28 9
-37 7 -54 -8 -30 -27 -25 -54 25 -120 l45 -60 -6 -69 c-6 -65 -6 -68 12 -58
27 14 45 37 89 112 66 111 106 159 145 169 100 26 253 21 417 -16 59 -13 79
-14 120 -4 63 16 80 33 78 76 -1 40 7 43 34 16 11 -11 22 -17 25 -14 3 3 36
-4 73 -16 66 -20 70 -23 125 -98 31 -43 81 -110 110 -149 30 -39 52 -77 49
-85 -3 -11 -1 -12 11 -2 8 7 50 18 94 24 88 12 110 21 139 55 20 24 21 24 75
9 85 -23 206 -31 226 -14 9 7 31 42 48 78 30 61 33 64 91 85 82 30 193 121
245 202 26 38 68 84 106 114 73 58 124 122 124 157 0 36 -28 84 -72 122 -37
33 -38 34 -38 105 0 42 -7 91 -17 119 -24 67 -109 175 -169 217 -29 19 -60 50
-69 67 -42 77 -191 196 -262 209 -25 5 -37 14 -44 32 -17 44 -159 174 -225
205 -32 16 -89 44 -125 63 -92 47 -177 73 -270 80 -44 4 -77 9 -75 12 7 6 -57
65 -124 112 -116 83 -141 100 -146 100 -4 0 -26 14 -51 30 -24 17 -50 30 -58
30 -7 0 -41 16 -75 35 -34 19 -65 35 -70 35 -8 0 -95 33 -145 55 -16 7 -46 20
-65 28 -19 9 -49 21 -65 28 -51 22 -484 45 -545 29z"/>
<path d="M3416 2051 c-3 -5 -1 -23 5 -39 9 -25 7 -37 -7 -61 -10 -17 -16 -32
-13 -35 2 -2 58 -7 125 -11 l120 -7 11 34 c11 39 6 93 -11 106 -15 12 -224 24
-230 13z"/>
<path d="M3320 2024 c-6 -14 -10 -41 -10 -61 0 -20 -5 -52 -11 -73 -10 -34 -6
-53 56 -236 55 -163 94 -301 95 -335 0 -3 -11 -11 -25 -17 -17 -8 -25 -20 -25
-36 0 -20 -7 -27 -37 -35 -55 -16 -73 -14 -92 10 -15 18 -21 20 -39 10 -31
-17 -29 -56 5 -78 20 -14 53 -19 135 -22 l108 -3 0 -63 c0 -83 -24 -174 -62
-235 -37 -60 -108 -262 -108 -311 0 -40 29 -72 115 -129 78 -51 93 -68 87 -95
-2 -14 -8 -25 -13 -25 -10 0 -5 -188 6 -212 12 -29 42 -21 54 13 6 18 11 40
11 50 0 12 6 16 19 12 21 -5 61 39 61 67 0 9 9 25 20 35 11 10 20 22 20 27 0
5 12 27 26 50 l27 42 -22 17 c-17 14 -20 23 -13 36 5 10 12 40 16 67 3 27 15
63 25 80 16 26 20 59 26 191 4 88 7 176 8 195 2 25 8 36 22 40 11 3 32 11 48
18 15 7 39 17 53 22 26 11 29 27 10 70 -5 12 2 15 33 15 49 0 69 17 82 72 6
24 15 46 20 49 12 7 -1 66 -19 87 -19 22 -87 24 -79 3 17 -43 19 -86 4 -92
-21 -8 -77 18 -119 55 -41 36 -42 33 10 162 28 70 93 200 111 224 5 6 11 22
15 37 11 49 -23 71 -159 102 -66 15 -129 27 -140 26 -11 0 -88 7 -171 17
l-151 17 13 33 c20 46 18 119 -2 127 -27 10 -34 7 -44 -20z m225 -220 c96 -6
324 -49 338 -63 5 -5 4 -17 -1 -28 -6 -11 -23 -66 -37 -124 -52 -207 -63 -236
-90 -243 -15 -4 -37 0 -55 9 -23 12 -30 22 -30 46 0 43 -26 88 -56 95 -34 9
-75 -22 -86 -63 -18 -70 -55 -65 -76 12 -17 61 -62 314 -62 348 0 28 2 29 33
23 17 -3 73 -8 122 -12z m60 -1173 c7 -114 -1 -167 -31 -192 -13 -10 -24 -3
-70 42 -29 29 -54 57 -54 60 0 4 24 47 52 96 51 86 76 115 89 107 4 -2 10 -53
14 -113z"/>
<path d="M3694 2021 c2 -9 10 -43 17 -76 l12 -60 104 -31 c57 -17 106 -27 109
-23 3 5 0 26 -5 46 -6 21 -11 52 -11 70 0 36 2 35 -138 68 -82 20 -92 20 -88
6z"/>
</g>
</svg>
