<?xml version="1.0" standalone="no"?>
<!DOCTYPE svg PUBLIC "-//W3C//DTD SVG 20010904//EN"
"http://www.w3.org/TR/2001/REC-SVG-20010904/DTD/svg10.dtd">
<svg version="1.0" xmlns="http://www.w3.org/2000/svg"
width="52.085106pt" height="36.000000pt" viewBox="0 0 52.085106 36.000000"
preserveAspectRatio="xMidYMid meet">
<g transform="translate(0.000000,36.000000) scale(0.012766,-0.012766)"
fill="#f2f2f2" stroke="none">
<path d="M2850 2768 c-19 -12 -50 -34 -68 -50 -18 -15 -45 -31 -60 -34 -15 -4
-65 -26 -112 -50 -66 -33 -103 -45 -167 -53 -90 -11 -236 -56 -259 -79 -18
-17 -157 -72 -187 -73 -12 0 -53 -13 -92 -28 l-70 -29 -29 21 c-21 15 -33 18
-45 10 -11 -7 -28 -2 -66 20 -27 16 -85 49 -128 73 l-79 44 -38 -20 c-50 -26
-78 -66 -90 -132 -10 -53 1 -108 21 -108 5 0 3 -11 -3 -25 l-11 -25 -28 26
c-24 23 -33 26 -72 20 -65 -10 -130 -55 -156 -108 -11 -24 -21 -51 -21 -60 0
-10 -24 -25 -68 -43 -37 -15 -71 -33 -75 -41 -4 -8 -14 -14 -21 -14 -6 0 -49
-18 -95 -40 -45 -22 -86 -38 -91 -35 -4 3 -34 -9 -66 -25 -33 -16 -65 -30 -71
-30 -7 0 -13 -6 -13 -12 0 -7 -27 -28 -59 -45 -95 -53 -169 -127 -208 -209
-18 -40 -33 -78 -33 -86 0 -39 52 -143 87 -174 106 -95 235 -164 307 -164 12
0 37 -8 56 -19 57 -30 147 -44 280 -42 118 1 129 3 188 32 34 17 62 35 62 40
0 19 64 49 92 43 33 -7 99 25 148 71 19 18 46 36 60 40 26 7 85 33 160 70 25
13 81 37 125 55 44 17 139 62 210 100 72 37 148 73 170 80 64 20 187 88 234
129 23 20 76 54 117 75 47 25 87 55 111 83 21 25 58 63 83 86 135 126 191 210
261 398 45 117 48 187 11 258 -43 85 -135 121 -202 79z m-1715 -952 c-12 -29
-13 -45 -5 -75 12 -45 4 -75 -17 -67 -8 3 -19 6 -25 6 -15 0 -1 65 28 129 27
60 43 66 19 7z m-133 -15 c-2 -27 0 -63 6 -80 8 -23 7 -32 -4 -42 -30 -25 -34
-45 -18 -98 8 -28 19 -51 23 -51 5 0 11 -9 14 -19 6 -24 76 -38 106 -21 17 9
22 8 27 -5 9 -23 75 -48 88 -35 8 8 2 19 -21 38 -26 23 -33 37 -41 89 -5 35
-6 65 -4 68 8 7 52 -36 52 -51 0 -7 -6 -14 -12 -17 -17 -5 24 -84 59 -113 l26
-22 -66 -31 c-80 -38 -205 -71 -272 -71 -123 0 -245 111 -245 223 0 49 46 132
93 171 31 24 180 114 193 116 1 0 -1 -22 -4 -49z m-394 -9 c2 -15 -2 -22 -13
-22 -8 0 -18 -7 -21 -15 -4 -8 -13 -15 -21 -15 -30 0 -104 -62 -133 -113 -16
-29 -30 -58 -30 -66 0 -19 -30 -51 -47 -51 -29 0 -24 33 18 103 61 102 73 116
132 155 86 57 110 62 115 24z m62 -466 c81 -48 91 -56 65 -56 -69 0 -167 37
-224 86 -35 29 -39 41 -13 47 24 5 62 -12 172 -77z"/>
<path d="M3325 1835 c-62 -12 -117 -36 -180 -79 -36 -25 -61 -37 -200 -100
-43 -20 -82 -41 -85 -46 -6 -10 -155 -56 -225 -71 -23 -4 -59 -3 -85 2 -71 16
-249 16 -294 0 -53 -18 -125 -86 -148 -139 -17 -37 -23 -43 -41 -38 -103 30
-116 30 -141 7 -15 -14 -26 -19 -31 -12 -14 23 -53 10 -89 -29 -40 -45 -42
-52 -21 -70 12 -10 11 -16 -8 -45 -26 -40 -65 -61 -81 -45 -24 24 -103 3 -152
-41 -27 -25 -200 -114 -239 -123 -16 -4 -79 -32 -140 -61 -60 -30 -139 -67
-175 -83 -73 -32 -182 -111 -207 -149 -9 -13 -22 -59 -29 -101 -7 -42 -17 -98
-24 -124 l-11 -47 48 -65 c26 -36 56 -68 65 -71 9 -4 39 -24 65 -45 69 -58
168 -106 271 -134 50 -13 96 -27 102 -31 20 -12 192 -45 235 -45 23 0 68 5
100 11 44 8 64 8 81 -1 27 -15 73 -2 150 41 28 16 58 29 66 29 16 0 136 60
183 91 68 45 190 112 353 193 160 81 180 88 290 108 64 11 123 25 129 30 7 6
12 24 10 41 -2 29 1 31 51 46 31 10 62 27 75 43 12 14 48 41 80 59 32 17 61
38 64 45 3 7 26 23 51 36 26 12 66 37 90 55 24 18 48 33 54 33 13 0 82 53 124
94 16 17 64 55 105 83 95 68 109 82 109 108 0 14 21 42 55 74 30 29 55 58 55
66 0 7 12 37 27 67 33 64 41 153 22 238 -10 46 -23 72 -57 110 -24 28 -52 50
-62 50 -10 0 -48 11 -84 25 -54 20 -83 25 -154 24 -48 -1 -114 -7 -147 -14z
m475 -276 c0 -139 -7 -149 -111 -178 -60 -16 -95 -21 -127 -16 -57 8 -182 68
-292 140 -47 30 -98 60 -115 66 -16 6 -38 15 -48 20 -9 5 -52 12 -95 16 l-77
7 45 20 c97 44 190 23 362 -81 142 -85 209 -97 331 -57 37 12 48 21 53 42 11
47 55 132 65 127 5 -4 9 -51 9 -106z m-972 -11 c-3 -7 -23 -19 -45 -26 -54
-17 -70 -48 -55 -101 15 -48 89 -133 147 -166 93 -55 252 -95 455 -115 78 -8
74 -9 -40 -5 -137 5 -268 24 -373 56 -60 18 -77 29 -135 87 -59 59 -152 195
-152 221 0 5 21 14 48 20 26 5 65 17 87 25 50 18 68 19 63 4z m-338 -33 l25
-15 -24 -6 c-13 -4 -44 -18 -70 -31 -53 -28 -184 -84 -187 -80 -2 1 6 21 16
44 36 80 169 129 240 88z m-1024 -731 c-20 -52 -17 -60 45 -139 35 -44 81
-106 104 -139 47 -69 73 -80 170 -71 60 6 60 6 40 -14 -11 -10 -47 -31 -80
-44 -80 -34 -60 -40 105 -35 72 2 130 3 130 2 0 -3 -116 -72 -147 -88 -18 -9
-46 -16 -62 -16 -28 0 -30 2 -25 29 8 40 -26 60 -62 36 -13 -8 -24 -22 -24
-30 0 -11 -11 -10 -57 7 -36 13 -89 22 -140 23 -116 5 -188 39 -297 143 l-53
51 1 68 c2 82 26 129 57 113 10 -6 29 -8 43 -4 19 4 25 1 30 -20 4 -18 13 -26
29 -26 21 1 67 31 67 45 0 10 113 125 123 125 5 0 6 -7 3 -16z m-546 -122
c-11 -22 -29 -47 -40 -57 -11 -10 -24 -33 -30 -51 -7 -19 -16 -34 -22 -34 -16
0 -1 91 20 120 20 26 82 73 89 66 2 -2 -5 -22 -17 -44z m1550 -178 c-69 -40
-326 -174 -334 -174 -4 0 -2 8 3 18 5 10 36 30 68 46 32 15 72 35 88 44 91 50
182 92 200 92 14 0 6 -9 -25 -26z m-1330 -208 c30 -13 75 -35 99 -50 37 -24
42 -30 28 -38 -20 -11 -141 20 -213 54 -81 37 -85 106 -5 71 20 -8 61 -25 91
-37z"/>
</g>
</svg>
