<?xml version="1.0" standalone="no"?>
<!DOCTYPE svg PUBLIC "-//W3C//DTD SVG 20010904//EN"
"http://www.w3.org/TR/2001/REC-SVG-20010904/DTD/svg10.dtd">
<svg version="1.0" xmlns="http://www.w3.org/2000/svg"
width="50.462428pt" height="36.000000pt" viewBox="0 0 50.462428 36.000000"
preserveAspectRatio="xMidYMid meet">
<g transform="translate(0.000000,36.000000) scale(0.010405,-0.010405)"
fill="#f2f2f2" stroke="none">
<path d="M3933 2765 c-31 -18 -43 -21 -43 -11 0 23 -22 24 -104 7 -85 -18
-110 -37 -86 -66 9 -11 22 -14 42 -10 22 5 27 3 22 -8 -3 -8 -16 -19 -30 -26
-22 -10 -25 -16 -19 -44 4 -17 13 -37 21 -43 18 -14 18 -48 1 -63 -14 -11
-396 -155 -652 -246 -82 -29 -188 -67 -234 -84 -47 -18 -90 -30 -96 -27 -15 5
-27 46 -14 46 5 0 9 9 9 20 0 13 -7 20 -18 20 -24 0 -90 194 -73 214 13 16 -2
66 -20 66 -6 0 -22 10 -34 22 l-23 22 40 23 c29 17 56 23 98 23 109 0 163 38
117 84 -23 22 -28 23 -263 28 -140 4 -246 2 -256 -3 -12 -7 -18 -22 -18 -48 0
-33 5 -42 38 -65 21 -14 43 -26 50 -26 7 0 21 -9 32 -20 12 -12 33 -20 55 -20
24 0 37 -6 45 -20 10 -18 8 -20 -20 -20 -32 0 -61 14 -92 43 -28 27 -82 19
-86 -12 -2 -14 2 -28 11 -32 8 -5 18 -24 21 -44 8 -41 41 -55 84 -36 17 8 47
10 88 6 70 -8 63 0 105 -129 19 -62 20 -70 6 -78 -19 -10 -10 -41 10 -34 14 6
39 -41 28 -52 -5 -5 -302 -26 -1005 -72 -96 -6 -202 -13 -236 -17 l-61 -5 -11
31 c-9 25 -8 31 4 31 7 0 14 9 14 21 0 15 -5 19 -22 17 -20 -3 -26 10 -70 147
-33 103 -54 154 -68 164 -20 13 -19 15 22 40 30 17 64 27 111 32 84 8 114 29
94 68 -7 14 -23 27 -37 31 -14 3 -133 6 -265 6 l-240 -1 -3 -47 c-2 -27 1 -48
6 -48 5 0 19 -9 32 -20 13 -11 30 -20 38 -20 8 0 28 -11 44 -25 24 -20 37 -24
63 -19 27 5 33 2 37 -14 3 -12 16 -22 29 -24 21 -3 30 -20 72 -148 l48 -144
-22 -17 c-25 -19 -17 -43 11 -34 15 5 21 -2 31 -33 11 -40 11 -40 -31 -78 -24
-22 -55 -46 -69 -55 -25 -15 -27 -15 -81 29 -130 106 -294 158 -470 148 -177
-10 -299 -64 -425 -191 -224 -224 -257 -556 -83 -832 83 -132 245 -248 403
-288 146 -37 365 -10 495 62 89 50 197 160 249 254 l41 76 60 7 c46 5 67 3 92
-10 28 -14 80 -17 373 -21 187 -3 529 0 760 7 373 11 424 15 457 31 43 22 77
63 85 101 3 15 13 29 22 32 69 19 228 29 236 15 9 -14 35 2 35 21 0 30 -26 48
-80 55 -40 5 -58 3 -93 -14 -62 -30 -103 -28 -121 7 -24 46 -7 84 100 229 55
76 168 230 250 342 82 112 155 206 164 209 8 3 24 17 34 30 19 24 102 82 117
82 4 0 10 -13 14 -30 3 -16 14 -31 23 -34 20 -7 34 -36 58 -121 9 -33 19 -65
21 -71 2 -6 -21 -26 -52 -43 -31 -17 -86 -62 -124 -99 -271 -268 -276 -700
-12 -963 119 -119 243 -169 419 -169 116 0 206 20 299 68 230 117 373 352 373
612 0 179 -64 333 -190 460 -127 129 -275 185 -465 178 l-95 -3 -9 27 c-5 15
-21 37 -35 49 -14 13 -26 28 -26 34 0 6 -15 33 -33 60 -18 28 -44 70 -59 95
-26 46 -68 179 -68 218 0 12 -4 22 -10 22 -5 0 -10 7 -10 15 0 19 57 55 87 55
12 0 25 5 28 10 11 17 42 11 48 -10 8 -30 57 -28 57 3 0 40 12 47 55 36 59
-15 60 -15 64 -4 2 5 -22 23 -53 39 -31 17 -56 35 -56 42 0 17 -21 31 -55 38
-21 4 -42 -2 -72 -19z m-278 -432 c-28 -26 -146 -87 -425 -220 -213 -101 -394
-183 -402 -183 -10 0 -21 20 -31 57 -9 31 -16 57 -14 58 1 1 47 16 102 34 55
19 228 82 385 141 268 101 392 146 415 149 5 0 -8 -16 -30 -36z m-159 -198
c-15 -19 -85 -114 -156 -212 -328 -451 -322 -444 -355 -441 -29 3 -30 6 -82
168 -29 91 -54 174 -55 185 -2 16 16 29 97 69 233 116 551 265 564 266 9 0 4
-12 -13 -35z m-767 -168 c12 -35 19 -70 16 -78 -3 -8 -169 -86 -368 -173 -199
-88 -393 -174 -432 -192 -38 -17 -87 -39 -109 -48 -43 -18 -131 -22 -141 -6
-11 18 -67 42 -114 49 l-46 6 -67 200 c-36 110 -67 203 -67 206 -1 3 152 11
340 17 346 13 565 29 809 61 74 10 140 19 147 20 6 0 21 -28 32 -62z m-1340
-247 c36 -109 65 -202 65 -207 1 -4 -9 -9 -21 -11 -15 -2 -23 -10 -23 -23 0
-13 -7 -19 -24 -19 -22 0 -26 7 -41 78 -21 93 -53 168 -100 233 -19 27 -35 53
-35 58 0 12 92 91 105 91 6 0 39 -90 74 -200z m-546 170 c75 -23 155 -74 176
-111 14 -25 13 -27 -30 -65 -24 -21 -71 -66 -104 -100 -59 -60 -125 -105 -125
-84 0 5 -6 10 -14 10 -22 0 -61 96 -79 196 -21 115 -21 116 4 148 26 33 78 35
172 6z m3412 -5 c30 -29 30 -34 4 -201 -21 -133 -22 -134 -48 -134 -26 0 -28
5 -67 148 l-41 147 24 23 c13 12 28 22 34 22 5 0 9 5 9 10 0 20 61 10 85 -15z
m-3695 -23 c16 -13 29 -49 50 -137 16 -66 29 -123 30 -127 0 -4 -14 -15 -31
-23 -18 -10 -29 -22 -25 -30 2 -7 -3 -20 -13 -29 -16 -15 -27 -13 -137 24
-147 49 -160 56 -174 90 -10 23 -9 35 4 62 22 46 88 109 160 152 66 40 103 45
136 18z m3924 -42 c118 -81 180 -206 127 -254 -10 -9 -69 -36 -131 -59 l-113
-43 -40 43 -40 43 23 123 c26 139 34 161 64 176 28 14 61 5 110 -29z m-495
-57 c11 -43 25 -93 30 -111 l10 -32 -51 42 c-58 49 -68 65 -68 107 0 29 29 71
49 71 5 0 18 -35 30 -77z m-1159 -114 c28 -89 50 -163 48 -165 -5 -4 -891 -24
-895 -20 -2 2 153 72 344 156 192 84 364 161 383 171 64 33 64 33 120 -142z
m1118 -36 c48 -42 89 -78 92 -80 2 -2 -2 -13 -9 -25 -7 -11 -9 -23 -4 -27 5
-3 7 -27 5 -53 l-4 -47 -121 -40 c-67 -23 -129 -41 -138 -41 -9 0 -29 10 -44
22 -27 21 -27 23 -22 107 8 145 68 261 134 261 15 0 54 -27 111 -77z m-2811
22 c12 -8 31 -43 42 -77 35 -105 45 -98 -144 -98 -202 0 -203 2 -73 113 97 82
130 94 175 62z m-753 -136 c56 -17 108 -32 116 -35 12 -3 15 -20 14 -79 l0
-75 -90 -79 c-50 -43 -100 -81 -111 -85 -32 -10 -73 14 -93 54 -27 54 -51 205
-40 259 15 81 49 87 204 40z m4273 -24 c12 -9 25 -30 28 -48 14 -71 -33 -240
-80 -291 -39 -42 -64 -34 -169 55 -53 45 -96 82 -96 84 0 2 9 22 20 46 11 24
20 55 20 69 0 24 9 29 108 62 123 42 139 44 169 23z m-1811 -58 c-15 -19 -26
-39 -26 -45 0 -7 -6 -12 -12 -13 -107 -4 -1048 -2 -1048 2 0 4 32 21 70 38
l71 31 387 9 c213 4 431 9 485 9 l98 2 -25 -33z m-1652 17 c9 -3 16 -15 16
-26 0 -19 -5 -19 -87 -14 -215 15 -231 18 -237 32 -4 12 19 14 143 14 82 0
156 -3 165 -6z m185 -11 c-7 -10 -15 -20 -16 -22 -2 -2 -3 5 -3 17 0 14 6 22
16 22 14 0 15 -3 3 -17z m2691 -97 c0 -7 10 -25 21 -40 l21 -27 -26 -136 c-30
-153 -37 -170 -73 -184 -55 -21 -187 79 -242 183 -22 40 -23 49 -12 75 14 34
27 41 191 103 120 45 120 45 120 26z m-2961 -32 c70 -7 73 -8 48 -21 -23 -11
-36 -10 -104 8 -84 23 -109 35 -53 26 19 -3 68 -9 109 -13z m-149 -45 c115
-37 174 -69 157 -85 -7 -7 -348 -43 -359 -37 -3 2 -9 21 -13 43 -6 37 -4 43
31 80 21 22 43 40 49 40 6 0 66 -18 135 -41z m-394 10 c3 -6 23 -18 42 -26
l36 -15 -24 -14 c-14 -7 -35 -13 -48 -14 -21 0 -23 -3 -17 -32 11 -54 38 -73
99 -72 l54 0 12 -67 c12 -60 11 -71 -4 -93 -9 -14 -28 -29 -42 -32 -58 -15
-214 39 -288 99 -23 19 -30 33 -30 60 0 33 9 45 95 126 51 50 97 90 101 91 4
0 10 -5 14 -11z m829 -26 c18 -42 10 -53 -38 -53 -22 0 -27 4 -23 18 3 9 8 29
12 45 9 38 31 34 49 -10z m1442 -17 l31 -44 -136 -6 c-344 -15 -563 -18 -798
-11 l-254 7 30 34 c16 19 30 39 30 44 0 12 114 15 636 18 l430 2 31 -44z
m1547 -53 c92 -87 108 -114 94 -155 -27 -77 -293 -155 -340 -100 -26 29 -26
43 -4 182 l21 134 57 1 c32 1 61 4 64 8 15 14 29 5 108 -70z m-3695 -44 c-28
-17 -40 -10 -33 19 10 39 27 46 38 16 6 -19 5 -29 -5 -35z m431 -9 c0 -6 -28
-38 -63 -73 -60 -60 -155 -117 -194 -117 -35 0 -62 30 -79 86 -26 89 -27 87
121 100 177 15 215 16 215 4z"/>
</g>
</svg>
