<?xml version="1.0" standalone="no"?>
<!DOCTYPE svg PUBLIC "-//W3C//DTD SVG 20010904//EN"
"http://www.w3.org/TR/2001/REC-SVG-20010904/DTD/svg10.dtd">
<svg version="1.0" xmlns="http://www.w3.org/2000/svg"
width="55.318127pt" height="36.000000pt" viewBox="0 0 55.318127 36.000000"
preserveAspectRatio="xMidYMid meet">
<g transform="translate(0.000000,36.000000) scale(0.004322,-0.004322)"
fill="#f2f2f2" stroke="none">
<path d="M3752 6922 c-43 -13 -91 -61 -102 -102 -20 -74 27 -164 91 -175 37
-7 140 -43 153 -54 13 -11 254 -101 269 -101 5 0 40 -15 78 -34 58 -29 95 -42
139 -51 25 -5 129 -44 185 -70 39 -18 81 -36 95 -40 59 -17 200 -70 255 -96
33 -16 67 -29 75 -29 16 0 189 -64 218 -80 9 -5 86 -35 171 -65 85 -30 159
-60 166 -65 11 -9 179 -69 269 -95 26 -8 54 -19 61 -25 6 -5 81 -35 166 -66
85 -30 173 -64 196 -76 24 -11 49 -21 55 -22 7 -2 22 -7 33 -11 60 -24 121
-47 125 -46 10 2 76 -23 95 -35 11 -7 81 -34 155 -59 74 -26 146 -54 160 -62
13 -9 92 -40 175 -69 204 -71 478 -174 490 -184 14 -12 104 -44 195 -70 41
-12 96 -32 121 -45 26 -13 111 -46 190 -75 79 -28 160 -59 179 -70 19 -10 76
-30 125 -45 50 -15 100 -33 113 -41 12 -8 22 -12 22 -8 0 4 7 1 15 -6 8 -7 15
-9 15 -5 0 4 12 0 26 -10 14 -9 96 -41 181 -71 85 -29 161 -58 167 -64 13 -10
88 -39 120 -46 11 -2 38 -12 60 -22 23 -10 64 -25 91 -32 28 -7 59 -19 70 -26
11 -6 85 -36 165 -64 80 -29 154 -58 165 -65 11 -7 83 -34 160 -59 77 -26 156
-55 175 -65 19 -10 89 -37 155 -60 66 -23 134 -49 150 -58 17 -9 86 -35 154
-58 98 -34 119 -44 101 -50 -12 -4 -48 -22 -79 -40 -31 -18 -69 -35 -85 -39
-16 -4 -41 -16 -54 -27 -14 -10 -29 -19 -34 -19 -5 0 -44 -16 -86 -36 -42 -19
-102 -47 -132 -60 -30 -14 -68 -32 -85 -41 -16 -8 -55 -28 -85 -44 -66 -33
-97 -64 -109 -107 -14 -47 4 -95 49 -136 36 -32 44 -35 87 -32 54 5 177 49
200 71 8 8 19 15 26 15 6 0 60 24 121 54 61 29 122 57 136 61 14 4 69 32 122
61 53 30 100 54 104 54 5 0 49 20 99 44 144 70 201 96 213 96 24 0 92 73 102
109 12 44 0 94 -29 125 -11 12 -45 95 -75 186 -74 224 -145 423 -154 430 -8 6
-12 21 -18 73 -3 21 -14 53 -24 72 -11 19 -17 35 -14 35 4 0 2 6 -3 13 -12 14
-98 254 -112 312 -11 43 -62 92 -109 104 -63 17 -154 -52 -166 -125 -7 -42 23
-155 66 -252 12 -26 22 -49 23 -52 1 -3 9 -22 18 -42 10 -21 19 -48 21 -60 3
-13 5 -24 7 -25 1 -2 2 -6 4 -10 1 -5 4 -15 8 -23 3 -8 12 -37 21 -65 8 -27
44 -129 79 -225 36 -96 64 -176 63 -177 -1 -1 -33 9 -71 23 -39 15 -83 28
-100 31 -16 2 -40 11 -52 19 -12 8 -91 39 -174 69 -84 31 -157 59 -163 64 -16
14 -141 59 -210 77 -34 8 -92 30 -131 48 -38 19 -126 53 -195 76 -69 23 -130
46 -136 51 -13 10 -141 59 -169 65 -31 6 -138 46 -160 60 -11 8 -73 31 -138
53 -64 22 -145 53 -179 69 -35 16 -88 37 -118 47 -56 18 -88 29 -195 70 -33
12 -123 46 -200 75 -77 28 -158 60 -180 70 -51 24 -262 101 -293 106 -13 3
-34 11 -46 19 -12 8 -86 37 -164 65 -78 27 -152 56 -165 64 -12 8 -84 35 -161
61 -76 25 -148 52 -160 60 -11 7 -84 34 -161 60 -77 26 -153 56 -170 65 -16
10 -92 39 -168 65 -76 25 -159 57 -184 71 -25 13 -52 24 -59 24 -18 0 -222 76
-255 95 -21 12 -188 72 -224 80 -11 2 -74 29 -120 50 -16 8 -91 35 -165 61
-74 26 -140 51 -145 55 -6 4 -78 32 -160 63 -83 30 -168 62 -190 70 -22 8 -91
33 -153 55 -61 22 -137 52 -166 66 -30 14 -117 48 -193 74 -219 78 -436 160
-465 176 -23 13 -235 87 -241 84 -1 -1 -12 -4 -25 -7z"/>
<path d="M0 2469 l0 -2469 6400 0 6400 0 0 38 c-1 35 -4 39 -61 71 -33 19 -90
60 -127 91 -37 31 -89 71 -115 89 -26 18 -80 61 -119 96 -39 34 -124 95 -189
134 -137 83 -188 127 -290 247 -108 128 -197 222 -349 369 -106 102 -171 154
-300 240 -90 60 -209 131 -264 158 -56 27 -113 58 -127 68 -15 10 -71 43 -125
72 -55 30 -130 73 -169 97 -150 93 -350 161 -835 284 -270 68 -456 134 -620
219 -170 87 -188 94 -472 187 -145 47 -259 77 -340 90 -68 11 -152 27 -188 35
-131 28 -288 55 -395 65 -60 6 -162 20 -225 30 -63 11 -176 27 -250 35 -74 9
-169 20 -210 25 -73 9 -254 42 -435 80 -49 11 -121 22 -160 25 -38 4 -119 15
-180 25 -117 20 -298 41 -510 61 -91 8 -170 23 -265 50 -170 48 -221 70 -355
159 -167 109 -218 135 -385 189 -85 28 -159 51 -166 51 -6 0 -76 19 -155 41
-109 31 -183 61 -303 121 -87 44 -177 91 -200 106 -176 111 -479 238 -614 258
-26 3 -94 25 -152 49 -104 42 -227 82 -325 104 -27 7 -74 21 -103 31 -171 63
-623 150 -855 165 -49 3 -109 10 -135 16 -26 6 -114 19 -197 29 -204 25 -423
100 -594 203 -121 73 -235 126 -329 153 -31 9 -69 25 -84 36 -15 10 -71 38
-125 62 -54 24 -141 67 -194 95 -52 28 -121 60 -152 70 l-57 20 0 -2470z"/>
</g>
</svg>
