<?xml version="1.0" encoding="UTF-8" standalone="no"?>
<svg




xmlns="http://www.w3.org/2000/svg"
id="Layer_1"
style="enable-background:new -0.258 -0.548 123.547 123.539"
xml:space="preserve"
viewBox="-0.258 -0.548 123.547 123.539"
version="1.1"
y="0px"
x="0px"
>
<g
id="g22">
<path
d="m 108.69,122.95 c 8.148,0 14.766,-6.617 14.766,-14.781 v -94.08 c 0,-8.156 -6.617,-14.773 -14.766,-14.773 H 14.609 c -8.156,0 -14.766,6.617 -14.766,14.773 v 94.078 c 0,8.164 6.609,14.781 14.766,14.781 h 94.081 z"
id="path2"
/>
<path
style="fill:#fff"
d="M 14.609,1.816 C 7.851,1.816 2.343,7.324 2.343,14.089 v 94.078 c 0,6.773 5.508,12.281 12.266,12.281 h 94.078 c 6.758,0 12.281,-5.508 12.281,-12.281 v -94.08 c 0,-6.766 -5.523,-12.273 -12.281,-12.273 H 14.606 Z"
id="path8"
/>
<g
id="g870"
transform="translate(83.921,-102.111)"
><g
id="g3"
transform="matrix(0.755,0,0,0.755,-73.569,112.773)">
<path
d="m 133.56,119.65 c -0.006,-0.001 -0.014,-0.001 -0.02,0 H 7.5 c -1.072,0 -2.062,-0.572 -2.598,-1.5 -0.536,-0.928 -0.536,-2.071 0,-3 L 67.921,6 c 0.535,-0.928 1.525,-1.5 2.598,-1.5 1.073,0 2.063,0.572 2.598,1.5 L 91.559,37.942 135.979,114.88 c 0.363,0.496 0.578,1.108 0.578,1.771 0,1.66 -1.35,3 -3,3 z M 17.380,112.011 122.957,111.309 70.519,18.648 17.376,112.011 Z"
id="path11"
style="opacity:1;fill:#000;fill-opacity:1;stroke-width:0.132;stroke-miterlimit:4;stroke-dasharray:none"
/>
<path
d="m 70.749,91.65 c -4.694,0 -8.5,3.806 -8.5,8.5 0,4.694 3.806,8.5 8.5,8.5 4.693,0 8.5,-3.806 8.5,-8.5 0,-4.694 -3.807,-8.5 -8.5,-8.5 z m -5,-13 c 0,2.761 2.239,5 5,5 2.76,0 5,-2.239 5,-5 l 2.914,-37.896 c 0.05,-0.362 0.086,-0.728 0.086,-1.104 0,-4.418 -3.582,-8 -8,-8 -4.419,0 -8,3.582 -8,8 0,0.375 0.035,0.742 0.085,1.104 z"
id="path13"
style="fill:#000" />
</g></g></g>
</svg>
