<?xml version="1.0" standalone="no"?>
<!DOCTYPE svg PUBLIC "-//W3C//DTD SVG 20010904//EN"
"http://www.w3.org/TR/2001/REC-SVG-20010904/DTD/svg10.dtd">
<svg version="1.0" xmlns="http://www.w3.org/2000/svg"
width="52.244898pt" height="36.000000pt" viewBox="0 0 52.244898 36.000000"
preserveAspectRatio="xMidYMid meet">
<g transform="translate(0.000000,36.000000) scale(0.004082,-0.004082)"
fill="#f2f2f2" stroke="none">
<path d="M1 8323 c0 -36 3 -43 9 -28 12 28 12 75 0 75 -5 0 -10 -21 -9 -47z"/>
<path d="M12785 8360 c3 -5 8 -10 11 -10 2 0 4 5 4 10 0 6 -5 10 -11 10 -5 0
-7 -4 -4 -10z"/>
<path d="M7885 7069 c-44 -4 -120 -15 -170 -24 -49 -9 -130 -21 -179 -26 -49
-5 -103 -11 -120 -13 -17 -3 -116 -17 -221 -31 -104 -14 -217 -29 -250 -35
-33 -5 -114 -16 -180 -25 -66 -9 -142 -20 -170 -25 -27 -5 -106 -16 -175 -25
-69 -9 -183 -25 -255 -35 -71 -11 -213 -31 -315 -45 -102 -14 -232 -32 -290
-40 -58 -9 -168 -24 -245 -35 -77 -10 -273 -37 -435 -59 -162 -23 -378 -52
-480 -66 -102 -14 -216 -30 -255 -35 -183 -26 -440 -62 -530 -75 -55 -8 -118
-16 -140 -18 -75 -8 -812 -117 -1130 -167 -695 -112 -811 -132 -827 -147 -15
-13 -18 -33 -18 -101 0 -98 11 -115 81 -126 45 -7 125 -41 145 -61 15 -15 105
-35 289 -66 195 -32 266 -46 275 -56 4 -4 30 -46 57 -93 85 -149 106 -175 168
-201 53 -23 56 -26 51 -54 -7 -50 -146 -305 -170 -315 -11 -4 -68 -15 -126
-24 -129 -19 -578 -88 -755 -117 -71 -11 -191 -31 -265 -44 -74 -13 -214 -36
-310 -50 -405 -61 -788 -127 -822 -142 -21 -9 -38 -23 -38 -32 0 -17 29 -174
33 -177 5 -4 175 -56 407 -125 149 -44 254 -80 268 -93 12 -11 49 -68 82 -127
33 -60 64 -111 69 -114 8 -4 493 -113 726 -162 39 -8 79 -23 90 -34 19 -19 17
-24 -420 -899 -242 -483 -436 -882 -433 -885 3 -4 98 -38 210 -76 l203 -68 75
17 75 17 233 445 c128 245 325 624 437 842 234 455 248 480 279 473 19 -5 263
-57 496 -106 52 -11 113 -24 135 -29 22 -5 126 -28 230 -50 224 -47 357 -77
405 -90 19 -5 71 -16 115 -25 44 -9 192 -41 329 -71 137 -30 268 -59 290 -64
23 -5 91 -20 151 -33 61 -13 239 -52 397 -87 l287 -64 25 -66 c20 -52 91 -227
145 -355 5 -11 82 -198 171 -415 90 -217 173 -417 185 -445 12 -27 32 -75 45
-105 12 -30 107 -257 209 -505 178 -428 189 -450 217 -457 16 -5 159 -40 318
-78 278 -68 290 -70 310 -53 36 30 46 46 46 74 0 26 -46 145 -113 289 -19 41
-41 95 -50 120 -13 37 -341 828 -433 1045 -14 33 -73 173 -131 310 -58 138
-121 286 -140 330 -46 107 -56 135 -50 141 2 3 33 -2 68 -11 35 -9 90 -20 122
-26 32 -5 89 -16 125 -24 37 -9 153 -34 257 -56 105 -22 262 -56 350 -76 88
-19 170 -38 182 -40 33 -8 64 3 103 34 66 54 222 201 265 250 43 49 44 50 51
146 5 70 3 101 -5 111 -18 22 -4 55 27 62 15 3 56 14 92 25 76 21 185 50 635
169 44 12 105 25 135 30 30 6 104 25 165 44 133 41 221 65 560 157 143 38 302
81 353 96 l94 26 115 -20 116 -21 95 24 c52 14 98 26 101 28 3 2 51 16 106 31
55 14 119 35 141 45 38 16 42 22 50 66 8 44 12 49 44 57 19 6 73 20 119 33 47
13 85 23 86 21 7 -11 93 -193 130 -277 26 -58 60 -134 77 -170 54 -117 75
-163 146 -320 38 -85 84 -186 102 -225 52 -113 126 -276 150 -330 13 -27 35
-77 50 -110 55 -120 68 -150 75 -175 17 -58 28 -62 295 -97 69 -9 153 -17 188
-17 53 0 66 4 87 24 22 23 23 29 15 67 -5 22 -27 79 -49 125 -21 45 -57 124
-79 173 -22 50 -59 131 -82 180 -23 50 -60 131 -82 180 -35 80 -81 180 -180
395 -17 36 -47 103 -68 150 -21 47 -77 170 -125 274 -48 104 -91 201 -96 214
l-9 24 57 -7 c87 -10 705 -115 715 -121 19 -12 98 -5 120 10 12 9 77 68 144
131 l122 115 7 85 7 85 42 0 c52 0 151 25 191 48 22 13 32 29 38 60 8 40 10
42 67 58 82 23 94 39 99 135 l3 79 -40 0 c-30 0 -45 6 -55 21 -16 22 -58 35
-152 45 -33 3 -80 10 -105 14 -25 4 -99 17 -165 28 -66 11 -158 26 -205 32
-47 6 -107 16 -133 21 -61 12 -127 12 -180 -1 -117 -26 -196 -45 -462 -110
-159 -39 -315 -76 -345 -84 -54 -13 -80 -8 -80 16 0 16 -61 148 -182 398 -60
124 -121 252 -135 285 -14 33 -29 65 -33 70 -4 6 -33 65 -63 132 l-56 123 41
10 c30 9 67 38 158 126 l118 115 7 79 c4 44 10 80 14 80 3 0 45 -7 93 -15 89
-14 135 -11 240 15 57 15 66 25 76 81 7 40 10 44 45 52 l38 9 -7 112 c-4 61
-8 112 -9 114 -2 2 -90 14 -197 28 -106 13 -220 31 -253 38 -33 8 -116 22
-185 31 -142 19 -403 59 -500 77 -36 7 -103 12 -150 11 -59 -1 -90 3 -100 12
-17 16 -332 65 -414 65 -30 0 -56 4 -58 8 -5 12 -325 63 -395 62 -34 0 -64 4
-67 9 -5 7 -58 16 -306 51 -36 5 -75 7 -87 4 -13 -4 -38 1 -55 9 -31 15 -103
27 -263 47 -81 10 -110 10 -220 -1z m1525 -1089 c135 -22 258 -43 274 -46 29
-6 45 -36 161 -289 132 -289 195 -427 235 -510 16 -33 49 -107 74 -163 l46
-104 -38 6 c-89 13 -390 59 -532 82 -85 14 -186 29 -225 35 -38 6 -106 17
-150 24 -44 7 -100 16 -125 20 -44 6 -50 12 -210 197 -91 105 -205 237 -255
293 -195 222 -224 259 -212 267 6 4 53 14 103 23 116 21 154 43 154 87 0 18 4
38 8 44 4 6 50 19 102 28 52 10 140 26 195 36 55 10 111 16 125 14 14 -2 135
-22 270 -44z m-1740 -216 c0 -9 -125 -240 -175 -322 -6 -9 -25 -45 -44 -79
-19 -35 -40 -63 -47 -63 -7 0 -35 5 -61 10 l-48 11 3 49 c4 48 5 50 40 55 89
14 86 11 92 110 3 50 4 96 2 103 -5 14 -11 15 -137 35 l-90 13 70 13 c39 7
115 21 170 31 226 43 225 43 225 34z m510 -482 c51 -56 90 -105 87 -108 -8 -9
-307 38 -307 48 0 5 23 49 51 99 41 73 54 88 63 77 7 -7 54 -59 106 -116z
m-4849 8 c60 0 82 -4 100 -19 40 -32 13 -47 -98 -54 -54 -4 -113 -11 -132 -17
-19 -5 -37 -8 -39 -6 -2 3 9 28 25 56 22 40 32 50 48 46 11 -3 54 -6 96 -6z
m2833 -198 c36 -54 73 -105 83 -113 10 -9 60 -21 113 -28 52 -7 187 -29 300
-48 303 -52 432 -73 460 -76 16 -2 24 -8 22 -17 -3 -13 -89 -173 -324 -600
-41 -74 -87 -157 -103 -185 -15 -27 -39 -70 -53 -95 -13 -25 -37 -68 -53 -96
-32 -56 -3 -45 -289 -113 -91 -21 -237 -56 -324 -77 -156 -37 -160 -37 -235
-25 -42 7 -76 14 -77 14 -1 2 -157 383 -217 532 -25 61 -54 130 -65 155 -38
85 -242 601 -242 612 0 11 17 10 160 -16 100 -17 154 -16 195 6 17 9 72 59
123 111 l92 94 98 18 c53 10 124 24 157 30 111 24 106 26 179 -83z m-2199
-302 c234 -41 231 -40 298 -26 63 13 64 13 59 -8 -8 -30 -88 -137 -335 -450
-130 -164 -225 -276 -235 -276 -9 0 -123 23 -252 50 -129 28 -287 62 -350 75
-63 13 -190 40 -282 60 -91 19 -173 35 -182 35 -11 0 8 46 68 168 46 92 91
174 100 181 9 8 229 52 509 101 270 48 501 90 512 93 11 2 22 5 25 6 3 0 32
-4 65 -9z m3906 -84 c79 -13 218 -36 309 -50 180 -29 315 -51 400 -66 30 -5
100 -17 155 -26 62 -10 108 -23 120 -34 11 -10 54 -25 95 -33 62 -12 79 -12
100 -2 21 11 48 9 167 -9 79 -12 145 -24 148 -27 4 -5 -123 -38 -440 -114 -55
-13 -183 -44 -285 -69 -102 -25 -225 -54 -275 -66 -49 -11 -126 -29 -170 -40
-44 -11 -138 -33 -210 -50 -71 -17 -202 -49 -290 -70 -88 -22 -200 -48 -250
-59 -49 -12 -116 -27 -147 -34 l-57 -14 16 31 c29 57 315 570 370 664 43 73
59 92 77 92 12 0 87 -11 167 -24z m-5772 -249 c8 -10 3 -21 -23 -46 -34 -33
-36 -33 -100 -26 -77 8 -119 33 -97 58 21 26 200 37 220 14z m2752 -415 c54
-135 97 -248 94 -250 -4 -5 -111 15 -315 58 -74 16 -161 34 -192 40 -32 6 -58
15 -58 20 0 7 157 218 223 300 7 8 21 29 31 45 10 17 33 46 50 66 l31 35 19
-35 c10 -19 63 -145 117 -279z"/>
</g>
</svg>
