<?xml version="1.0" standalone="no"?>
<!DOCTYPE svg PUBLIC "-//W3C//DTD SVG 20010904//EN"
"http://www.w3.org/TR/2001/REC-SVG-20010904/DTD/svg10.dtd">
<svg version="1.0" xmlns="http://www.w3.org/2000/svg"
width="51.695733pt" height="36.000000pt" viewBox="0 0 51.695733 36.000000"
preserveAspectRatio="xMidYMid meet">
<g transform="translate(0.000000,36.000000) scale(0.003340,-0.003340)"
fill="#4d4d4d" stroke="none">
<path d="M1855 10465 c-51 -10 -122 -27 -173 -41 -16 -5 -8 -37 19 -75 18 -26
18 -27 0 -40 -27 -20 -71 -139 -71 -193 0 -40 5 -49 41 -83 22 -21 47 -42 55
-46 8 -4 14 -22 14 -40 0 -20 19 -66 51 -122 28 -49 68 -124 90 -166 35 -70
62 -104 78 -104 3 0 25 -26 49 -57 41 -54 133 -142 298 -282 38 -33 68 -63 67
-68 -2 -4 1 -7 6 -5 5 1 69 -55 143 -124 73 -69 171 -161 218 -204 47 -43 112
-103 145 -134 33 -31 82 -76 110 -101 27 -25 50 -49 50 -55 0 -5 10 -14 22
-21 13 -6 37 -25 55 -42 46 -45 118 -102 128 -102 5 0 21 -24 35 -52 39 -78
79 -115 183 -165 50 -25 92 -49 92 -54 0 -4 34 -36 75 -70 41 -35 78 -71 81
-81 3 -10 10 -18 16 -18 14 0 98 -73 184 -160 47 -47 81 -74 96 -75 13 0 50
-15 83 -32 33 -16 84 -36 113 -43 32 -7 52 -17 52 -26 0 -16 41 -19 57 -3 7 7
47 7 129 1 113 -9 137 -7 189 18 34 16 141 40 177 40 23 0 42 7 54 21 10 12
45 39 77 61 32 22 61 46 63 53 3 7 18 18 32 24 34 14 53 44 63 96 23 119 19
123 91 -102 37 -114 68 -217 70 -227 2 -16 -8 -23 -57 -38 -74 -22 -99 -49
-91 -97 11 -68 52 -86 136 -56 24 8 45 14 47 12 2 -3 25 -73 52 -158 27 -85
51 -161 55 -170 7 -16 -23 -61 -219 -324 -61 -82 -124 -169 -141 -192 -16 -23
-83 -117 -150 -210 -66 -92 -146 -205 -177 -249 l-57 -82 -117 64 c-599 325
-1310 438 -1993 319 -902 -157 -1707 -738 -2151 -1553 -494 -906 -494 -2018 0
-2924 366 -671 967 -1180 1691 -1433 556 -194 1187 -219 1765 -70 726 187
1368 643 1783 1265 76 115 61 106 187 113 28 2 55 5 60 7 6 2 33 5 60 7 28 1
77 5 110 8 33 3 81 5 107 5 26 0 59 5 73 10 15 6 34 6 49 1 16 -7 32 -5 49 4
15 8 42 11 65 8 22 -3 48 0 60 6 14 8 29 8 47 1 20 -7 34 -6 56 6 19 9 38 12
52 8 23 -8 42 -7 67 3 8 4 38 7 65 9 46 2 79 5 210 19 28 3 74 7 103 9 30 2
60 11 71 20 10 9 33 16 53 16 21 0 44 8 58 20 13 11 33 20 46 20 13 0 38 13
56 28 18 16 45 32 59 35 14 4 31 18 37 32 6 13 28 33 49 42 23 11 39 27 43 42
3 14 19 32 35 41 18 10 33 29 39 49 5 17 22 41 38 52 18 13 28 29 28 46 0 14
11 38 24 54 16 18 22 36 19 49 -4 13 3 33 16 50 13 19 21 44 21 70 0 24 5 42
13 44 6 2 113 9 237 16 551 29 496 23 538 57 79 63 97 170 43 255 -16 26 -40
52 -53 59 -13 7 -68 15 -122 18 l-99 6 94 100 c330 348 339 358 339 386 0 15
-4 39 -9 52 -7 18 -5 31 6 48 26 38 42 47 100 55 48 6 60 12 96 51 23 25 48
50 55 56 50 43 82 85 82 108 0 15 -15 42 -35 66 -29 34 -35 49 -35 86 0 25 5
49 11 52 5 4 14 18 19 31 5 13 16 24 25 24 21 0 19 12 -7 46 -35 44 -120 114
-140 114 -5 0 -8 -9 -8 -20 0 -11 -6 -20 -14 -20 -7 0 -25 -9 -39 -20 -37 -30
-89 -26 -139 10 -22 17 -51 30 -62 30 -29 0 -96 -57 -96 -81 0 -10 -4 -19 -10
-19 -5 0 -27 -18 -48 -41 -39 -40 -52 -75 -52 -142 0 -16 -10 -38 -25 -53 -23
-23 -30 -24 -83 -18 l-58 6 -99 -108 c-55 -60 -114 -125 -131 -144 -203 -226
-335 -360 -353 -360 -4 0 -13 11 -21 24 -11 22 -9 29 35 83 43 52 87 101 220
243 40 43 252 284 304 346 29 34 380 434 396 450 15 16 126 141 176 200 105
122 159 184 394 454 136 157 271 312 299 344 28 33 58 67 66 76 8 9 56 63 105
120 207 240 257 295 269 292 22 -4 126 113 128 145 1 15 9 35 17 44 9 9 38 42
66 75 60 71 131 143 241 245 45 41 97 93 117 116 l34 42 12 -38 c6 -21 11 -46
11 -55 0 -9 4 -16 10 -16 5 0 7 -6 4 -14 -7 -19 23 -176 48 -251 11 -33 35
-91 54 -129 19 -38 31 -72 27 -76 -4 -4 -44 -30 -88 -60 -299 -198 -613 -516
-825 -834 -627 -940 -681 -2166 -141 -3158 366 -671 967 -1180 1691 -1433 556
-194 1187 -219 1765 -70 1078 278 1922 1122 2200 2200 67 260 95 484 95 765 0
821 -316 1586 -895 2165 -579 579 -1344 895 -2165 895 -347 0 -673 -53 -985
-160 -103 -35 -95 -38 -142 55 -34 67 -124 203 -156 238 -16 17 -44 77 -73
160 -61 174 -162 453 -179 497 -29 72 -65 173 -65 183 0 6 21 -24 47 -68 48
-83 127 -187 185 -242 55 -54 113 -103 121 -103 4 0 45 -25 91 -55 53 -35 93
-55 112 -55 16 0 61 15 99 33 39 19 97 45 130 58 33 13 79 39 103 56 24 18 50
33 57 33 8 0 40 22 72 49 l59 48 44 -38 c37 -32 53 -39 88 -39 48 0 92 33 92
68 0 11 16 52 35 91 19 39 35 81 35 93 0 27 -33 81 -43 71 -4 -3 -7 0 -7 8 0
9 -16 21 -35 29 -24 10 -43 28 -60 57 -22 41 -23 45 -8 63 38 44 45 130 11
130 -7 0 -21 21 -30 46 l-16 45 52 -6 c35 -5 65 -2 96 9 25 9 62 16 84 16 90
0 160 85 200 243 14 58 14 59 -26 195 -41 141 -97 258 -153 322 -46 51 -105
136 -105 149 0 6 -4 11 -8 11 -5 0 -18 13 -30 29 l-21 29 66 31 c36 18 91 38
123 45 31 7 66 18 78 25 64 34 122 -7 122 -87 0 -43 -4 -50 -70 -118 -79 -81
-81 -89 -51 -195 23 -82 30 -94 86 -160 25 -29 45 -58 45 -63 0 -6 22 -31 50
-56 28 -25 52 -52 53 -61 4 -24 26 -48 58 -65 38 -19 48 -18 55 10 4 18 -3 36
-29 69 -56 74 -61 112 -54 449 l6 298 -33 78 -34 78 24 70 c13 39 30 83 38 98
31 61 -26 151 -124 195 -107 49 -200 5 -257 -122 -28 -61 -85 -120 -138 -143
-56 -23 -177 -44 -255 -44 -41 0 -91 -4 -110 -10 -53 -14 -183 -15 -300 -2
-58 6 -161 13 -230 14 -115 3 -128 1 -164 -20 -45 -27 -112 -52 -140 -52 -10
0 -36 -19 -56 -41 l-37 -41 -234 -40 c-137 -22 -261 -38 -299 -37 -179 6 -215
-2 -295 -61 -77 -57 -99 -85 -91 -114 5 -22 12 -25 58 -28 l52 -3 19 -49 18
-50 -35 -32 c-38 -35 -43 -52 -25 -86 9 -16 17 -19 43 -14 31 6 32 5 48 -46 9
-29 29 -88 44 -130 28 -75 28 -77 10 -97 -13 -14 -16 -24 -9 -33 6 -7 13 -28
16 -45 6 -30 4 -33 -21 -38 -15 -4 -45 -10 -67 -15 -22 -5 -98 -21 -170 -35
-71 -15 -132 -28 -134 -31 -2 -2 -10 1 -16 6 -8 7 -22 7 -36 2 -13 -5 -109
-27 -214 -48 -104 -21 -192 -41 -195 -45 -5 -8 -53 -19 -250 -59 -52 -11 -160
-33 -240 -50 -80 -17 -221 -46 -315 -65 -93 -19 -235 -48 -315 -65 -221 -46
-527 -107 -705 -140 -141 -26 -161 -28 -171 -15 -10 13 -25 12 -130 -9 -65
-13 -164 -32 -219 -41 -73 -13 -107 -24 -125 -40 -20 -18 -57 -28 -185 -49
-519 -88 -886 -142 -906 -134 -22 9 -75 174 -60 191 8 10 6 20 -6 37 -9 13
-19 40 -22 59 -5 27 -12 37 -30 41 -26 6 -24 0 -137 364 -35 115 -45 161 -36
164 6 2 12 10 12 17 0 20 -119 384 -144 437 -16 36 -27 48 -43 48 -14 0 -24 8
-29 23 -11 36 -47 105 -109 212 -91 156 -93 160 -109 216 -9 29 -16 53 -16 54
0 1 25 5 56 9 106 12 110 15 270 197 l93 106 101 12 c55 6 191 11 302 11 179
0 202 2 214 18 19 25 17 37 -12 72 -40 46 -95 70 -217 91 -136 24 -384 25
-732 4 -310 -19 -690 -19 -870 0 -155 16 -217 28 -447 86 -188 47 -198 47
-198 15 0 -14 7 -32 16 -40 14 -15 14 -17 -1 -22 -24 -9 -106 25 -137 58 -14
15 -33 28 -41 28 -20 0 -27 21 -14 42 16 24 -16 68 -51 70 -15 0 -38 2 -52 2
-23 2 -72 30 -106 61 -7 5 -64 57 -128 114 -64 57 -116 107 -116 111 0 8 -107
92 -137 109 -11 5 -105 28 -209 51 -104 22 -223 53 -264 69 -127 49 -256 61
-375 36z m3260 -1095 c-35 -36 -76 -66 -100 -74 -50 -18 -261 -31 -295 -18
l-25 10 25 10 c92 35 406 128 445 131 5 1 -17 -26 -50 -59z m5475 -727 c0 -49
-54 -269 -71 -289 -5 -6 -6 -13 -3 -17 3 -3 -4 -10 -15 -17 -22 -11 -28 -30
-11 -30 22 0 109 93 130 138 13 26 30 77 38 115 9 37 20 67 24 67 11 0 10 -77
-2 -98 -5 -9 -19 -48 -29 -87 -11 -38 -28 -90 -37 -115 -17 -44 -22 -68 -45
-200 -22 -134 -19 -135 -73 12 -74 198 -86 224 -116 235 -16 6 -30 22 -37 44
-6 19 -25 72 -42 119 -17 47 -30 91 -31 97 0 7 14 20 30 28 31 16 181 42 253
44 l37 1 0 -47z m-286 -1295 c44 -118 79 -236 78 -257 -1 -14 -31 -56 -69
-100 -37 -42 -69 -78 -71 -81 -2 -3 -8 4 -14 15 -19 35 -92 96 -121 102 -46 9
-43 29 13 90 52 57 151 237 143 261 -3 6 2 12 10 12 9 0 22 -18 31 -42z
m-3950 -262 c29 -12 35 -21 45 -67 15 -69 40 -158 52 -187 14 -35 11 -62 -7
-62 -34 0 -127 -33 -145 -51 -11 -11 -76 -39 -147 -63 -189 -66 -265 -95 -276
-106 -16 -16 -23 -11 -30 22 -3 17 -31 110 -62 206 -47 145 -54 177 -42 187
13 13 510 133 556 134 12 1 38 -5 56 -13z m3621 -221 c20 -25 58 -60 85 -78
l47 -32 -144 -165 c-80 -91 -156 -177 -168 -192 -25 -30 -55 -29 -55 2 0 9
-24 39 -52 65 -29 26 -67 61 -85 78 l-32 30 117 111 c64 61 141 137 171 169
30 31 59 57 66 57 7 0 29 -20 50 -45z m-4441 -233 c31 -101 54 -187 52 -191
-7 -10 43 -164 55 -171 8 -5 72 -204 200 -625 36 -118 65 -208 115 -365 20
-63 46 -149 59 -190 21 -72 63 -204 196 -625 34 -104 69 -214 80 -244 16 -43
17 -56 7 -62 -7 -5 -16 -9 -19 -9 -10 0 -83 -60 -91 -75 -5 -7 4 -52 19 -100
24 -77 31 -89 56 -97 l28 -10 -31 -19 c-27 -17 -29 -22 -19 -40 9 -18 17 -20
50 -16 41 5 39 7 54 -58 8 -38 23 -55 46 -55 18 0 24 -16 19 -50 -1 -8 -4 -17
-6 -19 -9 -10 -219 -9 -231 1 -7 5 -16 7 -21 4 -5 -3 -12 29 -16 72 -32 364
-167 798 -354 1142 -56 103 -212 351 -232 370 -3 3 -46 55 -95 115 -158 193
-421 439 -592 552 l-51 35 46 62 c97 129 345 484 394 564 21 33 55 82 75 110
21 28 61 83 88 121 28 38 53 66 56 63 4 -4 32 -89 63 -190z m1113 -122 c18
-16 40 -30 48 -30 7 0 34 -9 59 -19 39 -17 86 -22 323 -31 187 -7 316 -18 393
-31 195 -34 223 -38 300 -44 41 -3 102 -10 135 -15 33 -5 123 -16 200 -25 77
-8 167 -20 200 -25 176 -27 556 -60 690 -60 114 0 119 1 193 36 79 38 130 72
194 132 l37 35 30 -24 c16 -13 28 -29 26 -35 -2 -7 12 -26 30 -44 19 -18 31
-38 28 -43 -3 -6 -1 -7 4 -4 6 4 22 -2 36 -13 14 -11 31 -20 39 -20 24 0 39
-21 25 -35 -19 -19 -82 -92 -428 -491 -80 -93 -162 -187 -182 -209 -20 -22
-68 -78 -108 -125 -40 -47 -120 -139 -178 -205 -59 -66 -121 -138 -139 -160
-18 -22 -54 -61 -78 -87 -39 -40 -50 -46 -74 -42 -23 5 -31 1 -46 -21 -14 -22
-15 -31 -5 -46 15 -25 18 -20 -109 -164 -58 -66 -140 -163 -182 -215 -42 -52
-95 -115 -118 -140 -23 -25 -81 -90 -128 -145 -48 -55 -89 -102 -92 -105 -3
-3 -68 -79 -145 -170 -76 -91 -142 -167 -145 -170 -3 -3 -43 -49 -89 -103 -77
-89 -86 -97 -116 -94 -17 2 -46 14 -63 27 -20 15 -38 21 -53 17 -13 -3 -38 2
-60 13 -28 15 -44 18 -62 11 -18 -7 -31 -5 -47 6 -18 13 -29 14 -57 5 -19 -6
-44 -8 -56 -5 -24 6 -52 7 -82 1 -11 -1 -20 2 -20 7 0 6 -6 24 -12 40 -7 17
-31 95 -53 175 -23 80 -45 154 -50 165 -5 11 -30 88 -54 170 -24 83 -75 240
-111 350 -37 110 -77 241 -91 290 -13 50 -53 180 -89 290 -90 275 -116 356
-170 535 -26 85 -51 164 -56 175 -4 11 -31 94 -60 185 -28 91 -64 206 -80 255
-16 50 -29 95 -29 102 0 13 46 29 210 73 63 16 196 52 295 79 99 27 182 50
184 50 2 1 19 -12 38 -29z m5979 -811 c351 -58 407 -75 679 -203 402 -191 761
-519 972 -890 162 -283 238 -491 294 -801 25 -138 36 -493 20 -605 -7 -41 -14
-95 -16 -120 -14 -136 -92 -410 -161 -565 -53 -118 -148 -291 -215 -392 -142
-211 -377 -443 -626 -616 -131 -92 -502 -263 -608 -281 -22 -4 -60 -13 -85
-21 -25 -8 -99 -24 -165 -36 -160 -29 -505 -36 -675 -14 -179 23 -446 96 -580
157 -241 111 -368 186 -536 319 -185 146 -416 409 -521 592 -21 37 -55 97 -75
133 -51 89 -131 281 -163 389 -93 310 -127 708 -83 955 5 30 10 62 10 70 0 65
78 379 112 454 14 28 38 85 55 126 32 80 78 173 114 230 32 50 45 71 63 105
42 75 188 251 303 365 145 145 190 182 322 274 l97 66 89 -143 c52 -81 173
-308 285 -532 174 -350 196 -398 207 -468 7 -42 10 -91 6 -108 -5 -20 -2 -38
9 -54 21 -31 20 -35 -3 -35 -11 0 -26 -9 -34 -20 -8 -11 -16 -18 -18 -16 -2 3
-12 -8 -21 -25 -16 -28 -16 -30 7 -58 23 -27 24 -29 7 -44 -10 -9 -27 -14 -37
-11 -14 3 -27 -5 -42 -28 -22 -31 -22 -33 -4 -43 25 -14 17 -33 -34 -81 l-43
-40 5 -65 c6 -70 18 -86 45 -62 17 15 18 10 19 -115 1 -73 3 -136 4 -142 1 -5
3 -19 4 -31 0 -11 19 -39 42 -61 37 -37 41 -44 35 -78 -16 -99 189 -292 369
-350 22 -7 44 -15 50 -18 13 -8 34 -11 138 -18 105 -8 215 9 251 37 14 11 33
22 43 24 10 2 52 19 93 38 58 27 90 51 140 104 36 38 72 78 80 89 27 34 70
121 70 140 0 9 3 14 7 10 11 -10 32 91 42 193 5 54 4 119 -4 180 -12 97 -27
138 -91 246 -17 28 -33 59 -37 69 -4 10 -10 16 -14 12 -4 -3 -14 4 -22 17 -70
105 -303 222 -454 229 l-66 2 -42 91 c-24 49 -78 164 -122 255 -43 91 -116
246 -162 345 -98 214 -201 433 -283 606 -80 169 -79 162 -39 178 73 29 351 87
480 101 104 11 423 5 513 -11z m-9151 -43 c245 -45 480 -122 678 -222 l77 -39
-114 -165 c-63 -91 -141 -203 -173 -250 -33 -47 -159 -227 -280 -400 -121
-173 -231 -331 -244 -351 -73 -110 -111 -159 -120 -154 -5 4 -46 10 -92 14
-72 7 -106 5 -227 -13 -14 -3 -30 -5 -36 -5 -6 -1 -34 -19 -62 -41 -38 -30
-59 -40 -87 -40 -28 0 -50 -10 -96 -46 -32 -25 -64 -55 -70 -67 -7 -12 -24
-33 -38 -47 -43 -41 -114 -177 -137 -262 -20 -75 -29 -217 -16 -259 6 -19 13
-55 17 -81 5 -36 15 -56 46 -90 35 -36 40 -47 36 -74 -6 -35 17 -82 60 -122
l24 -24 -32 -16 c-44 -23 -89 -89 -91 -134 -1 -27 7 -47 28 -74 16 -20 34 -44
39 -53 6 -9 14 -19 19 -22 5 -4 6 -11 2 -17 -10 -17 17 -30 97 -44 l78 -15 21
29 c19 28 24 29 67 23 25 -4 58 -13 72 -21 15 -7 29 -10 33 -7 3 3 14 -1 24
-10 30 -27 111 -40 275 -41 147 -1 159 -2 175 -22 9 -11 29 -25 43 -31 15 -7
29 -23 33 -37 3 -14 -3 -101 -14 -193 -11 -93 -22 -190 -25 -218 -3 -27 -8
-63 -10 -78 -3 -15 2 -38 10 -51 17 -25 15 -85 -6 -180 l-12 -59 29 -24 c16
-12 39 -23 51 -23 12 0 70 18 128 41 67 26 112 38 123 33 9 -4 22 -6 27 -4 14
5 189 13 230 11 11 0 49 2 85 4 72 5 103 7 140 6 73 0 147 6 162 13 10 4 31 3
48 -2 22 -8 36 -8 56 3 19 10 34 11 52 4 17 -7 34 -6 53 1 15 7 36 10 47 8 27
-4 17 -17 -78 -96 -41 -34 -82 -69 -90 -76 -8 -7 -28 -22 -45 -32 -16 -10 -34
-22 -40 -26 -143 -108 -439 -257 -603 -304 -26 -7 -78 -22 -117 -34 -102 -30
-261 -62 -332 -67 -34 -2 -100 -7 -148 -11 -96 -9 -319 0 -446 18 -194 27
-455 104 -644 190 -206 93 -541 320 -605 409 -12 17 -25 31 -30 31 -27 0 -302
328 -314 374 -3 14 -10 26 -15 26 -15 0 -136 216 -190 341 -19 43 -27 64 -72
189 -106 294 -142 729 -88 1084 14 94 74 332 100 398 11 29 28 73 36 98 22 66
160 334 199 388 18 26 63 88 99 137 129 178 375 415 535 515 30 19 58 38 61
43 4 5 12 6 19 2 8 -5 11 -4 7 2 -11 18 245 155 393 210 177 67 417 127 565
143 132 14 536 5 640 -14z m999 -420 c118 -85 243 -200 380 -350 178 -196 382
-558 454 -806 51 -176 76 -292 76 -352 1 -32 4 -58 9 -58 4 0 7 -8 7 -19 0
-15 -9 -20 -42 -24 -70 -9 -175 -2 -192 12 -11 9 -28 11 -53 6 -64 -12 -156
-14 -176 -4 -12 7 -22 7 -31 0 -7 -6 -25 -7 -42 -3 -16 3 -53 5 -83 4 -29 -1
-62 3 -73 9 -14 7 -23 7 -34 -1 -8 -8 -25 -10 -41 -5 -25 6 -121 15 -165 14
-102 -1 -202 5 -215 14 -7 4 -21 2 -32 -5 -16 -10 -27 -10 -56 1 -20 7 -49 10
-66 6 -17 -4 -43 -2 -60 6 -20 8 -33 9 -40 2 -15 -15 -121 6 -139 27 -8 10
-27 20 -42 24 -27 6 -48 46 -48 92 0 27 -87 124 -112 124 -19 0 -30 -24 -21
-47 5 -12 -4 -8 -29 12 -57 48 -74 62 -92 72 -13 7 57 113 436 651 249 353
455 642 457 642 2 0 31 -20 65 -44z m-603 -1617 c14 -7 29 -7 50 0 21 7 38 6
61 -4 23 -9 38 -10 51 -3 11 5 30 6 45 2 24 -7 94 -13 172 -13 37 0 58 -1 135
-6 97 -6 97 -6 125 -6 14 0 54 -2 90 -4 36 -2 79 -4 95 -4 17 0 47 -1 68 -1
21 0 46 -4 55 -9 11 -6 45 -6 90 -1 50 7 80 6 97 -2 19 -8 31 -8 51 1 14 6 31
8 37 4 11 -7 123 -14 172 -12 19 1 44 1 111 -3 l31 -2 7 -83 c3 -45 3 -127 0
-182 l-7 -99 -51 -6 c-94 -11 -240 -6 -386 13 -374 50 -601 83 -747 107 -24 3
-48 13 -54 20 -6 8 -17 14 -23 14 -14 0 -49 25 -81 58 -12 12 -27 22 -34 22
-6 0 -19 4 -29 9 -9 5 -30 15 -45 22 -30 14 -57 55 -57 87 0 10 -13 31 -30 47
-41 40 -41 57 1 34z m2404 -81 c11 0 30 2 43 5 12 3 22 3 22 0 0 -7 -79 -102
-142 -170 l-48 -52 0 109 c0 105 1 109 23 113 12 3 36 3 52 0 17 -2 39 -4 50
-5z m734 -271 c25 -7 46 -18 49 -24 4 -15 -95 -123 -114 -123 -7 0 -22 27 -33
63 -10 34 -22 70 -26 80 -6 15 -1 17 36 16 24 0 64 -6 88 -12z m-3139 -137
c10 -5 65 -17 122 -25 177 -27 381 -65 430 -81 36 -12 52 -13 68 -4 17 9 35 7
93 -14 66 -24 552 -125 676 -141 l53 -7 -31 -29 c-38 -34 -52 -69 -53 -131 0
-32 7 -59 22 -83 19 -30 20 -40 11 -67 -62 -177 -228 -462 -367 -629 -90 -108
-131 -142 -161 -134 -13 3 -29 2 -36 -2 -11 -7 -94 -14 -157 -12 -28 1 -38 0
-133 -4 -37 -2 -70 -6 -73 -9 -3 -4 -19 -2 -35 2 -18 5 -41 5 -58 -1 -19 -7
-47 -7 -80 -1 -28 5 -48 6 -46 1 8 -12 -18 -17 -44 -7 -14 5 -32 6 -40 2 -9
-5 -41 -8 -71 -9 -30 0 -65 -4 -78 -9 -23 -8 -23 -8 -7 24 11 22 15 47 11 85
-4 45 -11 59 -41 90 -25 24 -35 43 -32 55 6 22 -14 41 -60 59 -65 26 -68 37
-65 196 3 120 0 155 -17 221 -11 44 -23 108 -25 144 -4 64 -16 137 -37 212
-10 38 -9 39 46 101 32 34 73 92 93 129 45 81 77 102 122 78z m2308 -74 c-2
-12 -12 -22 -23 -24 -18 -2 -20 2 -16 45 l3 47 20 -24 c10 -13 18 -33 16 -44z
m965 31 c25 -12 35 -22 30 -30 -4 -7 -14 -22 -22 -33 l-14 -21 -38 25 c-22 14
-39 28 -39 32 0 11 32 51 38 47 4 -1 24 -11 45 -20z m-586 -44 c11 -16 24 -40
30 -54 l11 -26 -60 -7 c-59 -6 -108 0 -108 13 0 3 9 22 21 41 39 66 76 77 106
33z m40 -475 c38 -14 40 -23 13 -58 -11 -14 -20 -35 -20 -48 0 -36 -29 -85
-46 -78 -9 3 -19 6 -23 6 -17 0 -111 156 -111 185 0 10 154 5 187 -7z m807
-10 c-15 -52 -60 -119 -82 -125 -45 -11 -86 69 -54 106 18 21 68 39 115 40 25
1 28 -2 21 -21z m-1314 1 c0 -5 14 -15 30 -20 33 -12 40 -39 15 -59 -23 -19
-18 -28 20 -44 35 -15 48 -47 25 -61 -20 -12 -9 -34 19 -40 43 -9 58 -31 37
-54 -20 -22 -6 -37 39 -43 28 -3 30 -6 30 -43 0 -38 1 -40 28 -37 41 4 59 -14
51 -51 l-6 -30 46 7 c49 8 49 8 50 -44 1 -26 3 -26 67 -13 26 5 46 -17 33 -38
-9 -15 27 -23 48 -10 25 16 58 5 58 -20 0 -27 27 -35 50 -14 20 19 51 17 58
-3 3 -9 -3 -11 -22 -6 -15 3 -32 1 -40 -5 -7 -6 -33 -11 -57 -11 -24 0 -73 -2
-109 -5 -36 -3 -85 -7 -110 -8 -25 -2 -53 -7 -63 -11 -9 -5 -37 -5 -61 -2 -28
4 -47 3 -51 -4 -3 -6 -30 -10 -58 -10 -29 0 -77 -2 -107 -5 -153 -14 -216 -18
-252 -15 -7 0 -35 -2 -61 -6 l-48 -7 55 104 c91 173 141 298 241 607 5 15 45
16 45 1z m900 -126 c14 -9 39 -29 57 -46 17 -16 42 -35 55 -41 29 -15 35 -56
11 -78 -46 -41 -218 -62 -306 -37 -50 13 -67 47 -43 84 9 14 23 25 31 25 8 0
15 4 15 10 0 20 63 80 94 89 46 14 59 13 86 -6z"/>
<path d="M8656 6003 c-6 -17 -62 -60 -99 -75 -12 -5 -36 2 -71 22 -29 17 -61
30 -72 30 -24 0 -94 -69 -94 -92 0 -9 -3 -18 -8 -20 -4 -1 -24 -23 -44 -48
-32 -41 -36 -52 -40 -118 -3 -66 -6 -75 -33 -96 -24 -20 -34 -22 -62 -14 -19
5 -42 7 -52 3 -10 -3 -57 -56 -104 -118 -473 -614 -477 -620 -517 -749 -16
-50 -17 -66 -7 -80 13 -19 378 -313 409 -329 10 -6 27 -8 37 -4 20 6 96 93
163 186 60 83 230 312 243 326 5 6 21 26 35 43 14 18 55 71 93 119 153 196
159 204 152 235 -3 16 -12 37 -20 46 -12 13 -13 22 -3 48 10 26 23 36 66 52
29 11 59 20 66 20 7 0 35 27 62 61 27 33 64 78 82 101 44 54 42 81 -13 139
-48 52 -57 89 -30 125 8 10 15 27 15 37 0 10 7 20 15 23 8 4 15 12 15 19 0 24
-136 125 -169 125 -5 0 -12 -8 -15 -17z"/>
<path d="M6527 5989 c-47 -11 -97 -36 -97 -49 0 -6 5 -10 10 -10 14 0 12 -101
-3 -128 -7 -12 -41 -36 -75 -52 -59 -28 -62 -31 -62 -64 0 -20 7 -55 15 -78 8
-24 19 -67 25 -96 10 -45 19 -58 66 -98 49 -43 54 -50 54 -88 0 -35 -5 -46
-30 -64 -35 -26 -37 -50 -15 -126 8 -28 30 -114 49 -191 19 -77 51 -203 71
-280 74 -283 94 -367 88 -381 -3 -8 0 -21 6 -28 9 -11 9 -19 0 -33 -15 -24 17
-96 45 -101 21 -4 157 31 226 58 25 10 77 25 115 34 39 9 104 26 146 38 73 20
77 23 98 65 11 24 21 53 21 65 0 23 -198 808 -232 918 -24 80 -30 87 -80 100
-29 8 -43 19 -55 45 -16 32 -15 36 10 95 27 61 27 62 11 128 -8 37 -20 87 -25
112 -6 25 -17 56 -26 69 -14 22 -19 23 -78 17 -41 -4 -72 -2 -89 5 -30 14 -78
93 -69 114 4 12 -4 15 -38 14 -24 -1 -61 -5 -82 -10z"/>
</g>
</svg>
