<?xml version="1.0" standalone="no"?>
<!DOCTYPE svg PUBLIC "-//W3C//DTD SVG 20010904//EN"
"http://www.w3.org/TR/2001/REC-SVG-20010904/DTD/svg10.dtd">
<svg version="1.0" xmlns="http://www.w3.org/2000/svg"
width="52.168734pt" height="36.000000pt" viewBox="0 0 52.168734 36.000000"
preserveAspectRatio="xMidYMid meet">
<g transform="translate(0.000000,36.000000) scale(0.004467,-0.004467)"
fill="#4d4d4d" stroke="none">
<path d="M9465 7943 c-11 -3 -32 -15 -46 -27 -15 -11 -40 -28 -57 -38 -25 -13
-31 -24 -34 -55 -3 -32 -9 -41 -40 -58 -52 -28 -91 -88 -83 -127 5 -20 2 -35
-8 -46 -12 -14 -15 -37 -13 -107 4 -102 23 -159 59 -176 23 -10 24 -14 19 -82
-4 -56 -10 -79 -30 -104 -13 -18 -28 -30 -33 -28 -16 11 -215 13 -269 3 -30
-6 -91 -11 -135 -12 -79 -1 -81 -2 -155 -51 -119 -81 -255 -177 -260 -185 -6
-9 -99 -5 -132 6 -12 3 -30 14 -40 24 -11 10 -40 24 -65 31 -40 11 -60 10
-147 -6 -56 -10 -135 -19 -176 -20 -136 -4 -494 -115 -625 -195 -38 -24 -72
-46 -75 -49 -3 -3 -17 -12 -32 -20 -30 -15 -98 -143 -98 -185 0 -14 -4 -26 -9
-26 -5 0 -19 -21 -30 -46 -12 -25 -30 -54 -40 -65 -36 -39 -61 -105 -62 -165
-2 -93 6 -183 17 -194 8 -8 8 -23 1 -48 -15 -55 11 -102 71 -133 25 -13 61
-39 80 -57 l33 -34 -25 -25 c-23 -23 -41 -72 -36 -98 10 -46 -3 -79 -45 -123
-25 -25 -45 -50 -45 -55 0 -5 -9 -22 -20 -37 -11 -16 -25 -55 -31 -87 -5 -32
-17 -73 -25 -91 -21 -44 -4 -153 37 -238 16 -33 29 -65 29 -70 0 -6 8 -19 18
-30 9 -10 33 -66 53 -124 20 -58 39 -112 43 -121 6 -14 -6 -17 -91 -22 -54 -4
-123 -13 -153 -22 -65 -18 -556 -21 -629 -4 -36 8 -47 7 -62 -7 -27 -25 -23
-42 14 -63 17 -11 41 -29 52 -39 11 -11 94 -57 185 -101 123 -61 170 -89 183
-110 13 -22 28 -30 61 -35 25 -4 49 -12 54 -19 5 -7 29 -92 53 -189 l43 -177
-28 -26 c-32 -30 -30 -43 10 -65 23 -13 33 -30 51 -91 32 -109 30 -124 -25
-196 -64 -84 -128 -162 -161 -198 -15 -16 -43 -49 -62 -73 -33 -42 -35 -43
-79 -38 -82 10 -94 8 -125 -27 -16 -18 -34 -41 -40 -50 -9 -16 -15 -15 -77 8
-37 13 -114 34 -170 46 -90 18 -126 20 -283 16 -99 -3 -219 -12 -266 -21 -153
-28 -414 -120 -459 -162 -8 -8 -51 -37 -95 -66 -88 -57 -311 -275 -386 -378
-153 -211 -221 -371 -283 -672 -20 -98 -26 -154 -26 -258 0 -73 4 -149 10
-169 5 -20 17 -74 25 -121 23 -119 67 -246 132 -379 140 -283 418 -518 733
-620 205 -67 202 -66 406 -66 126 0 196 4 205 11 8 6 32 15 53 19 90 16 307
90 396 135 140 70 277 161 376 250 27 25 71 62 97 83 26 21 82 84 124 140 42
56 78 104 79 106 9 10 31 -22 27 -38 -3 -11 4 -39 15 -64 16 -35 28 -47 55
-56 20 -7 47 -28 63 -48 30 -40 122 -86 163 -81 18 2 27 10 29 26 4 27 7 27
40 3 42 -29 103 -52 124 -45 21 6 33 44 24 77 -3 13 -43 72 -88 131 -46 60
-89 117 -96 127 -12 15 -9 22 24 52 30 27 49 36 89 40 27 3 84 21 125 40 93
42 150 101 205 211 l40 79 1 129 0 129 744 814 c409 447 752 816 762 818 24 7
33 -12 52 -103 8 -41 21 -91 27 -109 10 -28 10 -36 0 -39 -81 -27 -368 -289
-472 -432 -153 -211 -221 -371 -283 -672 -20 -98 -26 -154 -26 -258 0 -73 4
-149 10 -169 5 -20 17 -74 25 -121 39 -203 144 -439 260 -579 182 -219 385
-363 625 -440 205 -67 202 -66 406 -66 126 0 196 4 205 11 8 6 32 15 53 19 90
16 307 90 396 135 140 70 277 161 376 250 27 25 71 62 98 83 65 53 204 243
260 354 74 149 125 296 148 428 34 202 13 565 -41 680 -5 11 -29 70 -54 131
-43 109 -105 230 -130 256 -7 7 -30 36 -51 63 -207 275 -485 450 -811 511 -71
13 -126 15 -265 11 -194 -6 -305 -22 -442 -67 -51 -16 -93 -28 -94 -27 -19 23
-65 136 -68 169 -2 24 -23 111 -46 193 -23 83 -48 175 -56 205 -8 30 -17 62
-20 72 -4 13 3 18 33 23 21 4 61 13 88 21 l51 15 23 92 c36 139 79 247 100
247 25 0 41 -20 41 -52 0 -37 57 -100 116 -128 l44 -22 34 20 33 20 33 -85
c33 -88 45 -101 79 -84 20 11 19 12 -11 77 -40 86 -44 163 -9 191 18 14 25 33
29 71 2 29 9 55 13 58 19 11 7 31 -38 69 -26 22 -68 47 -94 55 -26 9 -65 31
-86 49 -21 18 -66 52 -99 76 -34 24 -77 65 -95 92 -18 26 -52 71 -75 98 -28
33 -51 77 -70 130 -25 73 -28 95 -32 260 -3 140 1 221 17 364 21 178 22 185
55 230 77 105 111 203 127 368 11 106 12 110 72 217 34 60 81 129 103 155 l42
46 -28 50 -28 50 17 67 c14 58 18 66 33 57 29 -16 150 -27 183 -16 36 11 75
54 75 83 0 12 9 33 21 48 20 25 20 28 5 45 -24 26 -20 41 14 48 38 7 60 37 60
80 0 29 3 33 28 33 52 0 66 36 32 80 -25 32 -25 47 2 106 18 39 22 68 23 140
l0 91 46 17 c26 9 57 24 68 34 l22 17 -46 99 c-58 124 -74 145 -160 215 -91
74 -174 121 -214 121 -18 0 -45 7 -61 15 -18 9 -67 16 -137 18 -59 2 -118 9
-130 15 -21 12 -119 14 -158 5z m-585 -2455 c0 -7 -4 -29 -9 -49 -12 -53 11
-253 32 -276 13 -16 14 -25 5 -61 -6 -23 -14 -42 -17 -42 -4 0 -29 50 -56 110
-26 61 -52 113 -57 116 -4 3 -17 23 -28 44 -25 50 -17 70 53 127 53 43 77 53
77 31z m-190 -568 c14 -19 32 -54 38 -77 7 -24 21 -47 31 -52 12 -7 20 -26 24
-61 5 -40 15 -62 47 -100 33 -40 47 -49 84 -54 24 -4 50 -14 56 -21 7 -8 21
-15 31 -15 11 0 27 -4 37 -9 9 -5 37 -17 62 -27 56 -22 80 -42 80 -65 0 -24
-67 -42 -124 -34 -50 8 -92 -9 -125 -51 -17 -22 -19 -30 -9 -48 7 -11 13 -34
13 -51 0 -24 6 -33 31 -44 l31 -14 8 -115 c5 -82 3 -117 -5 -122 -6 -4 -75
-14 -153 -24 -78 -9 -162 -19 -187 -23 l-45 -6 47 48 c65 65 129 166 135 212
3 23 -1 53 -10 75 -16 38 -172 281 -198 308 -8 8 -27 33 -44 55 -16 22 -41 52
-55 66 -34 35 -142 155 -182 203 -18 22 -54 61 -80 86 -27 26 -48 51 -48 56 0
5 39 36 86 69 48 33 113 80 147 105 l60 46 95 -141 c52 -77 107 -156 122 -175z
m-1580 -517 c19 -11 30 -27 33 -50 3 -18 15 -46 26 -62 12 -16 21 -37 21 -48
0 -10 9 -36 21 -57 11 -22 30 -74 41 -115 11 -42 24 -81 29 -87 5 -6 18 -46
29 -88 11 -42 30 -94 41 -116 12 -23 20 -43 18 -45 -2 -2 -38 -8 -79 -14 -41
-6 -153 -22 -248 -36 -96 -15 -176 -24 -180 -21 -3 3 -6 29 -6 58 -1 31 -6 53
-14 56 -21 7 -31 35 -62 179 -16 76 -33 149 -36 163 -8 31 -41 67 -77 86 l-28
15 23 29 c13 16 37 32 54 35 17 4 64 33 104 65 65 52 81 60 125 63 114 8 138
7 165 -10z m1962 -665 c22 -18 60 -146 56 -190 -3 -32 -59 -99 -482 -572 -263
-295 -482 -536 -487 -536 -4 0 -11 5 -14 10 -4 6 -10 8 -15 5 -6 -4 -5 -14 2
-25 10 -16 1 -30 -71 -109 -61 -67 -87 -89 -96 -81 -16 13 -28 0 -14 -17 12
-13 -3 -43 -22 -43 -20 0 -140 79 -200 132 -59 54 -65 62 -61 91 8 55 194 321
291 417 47 47 111 123 141 170 l55 84 -2 111 c-1 60 -6 137 -11 170 l-10 59
52 52 c28 28 80 84 116 124 96 107 111 120 145 121 16 0 111 9 210 18 222 23
395 26 417 9z m-1627 -194 c20 -46 26 -77 29 -172 6 -127 1 -142 -45 -142 -16
0 -37 -8 -48 -19 -20 -20 -81 -180 -81 -214 0 -31 -9 -41 -70 -87 -36 -26 -64
-40 -85 -40 -17 0 -41 -7 -53 -16 -18 -12 -23 -13 -27 -2 -2 7 -28 121 -56
253 -28 132 -64 273 -80 313 l-28 73 22 8 c12 5 47 19 77 32 34 14 116 31 215
45 222 30 201 33 230 -32z m-549 -579 c36 -137 65 -261 65 -275 -1 -24 -45
-98 -68 -113 -6 -4 -17 -23 -23 -42 -17 -51 -15 -53 -105 65 -27 36 -89 104
-137 152 l-89 88 17 31 c9 18 28 62 43 99 28 69 147 266 185 308 l21 24 13
-44 c7 -24 42 -155 78 -293z m3368 -66 c48 -12 115 -35 147 -50 33 -16 61 -29
63 -29 2 0 35 -18 72 -40 149 -87 262 -203 362 -370 54 -90 107 -207 117 -256
59 -302 59 -396 0 -698 -23 -117 -151 -332 -273 -457 -177 -183 -389 -311
-647 -390 -106 -32 -116 -33 -280 -34 -202 0 -263 14 -439 100 -208 102 -345
236 -460 450 -72 135 -112 244 -122 337 -10 95 -12 368 -2 374 5 3 8 20 7 37
-2 42 25 166 47 214 95 212 133 279 213 371 90 103 149 161 272 265 39 33 47
29 75 -46 44 -115 197 -480 263 -627 74 -163 96 -185 141 -140 17 17 24 18 41
9 27 -14 65 1 73 29 4 12 -57 179 -169 462 -97 243 -175 444 -173 445 13 11
235 61 303 67 96 9 286 -2 369 -23z m-4300 -100 c48 -12 112 -34 141 -48 l54
-26 -296 -400 -296 -400 -63 -29 c-105 -47 -157 -120 -178 -247 -5 -26 -24
-54 -75 -107 -77 -81 -94 -123 -62 -155 16 -17 24 -18 68 -9 27 6 101 14 164
18 l115 7 14 -32 c7 -18 27 -43 45 -57 47 -36 52 -87 19 -231 -31 -139 -26
-176 26 -211 43 -29 85 -24 117 13 34 39 37 68 15 142 -32 109 -34 126 -22
250 8 85 8 126 1 146 -15 38 4 103 31 110 11 3 38 -3 61 -14 31 -13 65 -19
128 -19 55 0 103 -6 130 -16 24 -9 106 -22 182 -29 75 -7 140 -15 143 -18 4
-3 -7 -23 -23 -44 -59 -75 -59 -77 -9 -131 25 -27 84 -75 130 -106 l84 -58
-32 -52 c-42 -69 -202 -234 -279 -287 -209 -145 -299 -191 -492 -250 -106 -32
-116 -33 -280 -34 -202 0 -263 14 -440 101 -217 106 -359 250 -477 485 -72
142 -88 198 -108 368 -33 273 50 614 203 841 58 86 171 209 267 292 30 26 63
55 73 63 9 8 20 15 25 15 4 0 23 13 42 29 77 63 309 136 485 153 96 9 286 -2
369 -23z m321 -143 c22 -12 39 -29 37 -36 -2 -7 -104 -176 -228 -376 -261
-420 -266 -426 -350 -369 -20 14 -47 25 -60 25 -12 0 -25 4 -28 9 -6 9 571
771 583 771 3 0 24 -11 46 -24z m196 -169 c100 -115 226 -337 242 -428 3 -13
12 -61 21 -107 16 -82 15 -83 -8 -136 -13 -30 -32 -59 -43 -64 -10 -6 -43 -42
-73 -81 -30 -39 -59 -71 -65 -71 -5 0 -166 23 -356 51 l-346 53 71 115 c39 64
159 259 266 434 131 215 199 317 209 315 8 -2 45 -38 82 -81z m484 -144 c40
-19 42 -28 16 -62 -13 -17 -19 -20 -24 -10 -3 8 -12 31 -21 52 -19 43 -19 43
29 20z m539 -216 c16 -38 75 -77 149 -97 l48 -13 -53 -55 c-65 -67 -138 -102
-212 -102 -88 0 -111 8 -124 42 -11 29 -8 36 45 112 57 84 111 146 125 146 4
0 14 -15 22 -33z"/>
<path d="M0 3689 l0 -158 33 -5 c17 -3 140 -10 272 -16 224 -10 320 -18 635
-55 69 -8 213 -20 320 -25 211 -11 281 -19 465 -49 66 -10 174 -22 240 -26 66
-3 178 -15 250 -26 104 -16 195 -21 465 -24 184 -2 385 -9 445 -15 61 -6 191
-15 290 -20 149 -7 194 -13 260 -34 144 -46 238 -31 285 46 27 44 27 122 0
166 -22 36 -74 72 -105 72 -11 0 -56 12 -100 26 -66 21 -111 27 -265 35 -102
5 -228 13 -280 19 -52 5 -250 12 -440 15 -259 5 -377 11 -475 25 -71 10 -184
22 -250 25 -66 4 -176 16 -245 27 -182 29 -254 36 -465 48 -104 5 -246 16
-315 24 -305 37 -409 46 -630 56 -129 6 -270 14 -312 19 l-78 7 0 -157z"/>
<path d="M0 985 l0 -155 38 0 c20 0 93 -10 162 -22 130 -22 281 -29 1010 -47
184 -5 371 -13 415 -19 44 -7 170 -16 280 -22 110 -5 238 -17 285 -25 108 -19
311 -19 505 -1 238 24 439 36 749 46 271 9 291 11 329 33 111 61 119 212 15
278 -29 18 -43 20 -108 15 -41 -4 -192 -11 -335 -16 -280 -10 -662 -35 -778
-50 -103 -13 -199 -12 -302 5 -49 8 -178 20 -286 25 -108 6 -232 16 -275 22
-44 6 -230 14 -414 19 -742 19 -890 26 -1015 48 -66 11 -155 21 -197 21 l-78
0 0 -155z"/>
</g>
</svg>
