<?xml version="1.0" standalone="no"?>
<!DOCTYPE svg PUBLIC "-//W3C//DTD SVG 20010904//EN"
"http://www.w3.org/TR/2001/REC-SVG-20010904/DTD/svg10.dtd">
<svg version="1.0" xmlns="http://www.w3.org/2000/svg"
width="52.382609pt" height="36.000000pt" viewBox="0 0 52.382609 36.000000"
preserveAspectRatio="xMidYMid meet">
<g transform="translate(0.000000,36.000000) scale(0.005217,-0.005217)"
fill="#4d4d4d" stroke="none">
<path d="M4087 6184 c-1 -1 -29 -5 -62 -8 -116 -10 -184 -25 -303 -64 -154
-52 -370 -165 -440 -229 -7 -7 -17 -13 -21 -13 -5 0 -26 -14 -47 -30 -22 -17
-48 -37 -59 -45 -36 -28 -74 -59 -116 -97 -31 -28 -39 -41 -34 -57 5 -17 15
-21 48 -21 23 0 56 7 72 16 17 9 73 32 125 51 271 99 430 136 590 137 136 1
142 0 207 -42 45 -29 50 -35 47 -65 -4 -35 -8 -53 -17 -79 -9 -23 -16 -46 -18
-56 0 -4 -7 -18 -14 -32 -7 -14 -30 -61 -50 -105 -20 -44 -41 -90 -47 -101 -6
-12 -21 -27 -34 -33 -13 -6 -24 -19 -24 -28 0 -10 -9 -29 -20 -43 -11 -14 -20
-31 -20 -38 0 -7 -11 -30 -25 -50 -14 -20 -25 -41 -25 -47 0 -6 -13 -32 -30
-58 -16 -26 -30 -52 -30 -57 0 -5 -16 -35 -36 -66 -20 -31 -37 -62 -38 -68 -1
-6 -32 -59 -69 -117 -37 -58 -67 -109 -67 -114 0 -13 -141 -234 -154 -243 -7
-4 -42 -55 -79 -114 -38 -58 -79 -118 -92 -132 -13 -15 -36 -47 -51 -71 -14
-25 -30 -45 -35 -45 -5 0 -16 -14 -24 -31 -9 -16 -24 -38 -34 -48 -10 -10 -30
-35 -43 -55 l-25 -36 -251 198 c-138 108 -251 202 -252 207 0 6 -24 29 -52 50
-61 46 -164 140 -222 205 -23 25 -56 59 -73 77 -18 17 -33 34 -33 37 0 3 -16
22 -35 43 -19 21 -35 42 -35 47 0 5 -15 32 -34 60 -18 28 -41 73 -51 99 -10
26 -22 50 -26 53 -5 3 -9 11 -9 19 0 8 -5 26 -12 42 -6 15 -19 55 -29 88 -10
33 -28 94 -40 135 -12 41 -28 89 -35 107 -8 17 -14 40 -14 51 0 12 -4 24 -10
27 -5 3 -10 15 -10 26 0 10 -4 27 -9 37 -24 46 -91 202 -91 211 0 6 -5 11 -10
11 -6 0 -15 11 -20 25 -5 14 -14 25 -20 25 -5 0 -10 4 -10 8 0 24 -210 212
-236 212 -5 0 -31 11 -59 24 -90 43 -178 60 -318 59 -77 0 -132 -4 -135 -10
-4 -6 -25 -13 -47 -16 -63 -8 -138 -26 -144 -35 -4 -4 -23 -13 -44 -20 -72
-26 -219 -100 -225 -114 -2 -5 -9 -8 -16 -8 -6 0 -26 -13 -44 -30 -18 -16 -37
-30 -41 -30 -14 0 -102 -93 -98 -104 5 -15 138 -83 179 -91 18 -3 42 -10 53
-15 33 -15 167 -53 215 -61 37 -6 188 -41 237 -54 16 -5 5 -100 -24 -215 -2
-8 -5 -29 -6 -47 -2 -18 -5 -34 -8 -38 -6 -5 -122 17 -374 71 -66 14 -147 27
-180 30 -33 2 -87 6 -120 8 -74 5 -103 -1 -107 -22 -6 -31 20 -130 51 -196 47
-99 229 -326 262 -326 5 0 9 -6 9 -14 0 -7 66 -64 146 -127 122 -94 144 -116
140 -133 -4 -12 -9 -95 -13 -186 -5 -144 -4 -167 10 -178 9 -8 22 -15 29 -16
7 -2 20 -6 28 -9 8 -3 33 -9 55 -13 22 -4 47 -9 55 -11 58 -14 160 -25 315
-33 290 -15 317 -18 370 -30 28 -7 64 -14 80 -17 17 -2 34 -9 40 -14 5 -5 21
-9 35 -9 14 0 31 -5 37 -11 6 -6 17 -12 24 -13 46 -9 157 -65 205 -103 23 -18
44 -30 47 -26 3 3 25 -11 49 -30 24 -20 55 -40 68 -45 14 -5 61 -38 105 -73
44 -35 87 -65 95 -67 8 -2 22 -9 30 -16 15 -12 252 -198 259 -203 5 -3 -60
-103 -68 -103 -4 0 -15 -15 -26 -32 -10 -18 -26 -40 -36 -48 -9 -8 -45 -60
-79 -115 -35 -55 -69 -104 -76 -110 -17 -14 -104 -151 -104 -163 0 -6 -46 -81
-101 -168 -56 -86 -102 -163 -103 -170 -1 -7 -30 -57 -65 -111 -35 -54 -64
-104 -65 -111 -1 -7 -90 -150 -197 -317 -107 -168 -194 -309 -194 -314 0 -12
-257 -415 -267 -419 -5 -2 -29 -36 -54 -75 -26 -40 -52 -76 -58 -82 -7 -5 -24
-26 -39 -46 -14 -20 -44 -55 -66 -78 -22 -22 -38 -41 -36 -41 2 0 -7 -12 -21
-27 -23 -24 -25 -33 -18 -77 6 -47 33 -89 88 -135 10 -9 26 -23 35 -32 9 -9
54 -40 101 -69 47 -29 92 -60 100 -69 9 -9 21 -17 28 -19 7 -1 30 -13 50 -26
20 -13 40 -24 44 -25 4 -1 25 -9 45 -18 21 -8 45 -17 53 -18 8 -2 15 -4 15 -5
0 -6 46 -9 71 -5 47 8 78 42 108 120 15 38 36 81 47 96 10 15 19 32 19 38 0 6
15 34 32 63 18 29 33 57 34 63 2 15 625 988 640 1000 7 6 42 57 79 115 37 58
73 110 80 115 7 6 45 62 85 125 39 63 80 122 89 130 20 18 281 426 281 440 0
5 25 48 55 95 30 46 55 90 55 97 0 7 7 21 15 32 13 17 20 13 117 -64 57 -46
119 -99 138 -119 19 -20 106 -92 193 -160 86 -68 157 -128 157 -132 0 -5 40
-40 90 -80 49 -39 90 -74 90 -79 0 -5 30 -33 68 -62 66 -52 136 -116 231 -209
25 -25 76 -70 114 -98 37 -29 67 -57 67 -61 0 -5 59 -54 131 -111 72 -56 136
-111 142 -121 7 -10 48 -47 92 -81 76 -59 158 -132 249 -223 23 -22 71 -64
109 -93 37 -29 67 -56 67 -61 0 -13 270 -224 312 -244 20 -10 42 -24 49 -32 6
-8 18 -14 25 -14 8 0 22 -4 32 -9 39 -21 108 -30 148 -20 120 33 205 96 309
229 64 82 78 108 106 193 31 96 36 141 23 202 -9 41 -42 102 -60 109 -8 3 -14
11 -14 18 -1 15 -227 195 -276 219 -18 9 -50 31 -71 48 -21 17 -42 31 -49 31
-6 0 -37 20 -68 45 -32 25 -63 45 -68 45 -6 0 -27 13 -48 30 -21 17 -43 30
-50 30 -7 0 -55 34 -106 75 -51 41 -100 75 -109 75 -9 0 -18 7 -21 15 -4 8
-10 15 -15 15 -5 0 -84 59 -174 130 -91 72 -170 130 -176 130 -6 0 -62 41
-125 90 -62 50 -124 94 -136 99 -13 5 -75 50 -138 100 -63 50 -120 91 -126 91
-6 0 -85 58 -175 130 -90 71 -172 130 -181 130 -9 0 -19 4 -22 9 -3 5 -119 97
-256 206 -192 150 -250 201 -245 214 4 9 7 21 8 26 1 6 17 34 35 63 17 29 32
57 32 63 0 5 16 33 35 62 19 28 35 58 35 65 0 7 13 33 30 57 16 24 34 55 40
69 12 33 355 572 385 606 12 14 37 47 55 74 18 27 41 57 50 66 9 9 28 36 40
59 13 22 27 41 31 41 4 0 21 23 39 50 18 28 35 50 39 50 4 0 14 12 23 28 9 15
30 42 47 61 32 36 38 51 21 51 -11 0 93 166 119 190 9 8 35 45 59 82 48 74 85
98 153 98 57 0 168 -28 201 -51 14 -11 31 -19 37 -19 20 0 64 -33 123 -93 42
-42 70 -83 104 -156 40 -83 54 -102 91 -125 23 -15 49 -29 56 -30 8 -1 26 -9
40 -19 15 -9 28 -17 31 -17 7 0 329 508 327 517 -1 4 -40 32 -87 62 l-85 55
-84 -2 c-46 -1 -103 2 -127 8 -24 6 -54 13 -68 16 -80 17 -245 159 -279 241
-20 48 -99 123 -129 123 -15 0 -373 229 -396 252 -19 20 -93 56 -130 63 -12 2
-21 4 -21 5 0 8 -310 31 -318 24z m1713 -4644 c30 -6 61 -17 70 -25 9 -8 25
-15 34 -15 10 0 20 -9 23 -20 3 -11 9 -20 14 -20 5 0 14 -11 19 -25 5 -14 14
-25 18 -25 19 0 44 -110 38 -163 -9 -79 -10 -81 -34 -111 -12 -16 -22 -35 -22
-42 0 -8 -5 -14 -11 -14 -6 0 -21 -13 -34 -28 -13 -16 -43 -34 -67 -41 -24 -7
-51 -17 -61 -22 -9 -5 -27 -7 -40 -4 -12 2 -40 7 -62 10 -80 11 -153 64 -194
143 -24 45 -43 125 -36 151 4 14 9 37 12 51 2 14 8 29 14 34 5 6 9 16 9 24 0
16 49 82 61 82 5 0 18 8 29 18 25 21 106 51 141 52 15 0 50 -5 79 -10z"/>
<path d="M8116 6011 c-21 -4 -32 -14 -38 -36 -5 -16 -13 -39 -18 -50 -5 -11
-18 -73 -30 -138 -11 -65 -25 -125 -30 -135 -5 -9 -18 -66 -30 -127 -12 -60
-25 -114 -29 -120 -4 -5 -16 -59 -26 -118 -10 -59 -22 -110 -26 -113 -4 -2 -5
-12 -2 -20 3 -9 2 -19 -4 -23 -5 -3 -17 -47 -27 -98 -16 -86 -16 -99 -1 -210
9 -65 21 -126 27 -136 5 -11 8 -35 7 -55 -2 -21 4 -50 12 -67 12 -26 22 -31
72 -39 l58 -9 -3 -55 -3 -54 -52 -21 c-57 -24 -68 -39 -78 -113 -4 -27 -12
-54 -17 -61 -5 -6 -12 -43 -15 -82 l-6 -71 -49 0 c-48 0 -49 -1 -67 -43 -32
-75 -72 -95 -233 -115 -43 -5 -90 -17 -104 -27 -23 -15 -26 -22 -21 -54 2 -20
13 -57 24 -81 11 -25 28 -70 37 -100 10 -30 23 -66 29 -79 20 -39 15 -179 -7
-226 -37 -79 -139 -292 -184 -385 -26 -52 -47 -97 -47 -100 -1 -3 -30 -66 -66
-140 -36 -74 -72 -151 -79 -170 -7 -19 -23 -57 -35 -85 -12 -27 -28 -68 -34
-90 -7 -22 -19 -55 -27 -72 -18 -40 -44 -182 -44 -240 0 -23 -5 -43 -12 -45
-15 -5 -16 -641 -1 -660 6 -7 13 -60 17 -118 12 -184 38 -425 47 -428 5 -2 9
-11 9 -20 0 -39 23 -96 48 -119 27 -26 110 -68 126 -64 4 1 14 -3 21 -9 7 -6
38 -11 68 -11 68 -1 143 31 205 89 l42 39 -2 665 c-2 472 0 672 8 689 6 13 21
84 33 158 11 74 25 139 30 145 5 6 19 48 31 94 12 45 26 82 30 82 4 0 11 15
14 34 8 43 140 304 166 328 11 10 20 23 20 27 0 13 124 175 171 223 52 54 113
158 133 229 9 31 25 73 36 94 11 22 20 45 20 51 0 7 5 25 12 41 6 15 12 30 13
33 1 3 5 12 8 20 4 8 14 51 22 95 9 44 18 87 22 95 3 8 5 34 4 58 -2 23 2 42
7 42 5 0 12 24 15 53 3 29 12 70 21 90 l15 37 85 0 c65 0 86 -3 86 -13 0 -8 7
-27 15 -43 8 -16 22 -85 31 -154 10 -69 21 -127 24 -130 4 -3 15 -43 24 -90
10 -47 24 -98 32 -115 7 -16 20 -56 28 -87 14 -56 80 -207 94 -218 4 -3 36
-39 70 -80 35 -41 74 -86 86 -100 13 -14 44 -59 71 -100 26 -41 56 -86 65
-100 9 -14 25 -41 35 -60 10 -19 21 -37 25 -40 3 -3 17 -33 29 -67 13 -35 27
-63 31 -63 4 0 15 -28 24 -62 10 -35 24 -76 31 -93 17 -35 45 -141 45 -167 0
-10 4 -18 9 -18 5 0 7 -9 4 -21 -3 -12 -1 -24 4 -28 13 -8 33 -157 40 -294 3
-59 10 -110 15 -113 11 -7 10 -97 -1 -109 -5 -6 -11 -228 -15 -495 l-6 -486
35 -51 c25 -37 48 -58 82 -74 27 -12 53 -21 60 -20 6 1 14 -3 18 -9 8 -13 112
-13 120 0 4 6 14 10 23 9 10 -1 29 3 45 9 15 7 38 16 52 22 52 20 104 147 105
255 0 23 4 45 9 50 11 13 28 181 42 435 18 319 0 797 -31 835 -5 6 -7 15 -3
18 3 4 1 12 -4 19 -6 7 -18 43 -28 81 -10 37 -22 67 -26 67 -5 0 -6 7 -3 15 4
8 2 15 -4 15 -5 0 -12 12 -15 28 -3 15 -14 45 -23 67 -10 22 -18 42 -19 45 0
3 -28 61 -61 130 -34 69 -80 163 -102 210 -22 47 -69 146 -105 220 -104 219
-109 232 -115 298 -5 62 15 212 28 212 4 0 15 28 24 63 10 34 24 76 33 94 35
74 -4 106 -144 122 -50 5 -104 16 -120 24 -27 15 -77 67 -99 103 -7 12 -25 20
-50 22 -47 3 -59 24 -68 117 -12 135 -39 189 -108 218 -35 15 -36 17 -40 71
-2 39 1 56 9 56 7 0 34 5 61 11 l50 10 10 57 c6 31 14 86 17 122 4 36 11 71
17 78 15 18 16 215 2 233 -6 8 -21 73 -34 144 -12 72 -26 135 -30 140 -4 6
-18 66 -30 135 -12 69 -26 130 -30 135 -4 6 -15 54 -25 108 -10 54 -22 100
-26 103 -5 2 -6 11 -2 19 3 9 0 21 -6 28 -6 7 -13 39 -17 71 -10 83 -25 97
-110 103 -105 8 -106 6 -134 -209 -13 -98 -27 -178 -32 -178 -4 0 -8 -13 -8
-29 0 -20 13 -42 45 -75 50 -53 60 -79 52 -136 -8 -62 -42 -107 -102 -135
l-53 -25 -6 -68 c-13 -132 -18 -159 -27 -137 -4 11 -8 34 -8 52 -1 17 -5 35
-11 38 -5 3 -10 24 -10 46 0 52 -13 76 -53 93 -74 34 -103 89 -95 184 5 51 9
60 46 92 l41 35 -15 110 c-9 61 -20 120 -26 132 -6 12 -8 35 -6 52 3 17 1 31
-2 31 -4 0 -10 22 -12 50 -7 68 -19 80 -82 79 -28 -1 -64 -4 -80 -8z"/>
</g>
</svg>
