<?xml version="1.0" encoding="UTF-8" standalone="no"?>
<svg
xmlns:rdf="http://www.w3.org/1999/02/22-rdf-syntax-ns#"
xmlns="http://www.w3.org/2000/svg"
xmlns:dc="http://purl.org/dc/elements/1.1/"
xmlns:svg="http://www.w3.org/2000/svg"
viewBox="0 0 649.38 459.61"
version="1.0"
>
<defs id="defs2650" >
<linearGradient
id="linearGradient1645"
y2="224.62"
gradientUnits="userSpaceOnUse"
x2="87.915"
gradientTransform="translate(31.396 -21.076)"
y1="250.43"
x1="68.391"
/>
<linearGradient
id="linearGradient1648"
y2="187.11"
gradientUnits="userSpaceOnUse"
x2="58.242"
gradientTransform="translate(31.396 -21.076)"
y1="220.64"
x1="22.944"
/>
<radialGradient
id="radialGradient1651"
gradientUnits="userSpaceOnUse"
cy="223.9"
cx="211.62"
gradientTransform="matrix(1 0 0 .40259 31.396 112.68)"
r="45.439"
>
<stop
style="stop-color:#8686ff"
offset="0"
/>
<stop
style="stop-color:#0d0d59"
offset="1"
/>
</radialGradient
>
<linearGradient
id="linearGradient1657"
y2="382.01"
gradientUnits="userSpaceOnUse"
x2="661.3"
gradientTransform="translate(31.396 -21.076)"
y1="382.01"
x1="142.2"
>
<stop
style="stop-color:#bebebe"
offset="0"
/>
<stop
style="stop-color:#323232"
offset="1"
/>
</linearGradient
>
<linearGradient
id="linearGradient1660"
y2="442.84"
gradientUnits="userSpaceOnUse"
x2="407.98"
gradientTransform="translate(31.396 -21.076)"
y1="442.84"
x1="54.404"
>
<stop
style="stop-color:#575757"
offset="0"
/>
<stop
style="stop-color:#aeaeae"
offset="1"
/>
</linearGradient
>
<linearGradient
id="linearGradient1663"
y2="575.37"
gradientUnits="userSpaceOnUse"
x2="628.02"
gradientTransform="translate(31.396 -21.076)"
y1="575.37"
x1="378.96"
>
<stop
style="stop-color:#7c7c7c"
offset="0"
/>
<stop
style="stop-color:#767676;stop-opacity:0"
offset="1"
/>
</linearGradient
>
</defs
>
<g
transform="translate(-.53121 .10698)"
>
<g
transform="translate(-42.778 -118.49)"
>
<path
style="stroke-width:1px;fill:#222222"
d="m407.82 556.92c-53.58-13.26-274.42-122.47-321.81-271.8-0.51-6.32 0.982-11.93 0.935-19.1 92.975-129.38 160.46-123.47 296.02-106.72 2.19 10.54 1.37 11.37 1.42 17.16 2.89-1.07 3.26-0.21 5.89-1.08 1.13-3.33 0.2-7.37-0.19-10.96 428.66 121.72 368.25 505.5 17.74 392.5z"
/>
<path
style="stroke-width:1px;fill:none"
d="m86.37 286.61c11.362 59.21 194.31 152.53 306.71 211.21 9.38 6.08 27.43 12.89 46.12 47.21 50.38 17.43 157.44 32.59 217.27-14.43l3.65-4.45c-72.06 49.73-177.22 28.23-217.61 15.67-10.5-20.41-26.22-35.29-45.16-46.07-49.13-26.95-291.17-139.11-310.98-214.34v5.2z"
/>
<path
style="opacity:.72464;fill-rule:evenodd;fill:url(#linearGradient1663)"
d="m438.86 545.21c4.39-0.45-2.97 10.68-28.01 11.48 60.05 21.63 184.19 44.22 248.27-29.01-64.95 45.34-160.04 35.93-220.26 17.53z"
/>
<path
style="fill-rule:evenodd;fill:url(#linearGradient1660)"
d="m408.98 556.48c15.75-1.43 29.71-5.28 29.9-11.24-10.47-17.82-9.6-20.94-33.68-39.38-167.24-90.62-284.15-147.43-319-220.41 32.12 122.34 202.54 231.63 322.78 271.03z"
/>
<path
style="stroke-width:1px;fill:url(#linearGradient1657)"
d="m172.69 350.48c151.22 107.17 240.42 104.12 270.08 191.03 64.66 18.51 145.16 28.77 216.7-14.53 105.71-119.95-60.78-320.06-269.55-362.49 12.62 58.14-113.58 115.51-217.23 185.99z"
/>
<path
style="fill:#b4b4b4"
d="m172.54 350.87s-1.18 9.53-3.16 16.75c166.6 117.71 231.62 104.04 272.95 173.45-41.75-96.01-121.05-83.08-269.79-190.2z"
/>
<path
style="fill:#b8b8b8"
d="m167.49 347.28c-40.41-22.58-69.083-53.03-79.717-81.49 82.477-107.91 132.03-129.16 295.1-105.26 7.16 32.7-13.76 45.25-34.35 66.94-20.59-5.61-46.12-15.02-63.87-17.17 4.1-2.74 5.11-8.64-2.08-12.5-39.84-13-72.66-16.51-90.64 13.34 0.02 3.72 62.79 19.33 90.65 1.61 29.81 5.57 56.41 14.34 62.57 17.09-33.92 32.07-122.55 81.43-177.66 117.44z"
/>
<path
style="fill:#b4b4b4"
d="m164.7 364.36c0.54-5.35 2.11-11.74 2.64-17.09-42.09-22.65-69.443-53.3-79.746-81.89-0.357 5.71-0.713 11.42-1.07 17.13 14.776 34.43 42.216 54.65 78.176 81.85z"
/>
<path
style="fill:url(#radialGradient1651)"
d="m198.07 214.43c18.55 3.75 71.59 15.31 89.68-8.01 3.87-5.75-47.36-33.79-74.17-14.99-6.91 7.17-12.08 10.21-15.51 23z"
/>
<path
style="fill:url(#linearGradient1648)"
d="m105.74 204.2c-16.819-16.49-44.451-45.22-62.431-85.82l0.221 43.46c10.203 15.17 33.202 45.01 50.3 57.8l11.91-15.44z"
/>
<path
style="stroke:#000000;stroke-width:.5;fill:url(#linearGradient1645)"
d="m132.5 212.34c-8.35-4.94-12.73-8.09-20.1-13.05-9.25 3.75-19.953 14.18-18.004 27.5 4.927 3.28 8.494 5.91 15.424 10.21 7.71-10.48 17.57-18.07 22.68-24.66z"
/>
</g
>
</g
>
</svg
>
