<?xml version="1.0"?>
<svg xmlns:rdf="http://www.w3.org/1999/02/22-rdf-syntax-ns#" xmlns="http://www.w3.org/2000/svg" xmlns:cc="http://creativecommons.org/ns#" xmlns:xlink="http://www.w3.org/1999/xlink" xmlns:dc="http://purl.org/dc/elements/1.1/" xmlns:svg="http://www.w3.org/2000/svg" id="Layer_1" version="1.1" xml:space="preserve" viewBox="0 0 15.917 15.934" enable-background="new 0 0 15.917 15.934" y="0px" x="0px"
width="36"
height="36"
>
<switch id="switch5">
<g id="g9">
<g id="g11">
<g id="g13">
<path id="path15" d="m15.218 2.886c-0.184-0.49-0.661-0.728-1.165-0.893-0.783-0.297-1.56 0.273-2.276 0.035 0-0.323 0.043-0.817-0.272-1.023-2.26-0.964-4.888-0.757-7.257-0.642-0.841 0.095-1.808 0.149-2.452 0.571l-0.176 0.857c-0.015 0-0.176 2.452-0.091 3.66-0.024 2.171 0.132 4.341-0.733 6.436-0.129 1.01-0.723 2.005-0.476 2.986 1.199 0.486 2.743 0.486 4.073 0.711l1.6 0.086c1.759 0.022 3.522-0.075 5.29-0.387 0.576-0.154 1.067-0.229 1.598-0.358 0.163-0.036 0.251-0.18 0.278-0.335 0.258-1.073-1.036-2.282-0.314-3.227 0.907-0.715 2.333-0.616 2.725-1.703 0.14-2.267 0.163-4.565-0.352-6.774zm-1.563 5.92c-0.416 0.447-0.747 0.549-1.245 0.473l-0.297-0.149s-0.025-0.037-0.052-0.109c-0.114-1.551-0.7-3.437-0.139-4.983 0.367-0.195 0.869-0.285 1.275-0.077 0.054 0.045 0.084 0.077 0.142 0.151 0.451 1.471 0.731 4.246 0.316 4.694z"/>
</g>
<g id="g17">
<path id="path19" d="m15.218 2.886c-0.184-0.49-0.661-0.728-1.165-0.893-0.783-0.297-1.56 0.273-2.276 0.035 0-0.323 0.043-0.817-0.272-1.023-2.26-0.964-4.888-0.757-7.257-0.642-0.841 0.095-1.808 0.149-2.452 0.571l-0.176 0.857c-0.015 0-0.176 2.452-0.091 3.66-0.024 2.171 0.132 4.341-0.733 6.436-0.129 1.01-0.723 2.005-0.476 2.986 1.199 0.486 2.743 0.486 4.073 0.711l1.6 0.086c1.759 0.022 3.522-0.075 5.29-0.387 0.576-0.154 1.067-0.229 1.598-0.358 0.163-0.036 0.251-0.18 0.278-0.335 0.258-1.073-1.036-2.282-0.314-3.227 0.907-0.715 2.333-0.616 2.725-1.703 0.14-2.267 0.163-4.565-0.352-6.774zm-1.563 5.92c-0.416 0.447-0.747 0.549-1.245 0.473l-0.297-0.149s-0.025-0.037-0.052-0.109c-0.114-1.551-0.7-3.437-0.139-4.983 0.367-0.195 0.869-0.285 1.275-0.077 0.054 0.045 0.084 0.077 0.142 0.151 0.451 1.471 0.731 4.246 0.316 4.694z" stroke="#000" stroke-width=".5225" fill="none"/>
</g>
</g>
<path id="path21" d="m4.458 15.367c1.612-0.058 4.132 0.396 7.534-0.458 0.371-0.048 0.674-0.377 0.838-0.657 0.079-0.247 0.052-0.499-0.164-0.705-0.684-1.893-0.77-4.054-1.145-6.001-0.386-2.15 0.125-4.269-0.19-6.369-0.342-0.253-0.896-0.283-1.363-0.377-1.264-0.193-2.49-0.161-3.717-0.23-1.27-0.058-2.526 0.068-3.762 0.287-0.184 0.045-0.327 0.095-0.42 0.175-0.48 0.961-0.078 2.055-0.163 3.079 0.05 2.267 0.116 4.493-0.377 6.724-0.148 1.297-1.124 2.403-1.053 3.65 1.044 0.781 2.675 0.64 3.982 0.882z" fill="#fff"/>
<path id="path23" d="m12.512 11.173c0.74-0.427 1.458-0.65 1.458-0.65l0.927-0.387s0.355-0.256 0.467-0.436c0.175-0.527 0.072-0.983 0.072-1.464-0.002-2.019-0.157-4.175-0.157-4.073 0.06-0.671-0.201-1.33-0.754-1.691-0.418-0.201-0.896-0.299-0.896-0.299l-0.786 0.03s-0.599 0.142-1.056 0.092l-0.105 1.395c0.389-0.231 1.01-0.234 1.517-0.126 0.402 0.153 0.652 0.543 0.728 0.879 0.056 1.662 0.921 3.838-0.454 5.049-0.368 0.193-0.821 0.32-1.233 0.302l0.229 1.405 0.043-0.026z" fill="#fff"/>
<path id="path25" d="m5.263 1.593c1.863-0.077 3.747 0.055 5.638-0.277 0.025-0.14-0.174-0.202-0.301-0.266-0.396-0.126-0.798-0.098-1.17-0.206-0.845-0.019-1.615-0.108-2.433 0l1.644 0.161s1.066-0.082 1.066 0.132-4.444 0.353-6.104 0.071c-0.083-0.05-0.11-0.077-0.114-0.126l1.394-0.148c-0.55-0.172-1.476-0.041-2.177 0.018-0.167 0.031-0.289 0.031-0.369 0.13-0.008 0.017-0.008 0.054 0 0.094 0.901 0.394 1.94 0.287 2.926 0.417z"/>
<path id="path27" d="m11.073 13.441l0.487-0.284 0.077-0.925-0.445-2.28-0.511-5.127-0.045-2.316c-2.718 0.247-5.108 0.261-7.504 0.018v-0.022l-0.212 3.528-0.657 5.693-0.326 0.638 0.08 1.092c3.099 0.611 6.158 0.522 9.056-0.015z" fill="#F1BC2A"/>
<path id="path29" d="m5.574 13.877c0.28 0.028 0.563-0.066 0.718-0.285 0.301-0.382 0.324-0.896 0.337-1.335-0.013-0.025-0.057-0.126-0.097-0.036-0.08 0.419-0.06 0.911-0.396 1.221-0.217 0.15-0.609 0.278-0.874 0.11-0.327-0.213-0.452-1.755-0.352-2.146-0.143-0.026-0.117 0.186-0.198 0.289 0.022 0.414 0.081 1.821 0.435 2.025 0.156 0.055 0.285 0.124 0.427 0.157z"/>
<path id="path31" d="m8.487 13.877l0.582-0.033c0.435-0.252 0.614-0.768 0.573-1.254 0.021-0.286 0-0.575-0.046-0.847-0.08-0.063-0.018-0.049-0.093-0.037-0.031 0.601 0.04 1.351-0.393 1.84-0.187 0.174-0.499 0.135-0.786 0.027-0.315-0.211-0.459-0.463-0.424-0.787-0.006-0.035-0.035-0.035-0.062 0-0.085 0.297-0.022 0.678 0.225 0.895 0.123 0.094 0.283 0.163 0.424 0.196z"/>
<path id="path33" d="m2.33 13.775l0.531-0.022c0.348-0.236 0.633-1.458 0.582-1.943 0-0.044-0.094-0.057-0.1 0.022-0.14 0.37-0.305 1.481-0.694 1.644-0.201 0.077-0.372 0.022-0.486-0.078-0.433-0.646 0.167-1.399 0.115-2.073-0.254 0.606-0.657 1.346-0.462 2.039 0.091 0.21 0.259 0.356 0.514 0.411z"/>
<path id="path35" d="m10.97 13.73c0.195 0.022 0.392-0.049 0.534-0.138 0.584-1.155-0.312-2.56-0.262-3.838-0.077-0.068-0.02-0.054-0.087-0.037l0.349 3.359c-0.111 0.165-0.313 0.312-0.577 0.32-0.131-0.009-0.146-0.058-0.22-0.084l-0.314-0.37c-0.129 0.037-0.104 0.172-0.098 0.268 0.054 0.103 0.098 0.156 0.139 0.231l0.536 0.289z"/>
<path id="path37" d="m2.86 6.435c0.437-1.359 0.027-2.895 0.523-4.219 0-0.026-0.005-0.058-0.041-0.076-0.176 0-0.393 0.099-0.405 0.31-0.015 0.21-0.042 2.697-0.145 4.019l0.068-0.034z"/>
<path id="path39" d="m10.763 5.535l-0.056-3.177c-0.015-0.031-0.029-0.086-0.106-0.091-0.042 0-0.068 0.005-0.106 0.054-0.118 1.013-0.001 2.272 0.268 3.214z"/>
<path id="path41" d="m6.392 4.915c0.055-0.575 0.08-2.082-0.347-2.515-0.152-0.102-0.388-0.08-0.582-0.004-0.28 0.184-0.343 2.444-0.315 2.795 0 0.058 0.083 0.053 0.115 0 0.057-0.329 0.04-2.516 0.405-2.642 0.186 0 0.355 0.144 0.453 0.284 0.128 0.317 0.028 0.6 0.17 0.857 0.016 0.152-0.008 0.965-0.026 1.105l0.127 0.12z"/>
<path id="path43" d="m7.969 3.91l0.302-1.216c0.2-0.214 0.513-0.087 0.774-0.064l-0.292-0.304-0.266-0.028c-0.175 0.059-0.417 0.152-0.463 0.346-0.042 0.206-0.151 0.964-0.088 1.144l0.033 0.122z"/>
</g>
</switch>
</svg>
